{
  "isbn": "123",
  "program": "123",
  "grade": "133",
  "non_grade_title": "133",
  "programType": "ela",
  "teacher": [
    {
      "component": "Core Resources",
      "libraryItems": [
        {
          "id": "9781328787453-00002",
          "card": 15,
          "HMH_ID": "MXCC_NA18E_GAB_G05U01L00S14_0002",
          "media_type": "PDF",
          "parent_resource_id": "",
          "se_facing": true,
          "sort_id": "",
          "relative_url": "/content/hsp/math/mx2018/na/gr5/game_boards_9781328787453_/0001-DHA-5_MNLEGB738639_U01.pdf",
          "categorization": "Study Aids and Workbooks",
          "tool_type": "",
          "meaningful_description": "During the board game \"What's the Difference?,\" students will subtract fractions with unlike denominators.",
            "display_title": " Unit 1: What's the Difference?",
           "component_type": "Game Boards",
          "standards": "",
          "bigidea": "",
          "component": "Game Boards",
          "dashboardGroup": "Core Resources"
        },
        {
          "id": "9781328787453-00003",
          "card": 15,
          "HMH_ID": "MXCC_NA18E_GAB_G05U01L00S14_0003",
          "media_type": "PDF",
          "parent_resource_id": "",
          "se_facing": true,
          "sort_id": "",
          "relative_url": "/content/hsp/math/mx2018/na/gr5/game_boards_9781328787453_/DHA-5_MNLEAN703880_Unit1_BGBLM.pdf",
          "categorization": "Study Aids and Workbooks",
          "tool_type": "",
          "meaningful_description": "The Number Cards blackline master can be used to play the \"What's the Difference\" board game.",
            "display_title": " Unit 1: What's the Difference? - Blackline Master",
           "component_type": "Game Boards",
          "standards": "",
          "bigidea": "",
          "component": "boards-blacklinemaster",
          "dashboardGroup": "Core Resources"
        },
        {
          "id": "9781328787453-00004",
          "card": 15,
          "HMH_ID": "MXCC_NA18E_GAB_G05U02L00S14_0004",
          "media_type": "PDF",
          "parent_resource_id": "",
          "se_facing": true,
          "sort_id": "",
          "relative_url": "/content/hsp/math/mx2018/na/gr5/game_boards_9781328787453_/0001-DHA-5_MNLEGB738639_U02.pdf",
          "categorization": "Study Aids and Workbooks",
          "tool_type": "",
          "meaningful_description": "During the board game \"Ride the Course,\" students will add and subtract decimals.",
            "display_title": " Unit 2: Ride the Course",
           "component_type": "Game Boards",
          "standards": "",
          "bigidea": "",
          "component": "Game Boards",
          "dashboardGroup": "Core Resources"
        },
        {
          "id": "9781328787453-00005",
          "card": 15,
          "HMH_ID": "MXCC_NA18E_GAB_G05U02L00S14_0005",
          "media_type": "PDF",
          "parent_resource_id": "",
          "se_facing": true,
          "sort_id": "",
          "relative_url": "/content/hsp/math/mx2018/na/gr5/game_boards_9781328787453_/DHA-5_MNLEAN703880_Unit2_BGBLM.pdf",
          "categorization": "Study Aids and Workbooks",
          "tool_type": "",
          "meaningful_description": "These blackline masters can be used to play the \"Ride the Course\" board game.",
            "display_title": " Unit 2: Ride the Course - Blackline Master",
           "component_type": "Game Boards",
          "standards": "",
          "bigidea": "",
         "component": "boards-blacklinemaster",
          "dashboardGroup": "Core Resources"
        },
        {
          "id": "9781328787453-00006",
          "card": 15,
          "HMH_ID": "MXCC_NA18E_GAB_G05U03L00S14_0006",
          "media_type": "PDF",
          "parent_resource_id": "",
          "se_facing": true,
          "sort_id": "",
          "relative_url": "/content/hsp/math/mx2018/na/gr5/game_boards_9781328787453_/0001-DHA-5_MNLEGB738639_U03.pdf",
          "categorization": "Study Aids and Workbooks",
          "tool_type": "",
          "meaningful_description": "During the board game \"Fraction Factors,\" students will multiply fractions.",
            "display_title": " Unit 3: Fraction Factors",
           "component_type": "Game Boards",
          "standards": "",
          "bigidea": "",
          "component": "Game Boards",
          "dashboardGroup": "Core Resources"
        },
        {
          "id": "9781328787453-00007",
          "card": 15,
          "HMH_ID": "MXCC_NA18E_GAB_G05U03L00S14_0007",
          "media_type": "PDF",
          "parent_resource_id": "",
          "se_facing": true,
          "sort_id": "",
          "relative_url": "/content/hsp/math/mx2018/na/gr5/game_boards_9781328787453_/DHA-5_MNLEAN703880_Unit3_BGBLM.pdf",
          "categorization": "Study Aids and Workbooks",
          "tool_type": "",
          "meaningful_description": "The Number Cards blackline master can be used to play the \"Fraction Factors\" board game.",
            "display_title": " Unit 3: Fraction Factors - Blackline Master",
           "component_type": "Game Boards",
          "standards": "",
          "bigidea": "",
          "component": "boards-blacklinemaster",
          "dashboardGroup": "Core Resources"
        },
        {
          "id": "9781328787453-00008",
          "card": 15,
          "HMH_ID": "MXCC_NA18E_GAB_G05U04L00S14_0008",
          "media_type": "PDF",
          "parent_resource_id": "",
          "se_facing": true,
          "sort_id": "",
          "relative_url": "/content/hsp/math/mx2018/na/gr5/game_boards_9781328787453_/0001-DHA-5_MNLEGB738639_U04.pdf",
          "categorization": "Study Aids and Workbooks",
          "tool_type": "",
          "meaningful_description": "During the board game \"Powerful Products,\" students will multiply decimals.",
            "display_title": " Unit 4: Powerful Products",
           "component_type": "Game Boards",
          "standards": "",
          "bigidea": "",
          "component": "Game Boards",
          "dashboardGroup": "Core Resources"
        },
        {
          "id": "9781328787453-00009",
          "card": 15,
          "HMH_ID": "MXCC_NA18E_GAB_G05U04L00S14_0009",
          "media_type": "PDF",
          "parent_resource_id": "",
          "se_facing": true,
          "sort_id": "",
          "relative_url": "/content/hsp/math/mx2018/na/gr5/game_boards_9781328787453_/DHA-5_MNLEAN703880_Unit4_BGBLM.pdf",
          "categorization": "Study Aids and Workbooks",
          "tool_type": "",
          "meaningful_description": "The Number Cards blackline master can be used to play the \"Powerful Products\" board game.",
            "display_title": " Unit 4: Powerful Products - Blackline Master",
           "component_type": "Game Boards",
          "standards": "",
          "bigidea": "",
         "component": "boards-blacklinemaster",
          "dashboardGroup": "Core Resources"
        },
        {
          "id": "9781328787453-00010",
          "card": 15,
          "HMH_ID": "MXCC_NA18E_GAB_G05U05L00S14_0010",
          "media_type": "PDF",
          "parent_resource_id": "",
          "se_facing": true,
          "sort_id": "",
          "relative_url": "/content/hsp/math/mx2018/na/gr5/game_boards_9781328787453_/0001-DHA-5_MNLEGB738639_U05.pdf",
          "categorization": "Study Aids and Workbooks",
          "tool_type": "",
          "meaningful_description": "During the board game \"Divide to Win,\" students will practice dividing 3-digit numbers.",
            "display_title": " Unit 5: Divide to Win",
           "component_type": "Game Boards",
          "standards": "",
          "bigidea": "",
          "component": "Game Boards",
          "dashboardGroup": "Core Resources"
        },
        {
          "id": "9781328787453-00011",
          "card": 15,
          "HMH_ID": "MXCC_NA18E_GAB_G05U05L00S14_0011",
          "media_type": "PDF",
          "parent_resource_id": "",
          "se_facing": true,
          "sort_id": "",
          "relative_url": "/content/hsp/math/mx2018/na/gr5/game_boards_9781328787453_/DHA-5_MNLEAN703880_Unit5_BGBLM.pdf",
          "categorization": "Study Aids and Workbooks",
          "tool_type": "",
          "meaningful_description": "The Division Cards blackline master can be used to play the \"Divide to Win\" board game.",
            "display_title": " Unit 5: Divide to Win - Blackline Master",
           "component_type": "Game Boards",
          "standards": "",
          "bigidea": "",
          "component": "boards-blacklinemaster",
          "dashboardGroup": "Core Resources"
        },
        {
          "id": "9781328787453-00012",
          "card": 15,
          "HMH_ID": "MXCC_NA18E_GAB_G05U06L00S14_0012",
          "media_type": "PDF",
          "parent_resource_id": "",
          "se_facing": true,
          "sort_id": "",
          "relative_url": "/content/hsp/math/mx2018/na/gr5/game_boards_9781328787453_/0001-DHA-5_MNLEGB738639_U06.pdf",
          "categorization": "Study Aids and Workbooks",
          "tool_type": "",
          "meaningful_description": "During the board game \"Match Up,\" students will divide decimals.",
            "display_title": " Unit 6: Match Up",
           "component_type": "Game Boards",
          "standards": "",
          "bigidea": "",
          "component": "Game Boards",
          "dashboardGroup": "Core Resources"
        },
        {
          "id": "9781328787453-00013",
          "card": 15,
          "HMH_ID": "MXCC_NA18E_GAB_G05U06L00S14_0013",
          "media_type": "PDF",
          "parent_resource_id": "",
          "se_facing": true,
          "sort_id": "",
          "relative_url": "/content/hsp/math/mx2018/na/gr5/game_boards_9781328787453_/DHA-5_MNLEAN703880_Unit6_BGBLM.pdf",
          "categorization": "Study Aids and Workbooks",
          "tool_type": "",
          "meaningful_description": "The Match Up Cards blackline master can be used to play the \"Match Up\" board game.",
            "display_title": " Unit 6: Match Up - Blackline Master",
           "component_type": "Game Boards",
          "standards": "",
          "bigidea": "",
          "component": "boards-blacklinemaster",
          "dashboardGroup": "Core Resources"
        },
        {
          "id": "9781328787453-00014",
          "card": 15,
          "HMH_ID": "MXCC_NA18E_GAB_G05U07L00S14_0014",
          "media_type": "PDF",
          "parent_resource_id": "",
          "se_facing": true,
          "sort_id": "",
          "relative_url": "/content/hsp/math/mx2018/na/gr5/game_boards_9781328787453_/0001-DHA-5_MNLEGB738639_U07.pdf",
          "categorization": "Study Aids and Workbooks",
          "tool_type": "",
          "meaningful_description": "During the board game \"It's a Toss-Up,\" students will graph ordered pairs on a coordinate grid.",
            "display_title": " Unit 7: It's a Toss-up",
           "component_type": "Game Boards",
          "standards": "",
          "bigidea": "",
          "component": "Game Boards",
          "dashboardGroup": "Core Resources"
        },
        {
          "id": "9781328787453-00015",
          "card": 15,
          "HMH_ID": "MXCC_NA18E_GAB_G05U07L00S14_0015",
          "media_type": "PDF",
          "parent_resource_id": "",
          "se_facing": true,
          "sort_id": "",
          "relative_url": "/content/hsp/math/mx2018/na/gr5/game_boards_9781328787453_/DHA-5_MNLEAN703880_Unit7_BGBLM.pdf",
          "categorization": "Study Aids and Workbooks",
          "tool_type": "",
          "meaningful_description": "The Centimeter Grid blackline master can be used to play the \"It's a Toss-Up\" board game.",
            "display_title": " Unit 7: It's a Toss-up - Blackline Master",
           "component_type": "Game Boards",
          "standards": "",
          "bigidea": "",
         "component": "boards-blacklinemaster",
          "dashboardGroup": "Core Resources"
        },
        {
          "id": "9781328787453-00016",
          "card": 15,
          "HMH_ID": "MXCC_NA18E_GAB_G05U08L00S14_0016",
          "media_type": "PDF",
          "parent_resource_id": "",
          "se_facing": true,
          "sort_id": "",
          "relative_url": "/content/hsp/math/mx2018/na/gr5/game_boards_9781328787453_/0001-DHA-5_MNLEGB738639_U08.pdf",
          "categorization": "Study Aids and Workbooks",
          "tool_type": "",
          "meaningful_description": "During the board game \"Triple Play,\" students will find the volume of rectangular prisms.",
            "display_title": " Unit 8: Triple Play",
           "component_type": "Game Boards",
          "standards": "",
          "bigidea": "",
          "component": "Game Boards",
          "dashboardGroup": "Core Resources"
        },
        {
          "id": "9781328787453-00017",
          "card": 15,
          "HMH_ID": "MXCC_NA18E_GAB_G05U08L00S14_0017",
          "media_type": "PDF",
          "parent_resource_id": "",
          "se_facing": true,
          "sort_id": "",
          "relative_url": "/content/hsp/math/mx2018/na/gr5/game_boards_9781328787453_/DHA-5_MNLEAN703880_Unit8_BGBLM.pdf",
          "categorization": "Study Aids and Workbooks",
          "tool_type": "",
          "meaningful_description": "The Number Cube Patterns blackline master can be used to play the \"Triple Play\" board game.",
            "display_title": " Unit 8: Triple Play - Blackline Master",
           "component_type": "Game Boards",
          "standards": "",
          "bigidea": "",
          "component": "boards-blacklinemaster",
          "dashboardGroup": "Core Resources"
        },
        {
          "id": "9781328787453-00018",
          "card": 15,
          "HMH_ID": "MXCC_NA18E_GAB_G05U00L00S14_0018",
          "media_type": "PDF",
          "parent_resource_id": "",
          "se_facing": true,
          "sort_id": "",
          "relative_url": "/content/hsp/math/mx2018/na/gr5/game_boards_9781328787453_/0001-DHA-36_MNLEGB738622_VGB.pdf",
          "categorization": "Study Aids and Workbooks",
          "tool_type": "",
          "meaningful_description": "During the vocabulary game \"Valuable Vocabulary,\" students will practice vocabulary words.",
            "display_title": " Valuable Vocabulary",
           "component_type": "Game Boards",
          "standards": "",
          "bigidea": "",
          "component": "Game Boards",
          "dashboardGroup": "Core Resources"
        }
      ]
    }
  ]
}