{
  "isbn": "123",
  "program": "123",
  "grade": "123",
  "non_grade_title": "123",
  "programType": "ela",
  "teacher": [
    {
      "component": "Core Resources",
      "libraryItems": [
        {
          "id": "9781328787095-00001",
          "card": 15,
          "HMH_ID": "MXCC_NA18E_RI1_G05U01B01S14_0001",
          "media_type": "HTML",
          "parent_resource_id": "",
          "se_facing": false,
          "sort_id": "",
          "relative_url": "/content/hsp/math/mx2018/na/gr5/rti_tier1_9781328787095_/u1/bi1/index.html",
          "categorization": "Interactive Content",
          "tool_type": "",
          "meaningful_description": "Tier 1 Intervention skills and concepts: equivalent fractions.",
          "display_title": "Tier 1 Interactive: Equivalent Fractions",
          "component_type": "RtI",
          "standards": "",
        "bigidea": "Big Idea 1",
          "component": "RtI",
          "dashboardGroup": "Core Resources"
        },
        {
          "id": "9781328787095-00002",
          "card": 15,
          "HMH_ID": "MXCC_NA18E_RI1_G05U01B02S14_0002",
          "media_type": "HTML",
          "parent_resource_id": "",
          "se_facing": false,
          "sort_id": "",
          "relative_url": "/content/hsp/math/mx2018/na/gr5/rti_tier1_9781328787095_/u1/bi2/index.html",
          "categorization": "Interactive Content",
          "tool_type": "",
          "meaningful_description": "Tier 1 Intervention skills and concepts",
          "display_title": "Tier 1 Interactive: Addition and Subtraction with Fractions",
          "component_type": "RtI",
          "standards": "",
        "bigidea": "Big Idea 2",
          "component": "RtI",
          "dashboardGroup": "Core Resources"
        },
        {
          "id": "9781328787095-00003",
          "card": 15,
          "HMH_ID": "MXCC_NA18E_RI1_G05U02B01S14_0003",
          "media_type": "HTML",
          "parent_resource_id": "",
          "se_facing": false,
          "sort_id": "",
          "relative_url": "/content/hsp/math/mx2018/na/gr5/rti_tier1_9781328787095_/u2/bi1/index.html",
          "categorization": "Interactive Content",
          "tool_type": "",
          "meaningful_description": "Tier 1 Intervention skills and concepts: read and write ones to thousandths; compare decimal numbers.",
          "display_title": "Tier 1 Interactive: Read and Write Whole Numbers and Decimals",
          "component_type": "RtI",
          "standards": "",
        "bigidea": "Big Idea 1",
          "component": "RtI",
          "dashboardGroup": "Core Resources"
        },
        {
          "id": "9781328787095-00004",
          "card": 15,
          "HMH_ID": "MXCC_NA18E_RI1_G05U02B02S14_0004",
          "media_type": "HTML",
          "parent_resource_id": "",
          "se_facing": false,
          "sort_id": "",
          "relative_url": "/content/hsp/math/mx2018/na/gr5/rti_tier1_9781328787095_/u2/bi2/index.html",
          "categorization": "Interactive Content",
          "tool_type": "",
          "meaningful_description": "Tier 1 Intervention skills and concepts: add and subtract whole numbers and decimal numbers to hundredths.",
          "display_title": "Tier 1 Interactive: Addition and Subtraction",
          "component_type": "RtI",
          "standards": "",
        "bigidea": "Big Idea 2",
          "component": "RtI",
          "dashboardGroup": "Core Resources"
        },
        {
          "id": "9781328787095-00005",
          "card": 15,
          "HMH_ID": "MXCC_NA18E_RI1_G05U02B03S14_0005",
          "media_type": "HTML",
          "parent_resource_id": "",
          "se_facing": false,
          "sort_id": "",
          "relative_url": "/content/hsp/math/mx2018/na/gr5/rti_tier1_9781328787095_/u2/bi3/index.html",
          "categorization": "Interactive Content",
          "tool_type": "",
          "meaningful_description": "Tier 1 Intervention skills and concepts: round decimal numbers to the nearest tenth and hundredth.",
          "display_title": "Tier 1 Interactive: Round and Estimate with Decimals",
          "component_type": "RtI",
          "standards": "",
        "bigidea": "Big Idea 3",
          "component": "RtI",
          "dashboardGroup": "Core Resources"
        },
        {
          "id": "9781328787095-00006",
          "card": 15,
          "HMH_ID": "MXCC_NA18E_RI1_G05U03B01S14_0006",
          "media_type": "HTML",
          "parent_resource_id": "",
          "se_facing": false,
          "sort_id": "",
          "relative_url": "/content/hsp/math/mx2018/na/gr5/rti_tier1_9781328787095_/u3/bi1/index.html",
          "categorization": "Interactive Content",
          "tool_type": "",
          "meaningful_description": "Tier 1 Intervention skills and concepts: multiply a fraction times a whole number or times another fraction.",
          "display_title": "Tier 1 Interactive: Multiplication with Fractions",
          "component_type": "RtI",
          "standards": "",
        "bigidea": "Big Idea 1",
          "component": "RtI",
          "dashboardGroup": "Core Resources"
        },
        {
          "id": "9781328787095-00007",
          "card": 15,
          "HMH_ID": "MXCC_NA18E_RI1_G05U03B02S14_0007",
          "media_type": "HTML",
          "parent_resource_id": "",
          "se_facing": false,
          "sort_id": "",
          "relative_url": "/content/hsp/math/mx2018/na/gr5/rti_tier1_9781328787095_/u3/bi2/index.html",
          "categorization": "Interactive Content",
          "tool_type": "",
          "meaningful_description": "Tier 1 Intervention skills and concepts: use the factors in a multiplication problem to predict the size of the product.",
          "display_title": "Tier 1 Interactive: Multiplication Links",
          "component_type": "RtI",
          "standards": "",
        "bigidea": "Big Idea 2",
          "component": "RtI",
          "dashboardGroup": "Core Resources"
        },
        {
          "id": "9781328787095-00008",
          "card": 15,
          "HMH_ID": "MXCC_NA18E_RI1_G05U03B03S14_0008",
          "media_type": "HTML",
          "parent_resource_id": "",
          "se_facing": false,
          "sort_id": "",
          "relative_url": "/content/hsp/math/mx2018/na/gr5/rti_tier1_9781328787095_/u3/bi3/index.html",
          "categorization": "Interactive Content",
          "tool_type": "",
          "meaningful_description": "Tier 1 Intervention skills and concepts: represent and solve a scenario involving dividing a whole number by a unit fraction.",
          "display_title": "Tier 1 Interactive: Division with Fractions",
          "component_type": "RtI",
          "standards": "",
        "bigidea": "Big Idea 3",
          "component": "RtI",
          "dashboardGroup": "Core Resources"
        },
        {
          "id": "9781328787095-00009",
          "card": 15,
          "HMH_ID": "MXCC_NA18E_RI1_G05U04B01S14_0009",
          "media_type": "HTML",
          "parent_resource_id": "",
          "se_facing": false,
          "sort_id": "",
          "relative_url": "/content/hsp/math/mx2018/na/gr5/rti_tier1_9781328787095_/u4/bi1/index.html",
          "categorization": "Interactive Content",
          "tool_type": "",
          "meaningful_description": "Tier 1 Intervention skills and concepts",
          "display_title": "Tier 1 Interactive: Multiplication with Whole Numbers",
          "component_type": "RtI",
          "standards": "",
        "bigidea": "Big Idea 1",
          "component": "RtI",
          "dashboardGroup": "Core Resources"
        },
        {
          "id": "9781328787095-00010",
          "card": 15,
          "HMH_ID": "MXCC_NA18E_RI1_G05U04B02S14_0010",
          "media_type": "HTML",
          "parent_resource_id": "",
          "se_facing": false,
          "sort_id": "",
          "relative_url": "/content/hsp/math/mx2018/na/gr5/rti_tier1_9781328787095_/u4/bi2/index.html",
          "categorization": "Interactive Content",
          "tool_type": "",
          "meaningful_description": "Tier 1 Intervention skills and concepts",
          "display_title": "Tier 1 Interactive: Multiplication with Decimal Numbers",
          "component_type": "RtI",
          "standards": "",
        "bigidea": "Big Idea 2",
          "component": "RtI",
          "dashboardGroup": "Core Resources"
        },
        {
          "id": "9781328787095-00011",
          "card": 15,
          "HMH_ID": "MXCC_NA18E_RI1_G05U05B01S14_0011",
          "media_type": "HTML",
          "parent_resource_id": "",
          "se_facing": false,
          "sort_id": "",
          "relative_url": "/content/hsp/math/mx2018/na/gr5/rti_tier1_9781328787095_/u5/bi1/index.html",
          "categorization": "Interactive Content",
          "tool_type": "",
          "meaningful_description": "Tier 1 Intervention skills and concepts",
          "display_title": "Tier 1 Interactive: Division with Whole Numbers",
          "component_type": "RtI",
          "standards": "",
        "bigidea": "Big Idea 1",
          "component": "RtI",
          "dashboardGroup": "Core Resources"
        },
        {
          "id": "9781328787095-00012",
          "card": 15,
          "HMH_ID": "MXCC_NA18E_RI1_G05U05B02S14_0012",
          "media_type": "HTML",
          "parent_resource_id": "",
          "se_facing": false,
          "sort_id": "",
          "relative_url": "/content/hsp/math/mx2018/na/gr5/rti_tier1_9781328787095_/u5/bi2/index.html",
          "categorization": "Interactive Content",
          "tool_type": "",
          "meaningful_description": "Tier 1 Intervention skills and concepts",
          "display_title": "Tier 1 Interactive: Division with Decimal Numbers",
          "component_type": "RtI",
          "standards": "",
        "bigidea": "Big Idea 2",
          "component": "RtI",
          "dashboardGroup": "Core Resources"
        },
        {
          "id": "9781328787095-00013",
          "card": 15,
          "HMH_ID": "MXCC_NA18E_RI1_G05U06B01S14_0013",
          "media_type": "HTML",
          "parent_resource_id": "",
          "se_facing": false,
          "sort_id": "",
          "relative_url": "/content/hsp/math/mx2018/na/gr5/rti_tier1_9781328787095_/u6/bi1/index.html",
          "categorization": "Interactive Content",
          "tool_type": "",
          "meaningful_description": "Tier 1 Intervention skills and concepts",
          "display_title": "Tier 1 Interactive: Equations and Problem Solving",
          "component_type": "RtI",
          "standards": "",
        "bigidea": "Big Idea 1",
          "component": "RtI",
          "dashboardGroup": "Core Resources"
        },
        {
          "id": "9781328787095-00014",
          "card": 15,
          "HMH_ID": "MXCC_NA18E_RI1_G05U06B02S14_0014",
          "media_type": "HTML",
          "parent_resource_id": "",
          "se_facing": false,
          "sort_id": "",
          "relative_url": "/content/hsp/math/mx2018/na/gr5/rti_tier1_9781328787095_/u6/bi2/index.html",
          "categorization": "Interactive Content",
          "tool_type": "",
          "meaningful_description": "Tier 1 Intervention skills and concepts",
          "display_title": "Tier 1 Interactive: Comparison Word Problems",
          "component_type": "RtI",
          "standards": "",
        "bigidea": "Big Idea 2",
          "component": "RtI",
          "dashboardGroup": "Core Resources"
        },
        {
          "id": "9781328787095-00015",
          "card": 15,
          "HMH_ID": "MXCC_NA18E_RI1_G05U06B03S14_0015",
          "media_type": "HTML",
          "parent_resource_id": "",
          "se_facing": false,
          "sort_id": "",
          "relative_url": "/content/hsp/math/mx2018/na/gr5/rti_tier1_9781328787095_/u6/bi3/index.html",
          "categorization": "Interactive Content",
          "tool_type": "",
          "meaningful_description": "Tier 1 Intervention skills and concepts",
          "display_title": "Tier 1 Interactive: Problems with More Than One Step",
          "component_type": "RtI",
          "standards": "",
        "bigidea": "Big Idea 3",
          "component": "RtI",
          "dashboardGroup": "Core Resources"
        },
        {
          "id": "9781328787095-00016",
          "card": 15,
          "HMH_ID": "MXCC_NA18E_RI1_G05U07B01S14_0016",
          "media_type": "HTML",
          "parent_resource_id": "",
          "se_facing": false,
          "sort_id": "",
          "relative_url": "/content/hsp/math/mx2018/na/gr5/rti_tier1_9781328787095_/u7/bi1/index.html",
          "categorization": "Interactive Content",
          "tool_type": "",
          "meaningful_description": "Tier 1 Intervention skills and concepts",
          "display_title": "Tier 1 Interactive: Algebraic Reasoning and Expressions",
          "component_type": "RtI",
          "standards": "",
        "bigidea": "Big Idea 1",
          "component": "RtI",
          "dashboardGroup": "Core Resources"
        },
        {
          "id": "9781328787095-00017",
          "card": 15,
          "HMH_ID": "MXCC_NA18E_RI1_G05U07B02S14_0017",
          "media_type": "HTML",
          "parent_resource_id": "",
          "se_facing": false,
          "sort_id": "",
          "relative_url": "/content/hsp/math/mx2018/na/gr5/rti_tier1_9781328787095_/u7/bi2/index.html",
          "categorization": "Interactive Content",
          "tool_type": "",
          "meaningful_description": "Tier 1 Intervention skills and concepts",
          "display_title": "Tier 1 Interactive: Patterns and Graphs",
          "component_type": "RtI",
          "standards": "",
        "bigidea": "Big Idea 2",
          "component": "RtI",
          "dashboardGroup": "Core Resources"
        },
        {
          "id": "9781328787095-00018",
          "card": 15,
          "HMH_ID": "MXCC_NA18E_RI1_G05U08B01S14_0018",
          "media_type": "HTML",
          "parent_resource_id": "",
          "se_facing": false,
          "sort_id": "",
          "relative_url": "/content/hsp/math/mx2018/na/gr5/rti_tier1_9781328787095_/u8/bi1/index.html",
          "categorization": "Interactive Content",
          "tool_type": "",
          "meaningful_description": "Tier 1 Intervention skills and concepts",
          "display_title": "Tier 1 Interactive: Measurement and Data",
          "component_type": "RtI",
          "standards": "",
        "bigidea": "Big Idea 1",
          "component": "RtI",
          "dashboardGroup": "Core Resources"
        },
        {
          "id": "9781328787095-00019",
          "card": 15,
          "HMH_ID": "MXCC_NA18E_RI1_G05U08B02S14_0019",
          "media_type": "HTML",
          "parent_resource_id": "",
          "se_facing": false,
          "sort_id": "",
          "relative_url": "/content/hsp/math/mx2018/na/gr5/rti_tier1_9781328787095_/u8/bi2/index.html",
          "categorization": "Interactive Content",
          "tool_type": "",
          "meaningful_description": "Tier 1 Intervention skills and concepts",
          "display_title": "Tier 1 Interactive: Area and Volume",
          "component_type": "RtI",
          "standards": "",
        "bigidea": "Big Idea 2",
          "component": "RtI",
          "dashboardGroup": "Core Resources"
        },
        {
          "id": "9781328787095-00020",
          "card": 15,
          "HMH_ID": "MXCC_NA18E_RI1_G05U08B03S14_0020",
          "media_type": "HTML",
          "parent_resource_id": "",
          "se_facing": false,
          "sort_id": "",
          "relative_url": "/content/hsp/math/mx2018/na/gr5/rti_tier1_9781328787095_/u8/bi3/index.html",
          "categorization": "Interactive Content",
          "tool_type": "",
          "meaningful_description": "Tier 1 Intervention skills and concepts",
          "display_title": "Tier 1 Interactive: Classify Geometric Figures",
          "component_type": "RtI",
          "standards": "",
        "bigidea": "Big Idea 3",
          "component": "RtI",
          "dashboardGroup": "Core Resources"
        },
		{
          "id": "9781328787163-00001",
          "card": 15,
          "HMH_ID": "MXCC_NA18E_RI2_G05U01B01S14_0001",
          "media_type": "HTML",
          "parent_resource_id": "",
          "se_facing": false,
          "sort_id": "",
          "relative_url": "/content/hsp/math/mx2018/na/gr5/rti_tier2_9781328787163_/u1/bi1/index.html",
          "categorization": "Interactive Content",
          "tool_type": "",
          "meaningful_description": "Tier 2 Intervention skills and concepts: fractions and equivalent fractions.",
          "display_title": "Tier 2 Interactive: Equivalent Fractions",
          "component_type": "RtI",
          "standards": "",
        "bigidea": "Big Idea 1",
          "component": "RtI",
          "dashboardGroup": "Core Resources"
        },
        {
          "id": "9781328787163-00002",
          "card": 15,
          "HMH_ID": "MXCC_NA18E_RI2_G05U01B02S14_0002",
          "media_type": "HTML",
          "parent_resource_id": "",
          "se_facing": false,
          "sort_id": "",
          "relative_url": "/content/hsp/math/mx2018/na/gr5/rti_tier2_9781328787163_/u1/bi2/index.html",
          "categorization": "Interactive Content",
          "tool_type": "",
          "meaningful_description": "Tier 2 Intervention skills and concepts: add and subtract fractions with like denominators; add like mixed numbers.",
          "display_title": "Tier 2 Interactive: Addition and Subtraction with Fractions",
          "component_type": "RtI",
          "standards": "",
        "bigidea": "Big Idea 2",
          "component": "RtI",
          "dashboardGroup": "Core Resources"
        },
        {
          "id": "9781328787163-00003",
          "card": 15,
          "HMH_ID": "MXCC_NA18E_RI2_G05U02B01S14_0003",
          "media_type": "HTML",
          "parent_resource_id": "",
          "se_facing": false,
          "sort_id": "",
          "relative_url": "/content/hsp/math/mx2018/na/gr5/rti_tier2_9781328787163_/u2/bi1/index.html",
          "categorization": "Interactive Content",
          "tool_type": "",
          "meaningful_description": "Tier 2 Intervention skills and concepts",
          "display_title": "Tier 2 Interactive: Read and Write Whole Numbers and Decimals",
          "component_type": "RtI",
          "standards": "",
        "bigidea": "Big Idea 1",
          "component": "RtI",
          "dashboardGroup": "Core Resources"
        },
        {
          "id": "9781328787163-00004",
          "card": 15,
          "HMH_ID": "MXCC_NA18E_RI2_G05U02B02S14_0004",
          "media_type": "HTML",
          "parent_resource_id": "",
          "se_facing": false,
          "sort_id": "",
          "relative_url": "/content/hsp/math/mx2018/na/gr5/rti_tier2_9781328787163_/u2/bi2/index.html",
          "categorization": "Interactive Content",
          "tool_type": "",
          "meaningful_description": "Tier 2 Intervention skills and concepts: add and subtract decimal numbers to hundredths,.",
          "display_title": "Tier 2 Interactive: Addition and Subtraction",
          "component_type": "RtI",
          "standards": "",
        "bigidea": "Big Idea 2",
          "component": "RtI",
          "dashboardGroup": "Core Resources"
        },
        {
          "id": "9781328787163-00005",
          "card": 15,
          "HMH_ID": "MXCC_NA18E_RI2_G05U02B03S14_0005",
          "media_type": "HTML",
          "parent_resource_id": "",
          "se_facing": false,
          "sort_id": "",
          "relative_url": "/content/hsp/math/mx2018/na/gr5/rti_tier2_9781328787163_/u2/bi3/index.html",
          "categorization": "Interactive Content",
          "tool_type": "",
          "meaningful_description": "Tier 2 Intervention skills and concepts: round decimal numbers to the nearest whole number using a number line.",
          "display_title": "Tier 2 Interactive: Round and Estimate with Decimals",
          "component_type": "RtI",
          "standards": "",
        "bigidea": "Big Idea 3",
          "component": "RtI",
          "dashboardGroup": "Core Resources"
        },
        {
          "id": "9781328787163-00006",
          "card": 15,
          "HMH_ID": "MXCC_NA18E_RI2_G05U03B01S14_0006",
          "media_type": "HTML",
          "parent_resource_id": "",
          "se_facing": false,
          "sort_id": "",
          "relative_url": "/content/hsp/math/mx2018/na/gr5/rti_tier2_9781328787163_/u3/bi1/index.html",
          "categorization": "Interactive Content",
          "tool_type": "",
          "meaningful_description": "Tier 2 Intervention skills and concepts: multiply a whole number by a unit fraction.",
          "display_title": "Tier 2 Interactive: Multiplication with Fractions",
          "component_type": "RtI",
          "standards": "",
        "bigidea": "Big Idea 1",
          "component": "RtI",
          "dashboardGroup": "Core Resources"
        },
        {
          "id": "9781328787163-00007",
          "card": 15,
          "HMH_ID": "MXCC_NA18E_RI2_G05U03B02S14_0007",
          "media_type": "HTML",
          "parent_resource_id": "",
          "se_facing": false,
          "sort_id": "",
          "relative_url": "/content/hsp/math/mx2018/na/gr5/rti_tier2_9781328787163_/u3/bi2/index.html",
          "categorization": "Interactive Content",
          "tool_type": "",
          "meaningful_description": "Tier 2 Intervention skills and concepts: compare fractions to one.",
          "display_title": "Tier 2 Interactive: Multiplication Links",
          "component_type": "RtI",
          "standards": "",
        "bigidea": "Big Idea 2",
          "component": "RtI",
          "dashboardGroup": "Core Resources"
        },
        {
          "id": "9781328787163-00008",
          "card": 15,
          "HMH_ID": "MXCC_NA18E_RI2_G05U03B03S14_0008",
          "media_type": "HTML",
          "parent_resource_id": "",
          "se_facing": false,
          "sort_id": "",
          "relative_url": "/content/hsp/math/mx2018/na/gr5/rti_tier2_9781328787163_/u3/bi3/index.html",
          "categorization": "Interactive Content",
          "tool_type": "",
          "meaningful_description": "Tier 2 Intervention skills and concepts: divide a whole number by a unit fraction by writing a related multiplication expression.",
          "display_title": "Tier 2 Interactive: Division with Fractions",
          "component_type": "RtI",
          "standards": "",
        "bigidea": "Big Idea 3",
          "component": "RtI",
          "dashboardGroup": "Core Resources"
        },
        {
          "id": "9781328787163-00009",
          "card": 15,
          "HMH_ID": "MXCC_NA18E_RI2_G05U04B01S14_0009",
          "media_type": "HTML",
          "parent_resource_id": "",
          "se_facing": false,
          "sort_id": "",
          "relative_url": "/content/hsp/math/mx2018/na/gr5/rti_tier2_9781328787163_/u4/bi1/index.html",
          "categorization": "Interactive Content",
          "tool_type": "",
          "meaningful_description": "Tier 2 Intervention skills and concepts",
          "display_title": "Tier 2 Interactive: Multiplication with Whole Numbers",
          "component_type": "RtI",
          "standards": "",
        "bigidea": "Big Idea 1",
          "component": "RtI",
          "dashboardGroup": "Core Resources"
        },
        {
          "id": "9781328787163-00010",
          "card": 15,
          "HMH_ID": "MXCC_NA18E_RI2_G05U04B02S14_0010",
          "media_type": "HTML",
          "parent_resource_id": "",
          "se_facing": false,
          "sort_id": "",
          "relative_url": "/content/hsp/math/mx2018/na/gr5/rti_tier2_9781328787163_/u4/bi2/index.html",
          "categorization": "Interactive Content",
          "tool_type": "",
          "meaningful_description": "Tier 2 Intervention skills and concepts",
          "display_title": "Tier 2 Interactive: Multiplication with Decimal Numbers",
          "component_type": "RtI",
          "standards": "",
        "bigidea": "Big Idea 2",
          "component": "RtI",
          "dashboardGroup": "Core Resources"
        },
        {
          "id": "9781328787163-00011",
          "card": 15,
          "HMH_ID": "MXCC_NA18E_RI2_G05U05B01S14_0011",
          "media_type": "HTML",
          "parent_resource_id": "",
          "se_facing": false,
          "sort_id": "",
          "relative_url": "/content/hsp/math/mx2018/na/gr5/rti_tier2_9781328787163_/u5/bi1/index.html",
          "categorization": "Interactive Content",
          "tool_type": "",
          "meaningful_description": "Tier 2 Intervention skills and concepts",
          "display_title": "Tier 2 Interactive: Division with Whole Numbers",
          "component_type": "RtI",
          "standards": "",
        "bigidea": "Big Idea 1",
          "component": "RtI",
          "dashboardGroup": "Core Resources"
        },
        {
          "id": "9781328787163-00012",
          "card": 15,
          "HMH_ID": "MXCC_NA18E_RI2_G05U05B02S14_0012",
          "media_type": "HTML",
          "parent_resource_id": "",
          "se_facing": false,
          "sort_id": "",
          "relative_url": "/content/hsp/math/mx2018/na/gr5/rti_tier2_9781328787163_/u5/bi2/index.html",
          "categorization": "Interactive Content",
          "tool_type": "",
          "meaningful_description": "Tier 2 Intervention skills and concepts",
          "display_title": "Tier 2 Interactive: Division with Decimal Numbers",
          "component_type": "RtI",
          "standards": "",
        "bigidea": "Big Idea 2",
          "component": "RtI",
          "dashboardGroup": "Core Resources"
        },
        {
          "id": "9781328787163-00013",
          "card": 15,
          "HMH_ID": "MXCC_NA18E_RI2_G05U06B01S14_0013",
          "media_type": "HTML",
          "parent_resource_id": "",
          "se_facing": false,
          "sort_id": "",
          "relative_url": "/content/hsp/math/mx2018/na/gr5/rti_tier2_9781328787163_/u6/bi1/index.html",
          "categorization": "Interactive Content",
          "tool_type": "",
          "meaningful_description": "Tier 2 Intervention skills and concepts",
          "display_title": "Tier 2 Interactive: Equations and Problem Solving",
          "component_type": "RtI",
          "standards": "",
        "bigidea": "Big Idea 1",
          "component": "RtI",
          "dashboardGroup": "Core Resources"
        },
        {
          "id": "9781328787163-00014",
          "card": 15,
          "HMH_ID": "MXCC_NA18E_RI2_G05U06B02S14_0014",
          "media_type": "HTML",
          "parent_resource_id": "",
          "se_facing": false,
          "sort_id": "",
          "relative_url": "/content/hsp/math/mx2018/na/gr5/rti_tier2_9781328787163_/u6/bi2/index.html",
          "categorization": "Interactive Content",
          "tool_type": "",
          "meaningful_description": "Tier 2 Intervention skills and concepts",
          "display_title": "Tier 2 Interactive: Comparison Word Problems",
          "component_type": "RtI",
          "standards": "",
        "bigidea": "Big Idea 2",
          "component": "RtI",
          "dashboardGroup": "Core Resources"
        },
        {
          "id": "9781328787163-00015",
          "card": 15,
          "HMH_ID": "MXCC_NA18E_RI2_G05U06B03S14_0015",
          "media_type": "HTML",
          "parent_resource_id": "",
          "se_facing": false,
          "sort_id": "",
          "relative_url": "/content/hsp/math/mx2018/na/gr5/rti_tier2_9781328787163_/u6/bi3/index.html",
          "categorization": "Interactive Content",
          "tool_type": "",
          "meaningful_description": "Tier 2 Intervention skills and concepts",
          "display_title": "Tier 2 Interactive: Problems with More Than One Step",
          "component_type": "RtI",
          "standards": "",
        "bigidea": "Big Idea 3",
          "component": "RtI",
          "dashboardGroup": "Core Resources"
        },
        {
          "id": "9781328787163-00016",
          "card": 15,
          "HMH_ID": "MXCC_NA18E_RI2_G05U07B01S14_0016",
          "media_type": "HTML",
          "parent_resource_id": "",
          "se_facing": false,
          "sort_id": "",
          "relative_url": "/content/hsp/math/mx2018/na/gr5/rti_tier2_9781328787163_/u7/bi1/index.html",
          "categorization": "Interactive Content",
          "tool_type": "",
          "meaningful_description": "Tier 2 Intervention skills and concepts",
          "display_title": "Tier 2 Interactive: Algebraic Reasoning and Expressions",
          "component_type": "RtI",
          "standards": "",
        "bigidea": "Big Idea 1",
          "component": "RtI",
          "dashboardGroup": "Core Resources"
        },
        {
          "id": "9781328787163-00017",
          "card": 15,
          "HMH_ID": "MXCC_NA18E_RI2_G05U07B02S14_0017",
          "media_type": "HTML",
          "parent_resource_id": "",
          "se_facing": false,
          "sort_id": "",
          "relative_url": "/content/hsp/math/mx2018/na/gr5/rti_tier2_9781328787163_/u7/bi2/index.html",
          "categorization": "Interactive Content",
          "tool_type": "",
          "meaningful_description": "Tier 2 Intervention skills and concepts",
          "display_title": "Tier 2 Interactive: Patterns and Graphs",
          "component_type": "RtI",
          "standards": "",
        "bigidea": "Big Idea 2",
          "component": "RtI",
          "dashboardGroup": "Core Resources"
        },
        {
          "id": "9781328787163-00018",
          "card": 15,
          "HMH_ID": "MXCC_NA18E_RI2_G05U08B01S14_0018",
          "media_type": "HTML",
          "parent_resource_id": "",
          "se_facing": false,
          "sort_id": "",
          "relative_url": "/content/hsp/math/mx2018/na/gr5/rti_tier2_9781328787163_/u8/bi1/index.html",
          "categorization": "Interactive Content",
          "tool_type": "",
          "meaningful_description": "Tier 2 Intervention skills and concepts",
          "display_title": "Tier 2 Interactive: Measurement and Data",
          "component_type": "RtI",
          "standards": "",
        "bigidea": "Big Idea 1",
          "component": "RtI",
          "dashboardGroup": "Core Resources"
        },
        {
          "id": "9781328787163-00019",
          "card": 15,
          "HMH_ID": "MXCC_NA18E_RI2_G05U08B02S14_0019",
          "media_type": "HTML",
          "parent_resource_id": "",
          "se_facing": false,
          "sort_id": "",
          "relative_url": "/content/hsp/math/mx2018/na/gr5/rti_tier2_9781328787163_/u8/bi2/index.html",
          "categorization": "Interactive Content",
          "tool_type": "",
          "meaningful_description": "Tier 2 Intervention skills and concepts",
          "display_title": "Tier 2 Interactive: Area and Volume",
          "component_type": "RtI",
          "standards": "",
        "bigidea": "Big Idea 2",
          "component": "RtI",
          "dashboardGroup": "Core Resources"
        },
        {
          "id": "9781328787163-00020",
          "card": 15,
          "HMH_ID": "MXCC_NA18E_RI2_G05U08B03S14_0020",
          "media_type": "HTML",
          "parent_resource_id": "",
          "se_facing": false,
          "sort_id": "",
          "relative_url": "/content/hsp/math/mx2018/na/gr5/rti_tier2_9781328787163_/u8/bi3/index.html",
          "categorization": "Interactive Content",
          "tool_type": "",
          "meaningful_description": "Tier 2 Intervention skills and concepts",
          "display_title": "Tier 2 Interactive: Classify Geometric Figures",
          "component_type": "RtI",
          "standards": "",
        "bigidea": "Big Idea 3",
          "component": "RtI",
          "dashboardGroup": "Core Resources"
        },
      {
          "id": "9781328467522-00001",
          "card": 15,
          "HMH_ID": "MXCC_NA18E_RI3_G05U01B01S14_0001",
          "media_type": "PDF",
          "parent_resource_id": "",
          "se_facing": false,
          "sort_id": "",
          "relative_url": "/content/hsp/math/mx2018/na/gr5/rti_interactive_tier3_9781328467522_/5_MNLEAN467522_U1B1A1.pdf#page=1",
          "categorization": "Interactive Content",
          "tool_type": "",
          "meaningful_description": "During this activity, the student will write equivalent fractions and fractions greater than 1 as mixed numbers.",
          "display_title": "Tier 3 Interactive:  Equivalent Fractions – Activity 1",
           "component_type": "RtI",
          "standards": "",
          "bigidea": "Big Idea 1",
          "component": "RtI",
          "dashboardGroup": "Core Resources"
        },
        {
          "id": "9781328467522-00002",
          "card": 15,
          "HMH_ID": "MXCC_NA18E_RI3_G05U01B01S14_0002",
          "media_type": "PDF",
          "parent_resource_id": "",
          "se_facing": false,
          "sort_id": "",
          "relative_url": "/content/hsp/math/mx2018/na/gr5/rti_interactive_tier3_9781328467522_/5_MNLEAN467522_U1B1A1.pdf#page=2",
          "categorization": "Interactive Content",
          "tool_type": "",
          "meaningful_description": "During this activity, the student will compare fractions.",
          "display_title": "Tier 3 Interactive:  Equivalent Fractions – Activity 2",
           "component_type": "RtI",
          "standards": "",
          "bigidea": "Big Idea 1",
          "component": "RtI",
          "dashboardGroup": "Core Resources"
        },
        {
          "id": "9781328467522-00003",
          "card": 15,
          "HMH_ID": "MXCC_NA18E_RI3_G05U01B02S14_0003",
          "media_type": "PDF",
          "parent_resource_id": "",
          "se_facing": false,
          "sort_id": "",
          "relative_url": "/content/hsp/math/mx2018/na/gr5/rti_interactive_tier3_9781328467522_/5_MNLEAN467522_U1B2A1.pdf#page=1",
          "categorization": "Interactive Content",
          "tool_type": "",
          "meaningful_description": "During this activity, the student will add and subtract fractions and mixed numbers.",
          "display_title": "Tier 3 Interactive:  Addition and Subtraction with Fractions – Activity 1",
           "component_type": "RtI",
          "standards": "",
          "bigidea": "Big Idea 2",
          "component": "RtI",
          "dashboardGroup": "Core Resources"
        },
        {
          "id": "9781328467522-00004",
          "card": 15,
          "HMH_ID": "MXCC_NA18E_RI3_G05U01B02S14_0004",
          "media_type": "PDF",
          "parent_resource_id": "",
          "se_facing": false,
          "sort_id": "",
          "relative_url": "/content/hsp/math/mx2018/na/gr5/rti_interactive_tier3_9781328467522_/5_MNLEAN467522_U1B2A1.pdf#page=2",
          "categorization": "Interactive Content",
          "tool_type": "",
          "meaningful_description": "During this activity, the student will solve word problems involving fractions and mixed numbers.",
          "display_title": "Tier 3 Interactive:  Addition and Subtraction with Fractions – Activity 2",
           "component_type": "RtI",
          "standards": "",
          "bigidea": "Big Idea 2",
          "component": "RtI",
          "dashboardGroup": "Core Resources"
        },
        {
          "id": "9781328467522-00005",
          "card": 15,
          "HMH_ID": "MXCC_NA18E_RI3_G05U02B01S14_0005",
          "media_type": "PDF",
          "parent_resource_id": "",
          "se_facing": false,
          "sort_id": "",
          "relative_url": "/content/hsp/math/mx2018/na/gr5/rti_interactive_tier3_9781328467522_/5_MNLEAN467522_U2B1A1.pdf#page=1",
          "categorization": "Interactive Content",
          "tool_type": "",
          "meaningful_description": "During this activity, the student will compare decimals to the thousandths.",
          "display_title": "Tier 3 Interactive:  Read and Write Whole Numbers and Decimals – Activity 1",
           "component_type": "RtI",
          "standards": "",
          "bigidea": "Big Idea 1",
          "component": "RtI",
          "dashboardGroup": "Core Resources"
        },
        {
          "id": "9781328467522-00006",
          "card": 15,
          "HMH_ID": "MXCC_NA18E_RI3_G05U02B01S14_0006",
          "media_type": "PDF",
          "parent_resource_id": "",
          "se_facing": false,
          "sort_id": "",
          "relative_url": "/content/hsp/math/mx2018/na/gr5/rti_interactive_tier3_9781328467522_/5_MNLEAN467522_U2B1A1.pdf#page=2",
          "categorization": "Interactive Content",
          "tool_type": "",
          "meaningful_description": "During this activity, the student will read and write decimals to the thousandths using base-ten numerals, number names, and expanded form.",
          "display_title": "Tier 3 Interactive:  Read and Write Whole Numbers and Decimals – Activity 2",
           "component_type": "RtI",
          "standards": "",
          "bigidea": "Big Idea 1",
          "component": "RtI",
          "dashboardGroup": "Core Resources"
        },
        {
          "id": "9781328467522-00007",
          "card": 15,
          "HMH_ID": "MXCC_NA18E_RI3_G05U02B02S14_0007",
          "media_type": "PDF",
          "parent_resource_id": "",
          "se_facing": false,
          "sort_id": "",
          "relative_url": "/content/hsp/math/mx2018/na/gr5/rti_interactive_tier3_9781328467522_/5_MNLEAN467522_U2B2A1.pdf#page=1",
          "categorization": "Interactive Content",
          "tool_type": "",
          "meaningful_description": "During this activity, the student solves a word problem adding two decimals.",
          "display_title": "Tier 3 Interactive:  Addition and Subtraction – Activity 1",
           "component_type": "RtI",
          "standards": "",
          "bigidea": "Big Idea 2",
          "component": "RtI",
          "dashboardGroup": "Core Resources"
        },
        {
          "id": "9781328467522-00008",
          "card": 15,
          "HMH_ID": "MXCC_NA18E_RI3_G05U02B02S14_0008",
          "media_type": "PDF",
          "parent_resource_id": "",
          "se_facing": false,
          "sort_id": "",
          "relative_url": "/content/hsp/math/mx2018/na/gr5/rti_interactive_tier3_9781328467522_/5_MNLEAN467522_U2B2A1.pdf#page=2",
          "categorization": "Interactive Content",
          "tool_type": "",
          "meaningful_description": "During this activity, the student solves a word problem subtracting two decimals.",
          "display_title": "Tier 3 Interactive:  Addition and Subtraction – Activity 2",
           "component_type": "RtI",
          "standards": "",
          "bigidea": "Big Idea 2",
          "component": "RtI",
          "dashboardGroup": "Core Resources"
        },
        {
          "id": "9781328467522-00009",
          "card": 15,
          "HMH_ID": "MXCC_NA18E_RI3_G05U02B03S14_0009",
          "media_type": "PDF",
          "parent_resource_id": "",
          "se_facing": false,
          "sort_id": "",
          "relative_url": "/content/hsp/math/mx2018/na/gr5/rti_interactive_tier3_9781328467522_/5_MNLEAN467522_U2B3A1.pdf#page=1",
          "categorization": "Interactive Content",
          "tool_type": "",
          "meaningful_description": "During this activity, the student will use place-value understanding to round decimals.",
          "display_title": "Tier 3 Interactive:  Round and Estimate with Decimals – Activity 1",
           "component_type": "RtI",
          "standards": "",
          "bigidea": "Big Idea 3",
          "component": "RtI",
          "dashboardGroup": "Core Resources"
        },
        {
          "id": "9781328467522-00010",
          "card": 15,
          "HMH_ID": "MXCC_NA18E_RI3_G05U02B03S14_0010",
          "media_type": "PDF",
          "parent_resource_id": "",
          "se_facing": false,
          "sort_id": "",
          "relative_url": "/content/hsp/math/mx2018/na/gr5/rti_interactive_tier3_9781328467522_/5_MNLEAN467522_U2B3A1.pdf#page=2",
          "categorization": "Interactive Content",
          "tool_type": "",
          "meaningful_description": "During this activity, the student will use place-value understanding to round decimals in word problems.",
          "display_title": "Tier 3 Interactive:  Round and Estimate with Decimals – Activity 2",
           "component_type": "RtI",
          "standards": "",
          "bigidea": "Big Idea 3",
          "component": "RtI",
          "dashboardGroup": "Core Resources"
        },
        {
          "id": "9781328467522-00011",
          "card": 15,
          "HMH_ID": "MXCC_NA18E_RI3_G05U03B01S14_0011",
          "media_type": "PDF",
          "parent_resource_id": "",
          "se_facing": false,
          "sort_id": "",
          "relative_url": "/content/hsp/math/mx2018/na/gr5/rti_interactive_tier3_9781328467522_/5_MNLEAN467522_U3B1A1.pdf#page=1",
          "categorization": "Interactive Content",
          "tool_type": "",
          "meaningful_description": "During this activity, the student will multiply and simplify fractions.",
          "display_title": "Tier 3 Interactive:  Multiplication with Fractions – Activity 1",
           "component_type": "RtI",
          "standards": "",
          "bigidea": "Big Idea 1",
          "component": "RtI",
          "dashboardGroup": "Core Resources"
        },
        {
          "id": "9781328467522-00012",
          "card": 15,
          "HMH_ID": "MXCC_NA18E_RI3_G05U03B01S14_0012",
          "media_type": "PDF",
          "parent_resource_id": "",
          "se_facing": false,
          "sort_id": "",
          "relative_url": "/content/hsp/math/mx2018/na/gr5/rti_interactive_tier3_9781328467522_/5_MNLEAN467522_U3B1A1.pdf#page=2",
          "categorization": "Interactive Content",
          "tool_type": "",
          "meaningful_description": "During this activity, the student will solve multiplication word problems with fractions.",
          "display_title": "Tier 3 Interactive:  Multiplication with Fractions – Activity 2",
           "component_type": "RtI",
          "standards": "",
          "bigidea": "Big Idea 1",
          "component": "RtI",
          "dashboardGroup": "Core Resources"
        },
        {
          "id": "9781328467522-00013",
          "card": 15,
          "HMH_ID": "MXCC_NA18E_RI3_G05U03B02S14_0013",
          "media_type": "PDF",
          "parent_resource_id": "",
          "se_facing": false,
          "sort_id": "",
          "relative_url": "/content/hsp/math/mx2018/na/gr5/rti_interactive_tier3_9781328467522_/5_MNLEAN467522_U3B2A1.pdf#page=1",
          "categorization": "Interactive Content",
          "tool_type": "",
          "meaningful_description": "During this activity, the student will make comparison predictions.",
          "display_title": "Tier 3 Interactive:  Multiplication Links – Activity 1",
           "component_type": "RtI",
          "standards": "",
          "bigidea": "Big Idea 2",
          "component": "RtI",
          "dashboardGroup": "Core Resources"
        },
        {
          "id": "9781328467522-00014",
          "card": 15,
          "HMH_ID": "MXCC_NA18E_RI3_G05U03B02S14_0014",
          "media_type": "PDF",
          "parent_resource_id": "",
          "se_facing": false,
          "sort_id": "",
          "relative_url": "/content/hsp/math/mx2018/na/gr5/rti_interactive_tier3_9781328467522_/5_MNLEAN467522_U3B2A1.pdf#page=2",
          "categorization": "Interactive Content",
          "tool_type": "",
          "meaningful_description": "During this activity, the student will solve fraction word problems involving addition, subtraction, and multiplication.",
          "display_title": "Tier 3 Interactive:  Multiplication Links – Activity 2",
           "component_type": "RtI",
          "standards": "",
          "bigidea": "Big Idea 2",
          "component": "RtI",
          "dashboardGroup": "Core Resources"
        },
        {
          "id": "9781328467522-00015",
          "card": 15,
          "HMH_ID": "MXCC_NA18E_RI3_G05U03B03S14_0015",
          "media_type": "PDF",
          "parent_resource_id": "",
          "se_facing": false,
          "sort_id": "",
          "relative_url": "/content/hsp/math/mx2018/na/gr5/rti_interactive_tier3_9781328467522_/5_MNLEAN467522_U3B3A1.pdf#page=1",
          "categorization": "Interactive Content",
          "tool_type": "",
          "meaningful_description": "During this activity, the student will write and solve a word problem for a given division expression.",
          "display_title": "Tier 3 Interactive:  Division with Fractions – Activity 1",
           "component_type": "RtI",
          "standards": "",
          "bigidea": "Big Idea 3",
          "component": "RtI",
          "dashboardGroup": "Core Resources"
        },
        {
          "id": "9781328467522-00016",
          "card": 15,
          "HMH_ID": "MXCC_NA18E_RI3_G05U03B03S14_0016",
          "media_type": "PDF",
          "parent_resource_id": "",
          "se_facing": false,
          "sort_id": "",
          "relative_url": "/content/hsp/math/mx2018/na/gr5/rti_interactive_tier3_9781328467522_/5_MNLEAN467522_U3B3A1.pdf#page=2",
          "categorization": "Interactive Content",
          "tool_type": "",
          "meaningful_description": "During this activity, the student will solve a word problem using division and multiplication equations.",
          "display_title": "Tier 3 Interactive:  Division with Fractions – Activity 2",
           "component_type": "RtI",
          "standards": "",
          "bigidea": "Big Idea 3",
          "component": "RtI",
          "dashboardGroup": "Core Resources"
        },
        {
          "id": "9781328467522-00017",
          "card": 15,
          "HMH_ID": "MXCC_NA18E_RI3_G05U04B01S14_0017",
          "media_type": "PDF",
          "parent_resource_id": "",
          "se_facing": false,
          "sort_id": "",
          "relative_url": "/content/hsp/math/mx2018/na/gr5/rti_interactive_tier3_9781328467522_/5_MNLEAN467522_U4B1A1.pdf#page=1",
          "categorization": "Interactive Content",
          "tool_type": "",
          "meaningful_description": "During this activity, the student multiplies by 10, 100, or 1,000 with automaticity.",
          "display_title": "Tier 3 Interactive:  Multiplication with Whole Numbers – Activity 1",
           "component_type": "RtI",
          "standards": "",
          "bigidea": "Big Idea 1",
          "component": "RtI",
          "dashboardGroup": "Core Resources"
        },
        {
          "id": "9781328467522-00018",
          "card": 15,
          "HMH_ID": "MXCC_NA18E_RI3_G05U04B01S14_0018",
          "media_type": "PDF",
          "parent_resource_id": "",
          "se_facing": false,
          "sort_id": "",
          "relative_url": "/content/hsp/math/mx2018/na/gr5/rti_interactive_tier3_9781328467522_/5_MNLEAN467522_U4B1A1.pdf#page=2",
          "categorization": "Interactive Content",
          "tool_type": "",
          "meaningful_description": "During this activity, the student will multiply two-digit numbers.",
          "display_title": "Tier 3 Interactive:  Multiplication with Whole Numbers – Activity 2",
           "component_type": "RtI",
          "standards": "",
          "bigidea": "Big Idea 1",
          "component": "RtI",
          "dashboardGroup": "Core Resources"
        },
        {
          "id": "9781328467522-00019",
          "card": 15,
          "HMH_ID": "MXCC_NA18E_RI3_G05U04B02S14_0019",
          "media_type": "PDF",
          "parent_resource_id": "",
          "se_facing": false,
          "sort_id": "",
          "relative_url": "/content/hsp/math/mx2018/na/gr5/rti_interactive_tier3_9781328467522_/5_MNLEAN467522_U4B2A1.pdf#page=1",
          "categorization": "Interactive Content",
          "tool_type": "",
          "meaningful_description": "During this activity, the student will multiply decimal numbers by whole numbers.",
          "display_title": "Tier 3 Interactive: Multiplication with Decimal Numbers – Activity 1",
           "component_type": "RtI",
          "standards": "",
          "bigidea": "Big Idea 2",
          "component": "RtI",
          "dashboardGroup": "Core Resources"
        },
        {
          "id": "9781328467522-00020",
          "card": 15,
          "HMH_ID": "MXCC_NA18E_RI3_G05U04B02S14_0020",
          "media_type": "PDF",
          "parent_resource_id": "",
          "se_facing": false,
          "sort_id": "",
          "relative_url": "/content/hsp/math/mx2018/na/gr5/rti_interactive_tier3_9781328467522_/5_MNLEAN467522_U4B2A1.pdf#page=2",
          "categorization": "Interactive Content",
          "tool_type": "",
          "meaningful_description": "During this activity, the student uses reasoning to generalize the product of two factors when one factor is a decimal less than 1.",
          "display_title": "Tier 3 Interactive: Multiplication with Decimal Numbers – Activity 2",
           "component_type": "RtI",
          "standards": "",
          "bigidea": "Big Idea 2",
          "component": "RtI",
          "dashboardGroup": "Core Resources"
        },
        {
          "id": "9781328467522-00021",
          "card": 15,
          "HMH_ID": "MXCC_NA18E_RI3_G05U05B01S14_0021",
          "media_type": "PDF",
          "parent_resource_id": "",
          "se_facing": false,
          "sort_id": "",
          "relative_url": "/content/hsp/math/mx2018/na/gr5/rti_interactive_tier3_9781328467522_/5_MNLEAN467522_U5B1A1.pdf#page=1",
          "categorization": "Interactive Content",
          "tool_type": "",
          "meaningful_description": "During this activity, the student will divide a 4-digit number by a 1-digit number.",
          "display_title": "Tier 3 Interactive:  Division with Whole Numbers – Activity 1",
           "component_type": "RtI",
          "standards": "",
          "bigidea": "Big Idea 1",
          "component": "RtI",
          "dashboardGroup": "Core Resources"
        },
        {
          "id": "9781328467522-00022",
          "card": 15,
          "HMH_ID": "MXCC_NA18E_RI3_G05U05B01S14_0022",
          "media_type": "PDF",
          "parent_resource_id": "",
          "se_facing": false,
          "sort_id": "",
          "relative_url": "/content/hsp/math/mx2018/na/gr5/rti_interactive_tier3_9781328467522_/5_MNLEAN467522_U5B1A1.pdf#page=2",
          "categorization": "Interactive Content",
          "tool_type": "",
          "meaningful_description": "During this activity, the student will divide a 4-digit number by a 2-digit number.",
          "display_title": "Tier 3 Interactive:  Division with Whole Numbers – Activity 2",
           "component_type": "RtI",
          "standards": "",
          "bigidea": "Big Idea 1",
          "component": "RtI",
          "dashboardGroup": "Core Resources"
        },
        {
          "id": "9781328467522-00023",
          "card": 15,
          "HMH_ID": "MXCC_NA18E_RI3_G05U05B02S14_0023",
          "media_type": "PDF",
          "parent_resource_id": "",
          "se_facing": false,
          "sort_id": "",
          "relative_url": "/content/hsp/math/mx2018/na/gr5/rti_interactive_tier3_9781328467522_/5_MNLEAN467522_U5B2A1.pdf#page=1",
          "categorization": "Interactive Content",
          "tool_type": "",
          "meaningful_description": "During this activity, the student will divide decimals by whole numbers.",
          "display_title": "Tier 3 Interactive:  Division with Decimal Numbers – Activity 1",
           "component_type": "RtI",
          "standards": "",
          "bigidea": "Big Idea 2",
          "component": "RtI",
          "dashboardGroup": "Core Resources"
        },
        {
          "id": "9781328467522-00024",
          "card": 15,
          "HMH_ID": "MXCC_NA18E_RI3_G05U05B02S14_0024",
          "media_type": "PDF",
          "parent_resource_id": "",
          "se_facing": false,
          "sort_id": "",
          "relative_url": "/content/hsp/math/mx2018/na/gr5/rti_interactive_tier3_9781328467522_/5_MNLEAN467522_U5B2A1.pdf#page=2",
          "categorization": "Interactive Content",
          "tool_type": "",
          "meaningful_description": "During this activity, the student will divide a whole number by a part of a whole.",
          "display_title": "Tier 3 Interactive:  Division with Decimal Numbers – Activity 2",
           "component_type": "RtI",
          "standards": "",
          "bigidea": "Big Idea 2",
          "component": "RtI",
          "dashboardGroup": "Core Resources"
        },
        {
          "id": "9781328467522-00025",
          "card": 15,
          "HMH_ID": "MXCC_NA18E_RI3_G05U06B01S14_0025",
          "media_type": "PDF",
          "parent_resource_id": "",
          "se_facing": false,
          "sort_id": "",
          "relative_url": "/content/hsp/math/mx2018/na/gr5/rti_interactive_tier3_9781328467522_/5_MNLEAN467522_U6B1A1.pdf#page=1",
          "categorization": "Interactive Content",
          "tool_type": "",
          "meaningful_description": "During this activity, the student will solve addition and subtraction word problems involving whole numbers and fractions.",
          "display_title": "Tier 3 Interactive:  Equations and Problem Solving – Activity 1",
           "component_type": "RtI",
          "standards": "",
          "bigidea": "Big Idea 1",
          "component": "RtI",
          "dashboardGroup": "Core Resources"
        },
        {
          "id": "9781328467522-00026",
          "card": 15,
          "HMH_ID": "MXCC_NA18E_RI3_G05U06B01S14_0026",
          "media_type": "PDF",
          "parent_resource_id": "",
          "se_facing": false,
          "sort_id": "",
          "relative_url": "/content/hsp/math/mx2018/na/gr5/rti_interactive_tier3_9781328467522_/5_MNLEAN467522_U6B1A1.pdf#page=2",
          "categorization": "Interactive Content",
          "tool_type": "",
          "meaningful_description": "During this activity, the student will solve division word problems involving whole numbers and decimals.",
          "display_title": "Tier 3 Interactive:  Equations and Problem Solving – Activity 2",
           "component_type": "RtI",
          "standards": "",
          "bigidea": "Big Idea 1",
          "component": "RtI",
          "dashboardGroup": "Core Resources"
        },
        {
          "id": "9781328467522-00027",
          "card": 15,
          "HMH_ID": "MXCC_NA18E_RI3_G05U06B02S14_0027",
          "media_type": "PDF",
          "parent_resource_id": "",
          "se_facing": false,
          "sort_id": "",
          "relative_url": "/content/hsp/math/mx2018/na/gr5/rti_interactive_tier3_9781328467522_/5_MNLEAN467522_U6B2A1.pdf#page=1",
          "categorization": "Interactive Content",
          "tool_type": "",
          "meaningful_description": "During this activity, the student will model and solve multiplicative comparison problems.",
          "display_title": "Tier 3 Interactive:  Comparison Word Problems – Activity 1",
           "component_type": "RtI",
          "standards": "",
          "bigidea": "Big Idea 2",
          "component": "RtI",
          "dashboardGroup": "Core Resources"
        },
        {
          "id": "9781328467522-00028",
          "card": 15,
          "HMH_ID": "MXCC_NA18E_RI3_G05U06B02S14_0028",
          "media_type": "PDF",
          "parent_resource_id": "",
          "se_facing": false,
          "sort_id": "",
          "relative_url": "/content/hsp/math/mx2018/na/gr5/rti_interactive_tier3_9781328467522_/5_MNLEAN467522_U6B2A1.pdf#page=2",
          "categorization": "Interactive Content",
          "tool_type": "",
          "meaningful_description": "During this activity, the student will solve multiplication and division comparison problems and model them with comparison bars.",
          "display_title": "Tier 3 Interactive:  Comparison Word Problems – Activity 2",
           "component_type": "RtI",
          "standards": "",
          "bigidea": "Big Idea 2",
          "component": "RtI",
          "dashboardGroup": "Core Resources"
        },
        {
          "id": "9781328467522-00029",
          "card": 15,
          "HMH_ID": "MXCC_NA18E_RI3_G05U06B03S14_0029",
          "media_type": "PDF",
          "parent_resource_id": "",
          "se_facing": false,
          "sort_id": "",
          "relative_url": "/content/hsp/math/mx2018/na/gr5/rti_interactive_tier3_9781328467522_/5_MNLEAN467522_U6B3A1.pdf#page=1",
          "categorization": "Interactive Content",
          "tool_type": "",
          "meaningful_description": "During this activity, the student will write and solve equations that require two steps.",
          "display_title": "Tier 3 Interactive:  Problems with More Than One Step – Activity 1",
           "component_type": "RtI",
          "standards": "",
          "bigidea": "Big Idea 3",
          "component": "RtI",
          "dashboardGroup": "Core Resources"
        },
        {
          "id": "9781328467522-00030",
          "card": 15,
          "HMH_ID": "MXCC_NA18E_RI3_G05U06B03S14_0030",
          "media_type": "PDF",
          "parent_resource_id": "",
          "se_facing": false,
          "sort_id": "",
          "relative_url": "/content/hsp/math/mx2018/na/gr5/rti_interactive_tier3_9781328467522_/5_MNLEAN467522_U6B3A1.pdf#page=2",
          "categorization": "Interactive Content",
          "tool_type": "",
          "meaningful_description": "During this activity, the student will write and solve equations that require two steps and numbers with decimals.",
          "display_title": "Tier 3 Interactive:  Problems with More Than One Step – Activity 2",
           "component_type": "RtI",
          "standards": "",
          "bigidea": "Big Idea 3",
          "component": "RtI",
          "dashboardGroup": "Core Resources"
        },
        {
          "id": "9781328467522-00031",
          "card": 15,
          "HMH_ID": "MXCC_NA18E_RI3_G05U07B01S14_0031",
          "media_type": "PDF",
          "parent_resource_id": "",
          "se_facing": false,
          "sort_id": "",
          "relative_url": "/content/hsp/math/mx2018/na/gr5/rti_interactive_tier3_9781328467522_/5_MNLEAN467522_U7B1A1.pdf#page=1",
          "categorization": "Interactive Content",
          "tool_type": "",
          "meaningful_description": "During this activity, the student will use the order of operations to simplify an expression.",
          "display_title": "Tier 3 Interactive:  Algebraic Reasoning and Expressions – Activity 1",
           "component_type": "RtI",
          "standards": "",
          "bigidea": "Big Idea 1",
          "component": "RtI",
          "dashboardGroup": "Core Resources"
        },
        {
          "id": "9781328467522-00032",
          "card": 15,
          "HMH_ID": "MXCC_NA18E_RI3_G05U07B01S14_0032",
          "media_type": "PDF",
          "parent_resource_id": "",
          "se_facing": false,
          "sort_id": "",
          "relative_url": "/content/hsp/math/mx2018/na/gr5/rti_interactive_tier3_9781328467522_/5_MNLEAN467522_U7B1A1.pdf#page=2",
          "categorization": "Interactive Content",
          "tool_type": "",
          "meaningful_description": "During this activity, the student will evaluate expressions.",
          "display_title": "Tier 3 Interactive:  Algebraic Reasoning and Expressions – Activity 2",
           "component_type": "RtI",
          "standards": "",
          "bigidea": "Big Idea 1",
          "component": "RtI",
          "dashboardGroup": "Core Resources"
        },
        {
          "id": "9781328467522-00033",
          "card": 15,
          "HMH_ID": "MXCC_NA18E_RI3_G05U07B02S14_0033",
          "media_type": "PDF",
          "parent_resource_id": "",
          "se_facing": false,
          "sort_id": "",
          "relative_url": "/content/hsp/math/mx2018/na/gr5/rti_interactive_tier3_9781328467522_/5_MNLEAN467522_U7B2A1.pdf#page=1",
          "categorization": "Interactive Content",
          "tool_type": "",
          "meaningful_description": "During this activity, the student will generate two numerical patterns using two given rules.",
          "display_title": "Tier 3 Interactive:  Patterns and Graphs – Activity 1",
           "component_type": "RtI",
          "standards": "",
          "bigidea": "Big Idea 2",
          "component": "RtI",
          "dashboardGroup": "Core Resources"
        },
        {
          "id": "9781328467522-00034",
          "card": 15,
          "HMH_ID": "MXCC_NA18E_RI3_G05U07B02S14_0034",
          "media_type": "PDF",
          "parent_resource_id": "",
          "se_facing": false,
          "sort_id": "",
          "relative_url": "/content/hsp/math/mx2018/na/gr5/rti_interactive_tier3_9781328467522_/5_MNLEAN467522_U7B2A1.pdf#page=2",
          "categorization": "Interactive Content",
          "tool_type": "",
          "meaningful_description": "During this activity, the student will use a table to create ordered pairs.",
          "display_title": "Tier 3 Interactive:  Patterns and Graphs – Activity 2",
           "component_type": "RtI",
          "standards": "",
          "bigidea": "Big Idea 2",
          "component": "RtI",
          "dashboardGroup": "Core Resources"
        },
        {
          "id": "9781328467522-00035",
          "card": 15,
          "HMH_ID": "MXCC_NA18E_RI3_G05U08B01S14_0035",
          "media_type": "PDF",
          "parent_resource_id": "",
          "se_facing": false,
          "sort_id": "",
          "relative_url": "/content/hsp/math/mx2018/na/gr5/rti_interactive_tier3_9781328467522_/5_MNLEAN467522_U8B1A1.pdf#page=1",
          "categorization": "Interactive Content",
          "tool_type": "",
          "meaningful_description": "During this activity, the student finds the area and perimeter of a rectangle relating the formula to a model.",
          "display_title": "Tier 3 Interactive:  Measurement and Data – Activity 1",
           "component_type": "RtI",
          "standards": "",
          "bigidea": "Big Idea 1",
          "component": "RtI",
          "dashboardGroup": "Core Resources"
        },
        {
          "id": "9781328467522-00036",
          "card": 15,
          "HMH_ID": "MXCC_NA18E_RI3_G05U08B01S14_0036",
          "media_type": "PDF",
          "parent_resource_id": "",
          "se_facing": false,
          "sort_id": "",
          "relative_url": "/content/hsp/math/mx2018/na/gr5/rti_interactive_tier3_9781328467522_/5_MNLEAN467522_U8B1A1.pdf#page=2",
          "categorization": "Interactive Content",
          "tool_type": "",
          "meaningful_description": "During this activity, the student writes the numerical expression for the volume and then calculates the volume.",
          "display_title": "Tier 3 Interactive:  Measurement and Data – Activity 2",
           "component_type": "RtI",
          "standards": "",
          "bigidea": "Big Idea 1",
          "component": "RtI",
          "dashboardGroup": "Core Resources"
        },
        {
          "id": "9781328467522-00037",
          "card": 15,
          "HMH_ID": "MXCC_NA18E_RI3_G05U08B02S14_0037",
          "media_type": "PDF",
          "parent_resource_id": "",
          "se_facing": false,
          "sort_id": "",
          "relative_url": "/content/hsp/math/mx2018/na/gr5/rti_interactive_tier3_9781328467522_/5_MNLEAN467522_U8B2A1.pdf#page=1",
          "categorization": "Interactive Content",
          "tool_type": "",
          "meaningful_description": "During this activity, the student solves a word problem converting metric units of liquid volume.",
          "display_title": "Tier 3 Interactive:  Area and Volume – Activity 1",
           "component_type": "RtI",
          "standards": "",
          "bigidea": "Big Idea 2",
          "component": "RtI",
          "dashboardGroup": "Core Resources"
        },
        {
          "id": "9781328467522-00038",
          "card": 15,
          "HMH_ID": "MXCC_NA18E_RI3_G05U08B02S14_0038",
          "media_type": "PDF",
          "parent_resource_id": "",
          "se_facing": false,
          "sort_id": "",
          "relative_url": "/content/hsp/math/mx2018/na/gr5/rti_interactive_tier3_9781328467522_/5_MNLEAN467522_U8B2A1.pdf#page=2",
          "categorization": "Interactive Content",
          "tool_type": "",
          "meaningful_description": "During this activity, the student solves a word problem converting customary units of weight.",
          "display_title": "Tier 3 Interactive:  Area and Volume – Activity 2",
           "component_type": "RtI",
          "standards": "",
          "bigidea": "Big Idea 2",
          "component": "RtI",
          "dashboardGroup": "Core Resources"
        },
        {
          "id": "9781328467522-00039",
          "card": 15,
          "HMH_ID": "MXCC_NA18E_RI3_G05U08B03S14_0039",
          "media_type": "PDF",
          "parent_resource_id": "",
          "se_facing": false,
          "sort_id": "",
          "relative_url": "/content/hsp/math/mx2018/na/gr5/rti_interactive_tier3_9781328467522_/5_MNLEAN467522_U8B3A1.pdf#page=1",
          "categorization": "Interactive Content",
          "tool_type": "",
          "meaningful_description": "During this activity, the student classifies a quadrilateral as a parallelogram, trapezoid, rectangle, rhombus, or square.",
          "display_title": "Tier 3 Interactive:  Classify Geometric Figures – Activity 1",
           "component_type": "RtI",
          "standards": "",
          "bigidea": "Big Idea 3",
          "component": "RtI",
          "dashboardGroup": "Core Resources"
        },
        {
          "id": "9781328467522-00040",
          "card": 15,
          "HMH_ID": "MXCC_NA18E_RI3_G05U08B03S14_0040",
          "media_type": "PDF",
          "parent_resource_id": "",
          "se_facing": false,
          "sort_id": "",
          "relative_url": "/content/hsp/math/mx2018/na/gr5/rti_interactive_tier3_9781328467522_/5_MNLEAN467522_U8B3A1.pdf#page=2",
          "categorization": "Interactive Content",
          "tool_type": "",
          "meaningful_description": "During this activity, the student classifies a polygon as concave or convex.",
          "display_title": "Tier 3 Interactive:  Classify Geometric Figures – Activity 2",
           "component_type": "RtI",
          "standards": "",
          "bigidea": "Big Idea 3",
          "component": "RtI",
          "dashboardGroup": "Core Resources"
        }
      ]
    }
  ],
  "student": []
}