{

    "isbn_te":"9781328786937",
    "isbn_se":"9781328786869",
   "ARO":"Algebraic Reasoning and Operations",
	"PVO":"Place Value and Operations",
	"FO":"Fractions and Operations",
    	"MDA":"Measurement and Data Analysis",
	"GSR":"Geometry and Spatial Reasoning",
	"MPP":"Mathematical Processes and Practices",
	"standardCategory": ["ARO","PVO","FO","MDA","GSR","MPP"],
	   "games_user_guide_url":"/content/hsp/math/mx2018/common/math_activity_center/games/Users_Guide_to_Interactive_Games.pdf ",
         "rti_userguide_url":"/content/hsp/math/mx2018/common/math_activity_center/rti/Users_Guide_to_Interactive_Rti.pdf ",
	  "select_unit_text":"Select Unit" ,
    "select_lesson_text":"Select Lesson",
    "select_bigidea_text":"Select Big Idea",
    "comingsoon_text":"Coming Soon",
    "previous_text":"Previous",
    "next_text":"Next",
    "items_text":"items",
    "standards_text":"Standards" ,
    "select_new_standards":"Select New Standards",
    "edition_text":"Edition",
    "teacher_text":"Teacher",
    "student_text":"Student",
    "interactive_comming_soon_text":"Interactive Coming Soon",
    "results_not_found":"Sorry, no results were found. Please try a different combination of filters",
    "worksheet_text":"Worksheet",
    "tier1_text":"Tier 1",
    "tier2_text":"Tier 2",
    "tier3_text":"Tier 3",
    "fluency_checks":"Fluency Checks",
    "fluency_practice":"Fluency Practice",
    "type_text":"Type",
    "lesson_corelation_text":"Lesson Correlation Chart for Interactive Games",
    "user_guide_text":"User's Guide to Interactive Games",
    "games_text":"Interactive Games",
    "gameboards_text":"Game Boards",
    "corelation_chart_text":"Lesson-Level Correlation Chart",
    "close_text":"Close",
    "print_text":"Print",
    "additionandsubtraction_text":"Poggles MX: Addition and Subtraction",
    "lesson_text":"Lesson",
    "game_title":"Game Title",
    "level_text":"Level",
    "lesson_title_text":"Lesson Title",
    "intervention_text":"Intervention",
    "onlevel_text":"On Level",
    "challenge_text":"Challenge",
    "unit_text":"Unit",
    "filter_text":"Filters",
    "reset_text":"reset",
    "show_resources_for":" SHOW RESOURCES FOR",
    "math_activity_center":"Math Activity Center",
    "more_info_text":"More Information" ,
     "rti_user_guide":"User’s Guide to RtI"             
                  
}