{
  "isbn": "123",
  "program": "12",
  "grade": "123",
  "non_grade_title": "132",
  "programType": "ela",
  "teacher": [
    {
      "component": "Core Resources",
      "libraryItems": [
        {
          "id": "9781328790651-00001",
          "card": 15,
          "HMH_ID": "MXSA_NA18E_RI1_G01U01B01S14_0001",
          "media_type": "HTML",
          "parent_resource_id": "",
          "se_facing": false,
          "sort_id": "",
          "relative_url": "/content/hsp/math/mx2018/na/gr1/rti_tier1_9781328787057_/u1/bi1/index.html",
          "categorization": "Interactive Content",
          "tool_type": "",
          "meaningful_description": "Tier 1 Intervention skills and concepts: count five-groups and extra ones.",
          "display_title": "Tier 1 Interactive:  Numbers Through 10",
            "component_type": "RtI",
          "standards": "",
          "bigidea": "Big Idea 1",
          "component": "RtI",
          "dashboardGroup": "Core Resources"
        },
        {
          "id": "9781328790651-00002",
          "card": 15,
          "HMH_ID": "MXSA_NA18E_RI1_G01U01B02S14_0002",
          "media_type": "HTML",
          "parent_resource_id": "",
          "se_facing": false,
          "sort_id": "",
          "relative_url": "/content/hsp/math/mx2018/na/gr1/rti_tier1_9781328787057_/u1/bi2/index.html",
          "categorization": "Interactive Content",
          "tool_type": "",
          "meaningful_description": "Tier 1 Intervention skills and concepts: find partners of a number.",
          "display_title": "Tier 1 Interactive:  Patterns with Partners Through 10",
            "component_type": "RtI",
          "standards": "",
          "bigidea": "Big Idea 2",
          "component": "RtI",
          "dashboardGroup": "Core Resources"
        },
        {
          "id": "9781328790651-00003",
          "card": 15,
          "HMH_ID": "MXSA_NA18E_RI1_G01U01B03S14_0002",
          "media_type": "HTML",
          "parent_resource_id": "",
          "se_facing": false,
          "sort_id": "",
          "relative_url": "/content/hsp/math/mx2018/na_ncc/gr1/rti_interactive_tier1_9781328790651_/u1/bi3/index.html",
          "categorization": "Interactive Content",
          "tool_type": "",
          "meaningful_description": "Tier 1 Intervention skills and concepts: find and create repeating patterns, including growing and shrinking patterns.",
          "display_title": "Tier 1 Interactive:  Find and Create Patterns",
            "component_type": "RtI",
          "standards": "",
          "bigidea": "Big Idea 3",
          "component": "RtI",
          "dashboardGroup": "Core Resources"
        },
        {
          "id": "9781328790651-00004",
          "card": 15,
          "HMH_ID": "MXSA_NA18E_RI1_G01U02B01S14_0003",
          "media_type": "HTML",
          "parent_resource_id": "",
          "se_facing": false,
          "sort_id": "",
          "relative_url": "/content/hsp/math/mx2018/na/gr1/rti_tier1_9781328787057_/u2/bi1/index.html",
          "categorization": "Interactive Content",
          "tool_type": "",
          "meaningful_description": "Tier 1 Intervention skills and concepts: drawings and equations for addition stories.",
          "display_title": "Tier 1 Interactive:  Represent Addition Situations",
            "component_type": "RtI",
          "standards": "",
          "bigidea": "Big Idea 1",
          "component": "RtI",
          "dashboardGroup": "Core Resources"
        },
        {
          "id": "9781328790651-00005",
          "card": 15,
          "HMH_ID": "MXSA_NA18E_RI1_G01U02B02S14_0004",
          "media_type": "HTML",
          "parent_resource_id": "",
          "se_facing": false,
          "sort_id": "",
          "relative_url": "/content/hsp/math/mx2018/na/gr1/rti_tier1_9781328787057_/u2/bi2/index.html",
          "categorization": "Interactive Content",
          "tool_type": "",
          "meaningful_description": "Tier 1 Intervention skills and concepts: strategy for adding.",
          "display_title": "Tier 1 Interactive:  Solve Addition Equations",
            "component_type": "RtI",
          "standards": "",
          "bigidea": "Big Idea 2",
          "component": "RtI",
          "dashboardGroup": "Core Resources"
        },
        {
          "id": "9781328790651-00006",
          "card": 15,
          "HMH_ID": "MXSA_NA18E_RI1_G01U02B03S14_0005",
          "media_type": "HTML",
          "parent_resource_id": "",
          "se_facing": false,
          "sort_id": "",
          "relative_url": "/content/hsp/math/mx2018/na/gr1/rti_tier1_9781328787057_/u2/bi3/index.html",
          "categorization": "Interactive Content",
          "tool_type": "",
          "meaningful_description": "Tier 1 Intervention skills and concepts: solve subtraction equations.",
          "display_title": "Tier 1 Interactive:  Solve Subtraction Equations",
            "component_type": "RtI",
          "standards": "",
          "bigidea": "Big Idea 3",
          "component": "RtI",
          "dashboardGroup": "Core Resources"
        },
        {
          "id": "9781328790651-00007",
          "card": 15,
          "HMH_ID": "MXSA_NA18E_RI1_G01U02B04S14_0006",
          "media_type": "HTML",
          "parent_resource_id": "",
          "se_facing": false,
          "sort_id": "",
          "relative_url": "/content/hsp/math/mx2018/na/gr1/rti_tier1_9781328787057_/u2/bi4/index.html",
          "categorization": "Interactive Content",
          "tool_type": "",
          "meaningful_description": "Tier 1 Intervention skills and concepts: addition and subtraction equations.",
          "display_title": "Tier 1 Interactive:  Equation Exploration",
            "component_type": "RtI",
          "standards": "",
          "bigidea": "Big Idea 4",
          "component": "RtI",
          "dashboardGroup": "Core Resources"
        },
        {
          "id": "9781328790651-00008",
          "card": 15,
          "HMH_ID": "MXSA_NA18E_RI1_G01U03B01S14_0007",
          "media_type": "HTML",
          "parent_resource_id": "",
          "se_facing": false,
          "sort_id": "",
          "relative_url": "/content/hsp/math/mx2018/na/gr1/rti_tier1_9781328787057_/u3/bi1/index.html",
          "categorization": "Interactive Content",
          "tool_type": "",
          "meaningful_description": "Tier 1 Intervention skills and concepts: solve story problems and equations with unknown partners; find the unknown partner in addition equations.",
          "display_title": "Tier 1 Interactive:  Counting On with Addition Situations",
            "component_type": "RtI",
          "standards": "",
          "bigidea": "Big Idea 1",
          "component": "RtI",
          "dashboardGroup": "Core Resources"
        },
        {
          "id": "9781328790651-00009",
          "card": 15,
          "HMH_ID": "MXSA_NA18E_RI1_G01U03B02S14_0008",
          "media_type": "HTML",
          "parent_resource_id": "",
          "se_facing": false,
          "sort_id": "",
          "relative_url": "/content/hsp/math/mx2018/na/gr1/rti_tier1_9781328787057_/u3/bi2/index.html",
          "categorization": "Interactive Content",
          "tool_type": "",
          "meaningful_description": "Tier 1 Intervention skills and concepts: solve subtraction story problems and equations by counting on.",
          "display_title": "Tier 1 Interactive:  Counting On with Subtraction Situations",
            "component_type": "RtI",
          "standards": "",
          "bigidea": "Big Idea 2",
          "component": "RtI",
          "dashboardGroup": "Core Resources"
        },
        {
          "id": "9781328790651-00010",
          "card": 15,
          "HMH_ID": "MXSA_NA18E_RI1_G01U03B03S14_0009",
          "media_type": "HTML",
          "parent_resource_id": "",
          "se_facing": false,
          "sort_id": "",
          "relative_url": "/content/hsp/math/mx2018/na/gr1/rti_tier1_9781328787057_/u3/bi3/index.html",
          "categorization": "Interactive Content",
          "tool_type": "",
          "meaningful_description": "Tier 1 Intervention skills and concepts: solve addition and subtraction story problems.",
          "display_title": "Tier 1 Interactive:  Mixed Story Problems",
            "component_type": "RtI",
          "standards": "",
          "bigidea": "Big Idea 3",
          "component": "RtI",
          "dashboardGroup": "Core Resources"
        },
        {
          "id": "9781328790651-00011",
          "card": 15,
          "HMH_ID": "MXSA_NA18E_RI1_G01U04B01S14_0010",
          "media_type": "HTML",
          "parent_resource_id": "",
          "se_facing": false,
          "sort_id": "",
          "relative_url": "/content/hsp/math/mx2018/na/gr1/rti_tier1_9781328787057_/u4/bi1/index.html",
          "categorization": "Interactive Content",
          "tool_type": "",
          "meaningful_description": "Tier 1 Intervention skills and concepts: teen numbers and teen addition.",
          "display_title": "Tier 1 Interactive:  Tens and Teens",
            "component_type": "RtI",
          "standards": "",
          "bigidea": "Big Idea 1",
          "component": "RtI",
          "dashboardGroup": "Core Resources"
        },
        {
          "id": "9781328790651-00012",
          "card": 15,
          "HMH_ID": "MXSA_NA18E_RI1_G01U04B02S14_0011",
          "media_type": "HTML",
          "parent_resource_id": "",
          "se_facing": false,
          "sort_id": "",
          "relative_url": "/content/hsp/math/mx2018/na/gr1/rti_tier1_9781328787057_/u4/bi2/index.html",
          "categorization": "Interactive Content",
          "tool_type": "",
          "meaningful_description": "Tier 1 Intervention skills and concepts: tens and ones in numbers up to 100.",
          "display_title": "Tier 1 Interactive:  Place Value to 100",
            "component_type": "RtI",
          "standards": "",
          "bigidea": "Big Idea 2",
          "component": "RtI",
          "dashboardGroup": "Core Resources"
        },
        {
          "id": "9781328790651-00013",
          "card": 15,
          "HMH_ID": "MXSA_NA18E_RI1_G01U04B03S14_0012",
          "media_type": "HTML",
          "parent_resource_id": "",
          "se_facing": false,
          "sort_id": "",
          "relative_url": "/content/hsp/math/mx2018/na/gr1/rti_tier1_9781328787057_/u4/bi3/index.html",
          "categorization": "Interactive Content",
          "tool_type": "",
          "meaningful_description": "Tier 1 Intervention skills and concepts: addition strategies.",
          "display_title": "Tier 1 Interactive:  Addition Strategies",
            "component_type": "RtI",
          "standards": "",
          "bigidea": "Big Idea 3",
          "component": "RtI",
          "dashboardGroup": "Core Resources"
        },
        {
          "id": "9781328790651-00014",
          "card": 15,
          "HMH_ID": "MXSA_NA18E_RI1_G01U04B04S14_0012",
          "media_type": "HTML",
          "parent_resource_id": "",
          "se_facing": false,
          "sort_id": "",
          "relative_url": "/content/hsp/math/mx2018/na_ncc/gr1/rti_interactive_tier1_9781328790651_/u4/bi4/index.html",
          "categorization": "Interactive Content",
          "tool_type": "",
          "meaningful_description": "Tier 1 Intervention skills and concepts: learn the value of coins, find equivalent values between coins, identify the number of coins in a money amount, and solve addition story problems using coins.",
          "display_title": "Tier 1 Interactive:  Understand Money",
            "component_type": "RtI",
          "standards": "",
          "bigidea": "Big Idea 4",
          "component": "RtI",
          "dashboardGroup": "Core Resources"
        },
        {
          "id": "9781328790651-00015",
          "card": 15,
          "HMH_ID": "MXSA_NA18E_RI1_G01U05B01S14_0013",
          "media_type": "HTML",
          "parent_resource_id": "",
          "se_facing": false,
          "sort_id": "",
          "relative_url": "/content/hsp/math/mx2018/na/gr1/rti_tier1_9781328787057_/u5/bi1/index.html",
          "categorization": "Interactive Content",
          "tool_type": "",
          "meaningful_description": "Tier 1 Intervention skills and concepts: solve problems with teen totals.",
          "display_title": "Tier 1 Interactive:  Teen Solution Methods",
            "component_type": "RtI",
          "standards": "",
          "bigidea": "Big Idea 1",
          "component": "RtI",
          "dashboardGroup": "Core Resources"
        },
        {
          "id": "9781328790651-00016",
          "card": 15,
          "HMH_ID": "MXSA_NA18E_RI1_G01U05B02S14_0014",
          "media_type": "HTML",
          "parent_resource_id": "",
          "se_facing": false,
          "sort_id": "",
          "relative_url": "/content/hsp/math/mx2018/na/gr1/rti_tier1_9781328787057_/u5/bi2/index.html",
          "categorization": "Interactive Content",
          "tool_type": "",
          "meaningful_description": "Tier 1 Intervention skills and concepts: look for patterns and relationships.",
          "display_title": "Tier 1 Interactive:  Find Patterns and Relationships",
            "component_type": "RtI",
          "standards": "",
          "bigidea": "Big Idea 2",
          "component": "RtI",
          "dashboardGroup": "Core Resources"
        },
        {
          "id": "9781328790651-00017",
          "card": 15,
          "HMH_ID": "MXSA_NA18E_RI1_G01U06B01S14_0015",
          "media_type": "HTML",
          "parent_resource_id": "",
          "se_facing": false,
          "sort_id": "",
          "relative_url": "/content/hsp/math/mx2018/na/gr1/rti_tier1_9781328787057_/u6/bi1/index.html",
          "categorization": "Interactive Content",
          "tool_type": "",
          "meaningful_description": "Tier 1 Intervention skills and concepts: comparison pictures.",
          "display_title": "Tier 1 Interactive:  Represent and Compare Data",
            "component_type": "RtI",
          "standards": "",
          "bigidea": "Big Idea 1",
          "component": "RtI",
          "dashboardGroup": "Core Resources"
        },
        {
          "id": "9781328790651-00018",
          "card": 15,
          "HMH_ID": "MXSA_NA18E_RI1_G01U06B02S14_0016",
          "media_type": "HTML",
          "parent_resource_id": "",
          "se_facing": false,
          "sort_id": "",
          "relative_url": "/content/hsp/math/mx2018/na/gr1/rti_tier1_9781328787057_/u6/bi2/index.html",
          "categorization": "Interactive Content",
          "tool_type": "",
          "meaningful_description": "Tier 1 Intervention skills and concepts: solve problems about comparing groups.",
          "display_title": "Tier 1 Interactive:  Compare Problem Types",
            "component_type": "RtI",
          "standards": "",
          "bigidea": "Big Idea 2",
          "component": "RtI",
          "dashboardGroup": "Core Resources"
        },
        {
          "id": "9781328790651-00019",
          "card": 15,
          "HMH_ID": "MXSA_NA18E_RI1_G01U07B01S14_0017",
          "media_type": "HTML",
          "parent_resource_id": "",
          "se_facing": false,
          "sort_id": "",
          "relative_url": "/content/hsp/math/mx2018/na/gr1/rti_tier1_9781328787057_/u7/bi1/index.html",
          "categorization": "Interactive Content",
          "tool_type": "",
          "meaningful_description": "Tier 1 Intervention skills and concepts: time.",
          "display_title": "Tier 1 Interactive:  Tell and Write Time",
            "component_type": "RtI",
          "standards": "",
          "bigidea": "Big Idea 1",
          "component": "RtI",
          "dashboardGroup": "Core Resources"
        },
        {
          "id": "9781328790651-00020",
          "card": 15,
          "HMH_ID": "MXSA_NA18E_RI1_G01U07B02S14_0018",
          "media_type": "HTML",
          "parent_resource_id": "",
          "se_facing": false,
          "sort_id": "",
          "relative_url": "/content/hsp/math/mx2018/na/gr1/rti_tier1_9781328787057_/u7/bi2/index.html",
          "categorization": "Interactive Content",
          "tool_type": "",
          "meaningful_description": "Tier 1 Intervention skills and concepts: equal shares.",
          "display_title": "Tier 1 Interactive:  Shapes and Equal Shares",
            "component_type": "RtI",
          "standards": "",
          "bigidea": "Big Idea 2",
          "component": "RtI",
          "dashboardGroup": "Core Resources"
        },
        {
          "id": "9781328790651-00021",
          "card": 15,
          "HMH_ID": "MXSA_NA18E_RI1_G01U07B03S14_0019",
          "media_type": "HTML",
          "parent_resource_id": "",
          "se_facing": false,
          "sort_id": "",
          "relative_url": "/content/hsp/math/mx2018/na/gr1/rti_tier1_9781328787057_/u7/bi3/index.html",
          "categorization": "Interactive Content",
          "tool_type": "",
          "meaningful_description": "Tier 1 Intervention skills and concepts: measure.",
          "display_title": "Tier 1 Interactive:  Measure and Order by Length",
            "component_type": "RtI",
          "standards": "",
          "bigidea": "Big Idea 3",
          "component": "RtI",
          "dashboardGroup": "Core Resources"
        },
        {
          "id": "9781328790651-00022",
          "card": 15,
          "HMH_ID": "MXSA_NA18E_RI1_G01U08B01S14_0020",
          "media_type": "HTML",
          "parent_resource_id": "",
          "se_facing": false,
          "sort_id": "",
          "relative_url": "/content/hsp/math/mx2018/na/gr1/rti_tier1_9781328787057_/u8/bi1/index.html",
          "categorization": "Interactive Content",
          "tool_type": "",
          "meaningful_description": "Tier 1 Intervention skills and concepts: solve the same two-digit addition problem using different methods.",
          "display_title": "Tier 1 Interactive:  Add 2-Digit Numbers",
            "component_type": "RtI",
          "standards": "",
          "bigidea": "Big Idea 1",
          "component": "RtI",
          "dashboardGroup": "Core Resources"
        },
         {
          "id": "9781328790729-00001",
          "card": 15,
          "HMH_ID": "MXSA_NA18E_RI2_G01U01B01S14_0001",
          "media_type": "HTML",
          "parent_resource_id": "",
          "se_facing": false,
          "sort_id": "",
          "relative_url": "/content/hsp/math/mx2018/na/gr1/rti_tier2_9781328787125_/u1/bi1/index.html",
          "categorization": "Interactive Content",
          "tool_type": "",
          "meaningful_description": "Tier 2 Intervention skills and concepts: five-groups.",
          "display_title": "Tier 2 Interactive:  Numbers Through 10",
            "component_type": "RtI",
          "standards": "",
          "bigidea": "Big Idea 1",
          "component": "RtI",
          "dashboardGroup": "Core Resources"
        },
        {
          "id": "9781328790729-00002",
          "card": 15,
          "HMH_ID": "MXSA_NA18E_RI2_G01U01B02S14_0002",
          "media_type": "HTML",
          "parent_resource_id": "",
          "se_facing": false,
          "sort_id": "",
          "relative_url": "/content/hsp/math/mx2018/na/gr1/rti_tier2_9781328787125_/u1/bi2/index.html",
          "categorization": "Interactive Content",
          "tool_type": "",
          "meaningful_description": "Tier 2 Intervention skills and concepts: Math Mountains and partners.",
          "display_title": "Tier 2 Interactive:  Patterns with Partners Through 10",
            "component_type": "RtI",
          "standards": "",
          "bigidea": "Big Idea 2",
          "component": "RtI",
          "dashboardGroup": "Core Resources"
        },
        {
          "id": "9781328790729-00003",
          "card": 15,
          "HMH_ID": "MXSA_NA18E_RI2_G01U01B03S14_0002",
          "media_type": "HTML",
          "parent_resource_id": "",
          "se_facing": false,
          "sort_id": "",
          "relative_url": "/content/hsp/math/mx2018/na_ncc/gr1/rti_interactive_tier2_9781328790729_/u1/bi3/index.html",
          "categorization": "Interactive Content",
          "tool_type": "",
          "meaningful_description": "Tier 2 Intervention skills and concepts: develop skills prerequisite to finding and creating patterns.",
          "display_title": "Tier 2 Interactive:  Find and Create Patterns",
            "component_type": "RtI",
          "standards": "",
          "bigidea": "Big Idea 3",
          "component": "RtI",
          "dashboardGroup": "Core Resources"
        },
        {
          "id": "9781328790729-00004",
          "card": 15,
          "HMH_ID": "MXSA_NA18E_RI2_G01U02B01S14_0003",
          "media_type": "HTML",
          "parent_resource_id": "",
          "se_facing": false,
          "sort_id": "",
          "relative_url": "/content/hsp/math/mx2018/na/gr1/rti_tier2_9781328787125_/u2/bi1/index.html",
          "categorization": "Interactive Content",
          "tool_type": "",
          "meaningful_description": "Tier 2 Intervention skills and concepts: ways to show addition stories; solve story problems using a picture.",
          "display_title": "Tier 2 Interactive:  Represent Addition Situations",
            "component_type": "RtI",
          "standards": "",
          "bigidea": "Big Idea 1",
          "component": "RtI",
          "dashboardGroup": "Core Resources"
        },
        {
          "id": "9781328790729-00005",
          "card": 15,
          "HMH_ID": "MXSA_NA18E_RI2_G01U02B02S14_0004",
          "media_type": "HTML",
          "parent_resource_id": "",
          "se_facing": false,
          "sort_id": "",
          "relative_url": "/content/hsp/math/mx2018/na/gr1/rti_tier2_9781328787125_/u2/bi2/index.html",
          "categorization": "Interactive Content",
          "tool_type": "",
          "meaningful_description": "Tier 2 Intervention skills and concepts: solve addition equations.",
          "display_title": "Tier 2 Interactive:  Solve Addition Equations",
            "component_type": "RtI",
          "standards": "",
          "bigidea": "Big Idea 2",
          "component": "RtI",
          "dashboardGroup": "Core Resources"
        },
        {
          "id": "9781328790729-00006",
          "card": 15,
          "HMH_ID": "MXSA_NA18E_RI2_G01U02B03S14_0005",
          "media_type": "HTML",
          "parent_resource_id": "",
          "se_facing": false,
          "sort_id": "",
          "relative_url": "/content/hsp/math/mx2018/na/gr1/rti_tier2_9781328787125_/u2/bi3/index.html",
          "categorization": "Interactive Content",
          "tool_type": "",
          "meaningful_description": "Tier 2 Intervention skills and concepts: subtraction.",
          "display_title": "Tier 2 Interactive:  Solve Subtraction Equations",
            "component_type": "RtI",
          "standards": "",
          "bigidea": "Big Idea 3",
          "component": "RtI",
          "dashboardGroup": "Core Resources"
        },
        {
          "id": "9781328790729-00007",
          "card": 15,
          "HMH_ID": "MXSA_NA18E_RI2_G01U02B04S14_0006",
          "media_type": "HTML",
          "parent_resource_id": "",
          "se_facing": false,
          "sort_id": "",
          "relative_url": "/content/hsp/math/mx2018/na/gr1/rti_tier2_9781328787125_/u2/bi4/index.html",
          "categorization": "Interactive Content",
          "tool_type": "",
          "meaningful_description": "Tier 2 Intervention skills and concepts: equations.",
          "display_title": "Tier 2 Interactive:  Equation Exploration",
            "component_type": "RtI",
          "standards": "",
          "bigidea": "Big Idea 4",
          "component": "RtI",
          "dashboardGroup": "Core Resources"
        },
        {
          "id": "9781328790729-00008",
          "card": 15,
          "HMH_ID": "MXSA_NA18E_RI2_G01U03B01S14_0007",
          "media_type": "HTML",
          "parent_resource_id": "",
          "se_facing": false,
          "sort_id": "",
          "relative_url": "/content/hsp/math/mx2018/na/gr1/rti_tier2_9781328787125_/u3/bi1/index.html",
          "categorization": "Interactive Content",
          "tool_type": "",
          "meaningful_description": "Tier 2 Intervention skills and concepts: addition story problems.",
          "display_title": "Tier 2 Interactive:  Counting On with Addition Situations",
            "component_type": "RtI",
          "standards": "",
          "bigidea": "Big Idea 1",
          "component": "RtI",
          "dashboardGroup": "Core Resources"
        },
        {
          "id": "9781328790729-00009",
          "card": 15,
          "HMH_ID": "MXSA_NA18E_RI2_G01U03B02S14_0008",
          "media_type": "HTML",
          "parent_resource_id": "",
          "se_facing": false,
          "sort_id": "",
          "relative_url": "/content/hsp/math/mx2018/na/gr1/rti_tier2_9781328787125_/u3/bi2/index.html",
          "categorization": "Interactive Content",
          "tool_type": "",
          "meaningful_description": "Tier 2 Intervention skills and concepts: Math Mountains and addition and subtraction equations.",
          "display_title": "Tier 2 Interactive:  Counting On with Subtraction Situations",
            "component_type": "RtI",
          "standards": "",
          "bigidea": "Big Idea 2",
          "component": "RtI",
          "dashboardGroup": "Core Resources"
        },
        {
          "id": "9781328790729-00010",
          "card": 15,
          "HMH_ID": "MXSA_NA18E_RI2_G01U03B03S14_0009",
          "media_type": "HTML",
          "parent_resource_id": "",
          "se_facing": false,
          "sort_id": "",
          "relative_url": "/content/hsp/math/mx2018/na/gr1/rti_tier2_9781328787125_/u3/bi3/index.html",
          "categorization": "Interactive Content",
          "tool_type": "",
          "meaningful_description": "Tier 2 Intervention skills and concepts: solve addition and subtraction story problems.",
          "display_title": "Tier 2 Interactive:  Mixed Story Problems",
            "component_type": "RtI",
          "standards": "",
          "bigidea": "Big Idea 3",
          "component": "RtI",
          "dashboardGroup": "Core Resources"
        },
        {
          "id": "9781328790729-00011",
          "card": 15,
          "HMH_ID": "MXSA_NA18E_RI2_G01U04B01S14_0010",
          "media_type": "HTML",
          "parent_resource_id": "",
          "se_facing": false,
          "sort_id": "",
          "relative_url": "/content/hsp/math/mx2018/na/gr1/rti_tier2_9781328787125_/u4/bi1/index.html",
          "categorization": "Interactive Content",
          "tool_type": "",
          "meaningful_description": "Tier 2 Intervention skills and concepts: teen numbers.",
          "display_title": "Tier 2 Interactive:  Tens and Teens",
            "component_type": "RtI",
          "standards": "",
          "bigidea": "Big Idea 1",
          "component": "RtI",
          "dashboardGroup": "Core Resources"
        },
        {
          "id": "9781328790729-00012",
          "card": 15,
          "HMH_ID": "MXSA_NA18E_RI2_G01U04B02S14_0011",
          "media_type": "HTML",
          "parent_resource_id": "",
          "se_facing": false,
          "sort_id": "",
          "relative_url": "/content/hsp/math/mx2018/na/gr1/rti_tier2_9781328787125_/u4/bi2/index.html",
          "categorization": "Interactive Content",
          "tool_type": "",
          "meaningful_description": "Tier 2 Intervention skills and concepts: tens and ones.",
          "display_title": "Tier 2 Interactive:  Place Value to 100",
            "component_type": "RtI",
          "standards": "",
          "bigidea": "Big Idea 2",
          "component": "RtI",
          "dashboardGroup": "Core Resources"
        },
        {
          "id": "9781328790729-00013",
          "card": 15,
          "HMH_ID": "MXSA_NA18E_RI2_G01U04B03S14_0012",
          "media_type": "HTML",
          "parent_resource_id": "",
          "se_facing": false,
          "sort_id": "",
          "relative_url": "/content/hsp/math/mx2018/na/gr1/rti_tier2_9781328787125_/u4/bi3/index.html",
          "categorization": "Interactive Content",
          "tool_type": "",
          "meaningful_description": "Tier 2 Intervention skills and concepts: addition strategies.",
          "display_title": "Tier 2 Interactive:  Addition Strategies",
            "component_type": "RtI",
          "standards": "",
          "bigidea": "Big Idea 3",
          "component": "RtI",
          "dashboardGroup": "Core Resources"
        },
        {
          "id": "9781328790729-00014",
          "card": 15,
          "HMH_ID": "MXSA_NA18E_RI2_G01U04B04S14_0012",
          "media_type": "HTML",
          "parent_resource_id": "",
          "se_facing": false,
          "sort_id": "",
          "relative_url": "/content/hsp/math/mx2018/na_ncc/gr1/rti_interactive_tier2_9781328790729_/u4/bi4/index.html",
          "categorization": "Interactive Content",
          "tool_type": "",
          "meaningful_description": "Tier 2 Intervention skills and concepts: develop skills prerequisite to solving addition story problems using coins.",
          "display_title": "Tier 2 Interactive:  Understand Money",
            "component_type": "RtI",
          "standards": "",
          "bigidea": "Big Idea 4",
          "component": "RtI",
          "dashboardGroup": "Core Resources"
        },
        {
          "id": "9781328790729-00015",
          "card": 15,
          "HMH_ID": "MXSA_NA18E_RI2_G01U05B01S14_0013",
          "media_type": "HTML",
          "parent_resource_id": "",
          "se_facing": false,
          "sort_id": "",
          "relative_url": "/content/hsp/math/mx2018/na/gr1/rti_tier2_9781328787125_/u5/bi1/index.html",
          "categorization": "Interactive Content",
          "tool_type": "",
          "meaningful_description": "Tier 2 Intervention skills and concepts: find teen totals by making a ten.",
          "display_title": "Tier 2 Interactive:  Teen Solution Methods",
            "component_type": "RtI",
          "standards": "",
          "bigidea": "Big Idea 1",
          "component": "RtI",
          "dashboardGroup": "Core Resources"
        },
        {
          "id": "9781328790729-00016",
          "card": 15,
          "HMH_ID": "MXSA_NA18E_RI2_G01U05B02S14_0014",
          "media_type": "HTML",
          "parent_resource_id": "",
          "se_facing": false,
          "sort_id": "",
          "relative_url": "/content/hsp/math/mx2018/na/gr1/rti_tier2_9781328787125_/u5/bi2/index.html",
          "categorization": "Interactive Content",
          "tool_type": "",
          "meaningful_description": "Tier 2 Intervention skills and concepts: use groups of 10 to count and to solve some simple addition problems.",
          "display_title": "Tier 2 Interactive:  Find Patterns and Relationships",
            "component_type": "RtI",
          "standards": "",
          "bigidea": "Big Idea 2",
          "component": "RtI",
          "dashboardGroup": "Core Resources"
        },
        {
          "id": "9781328790729-00017",
          "card": 15,
          "HMH_ID": "MXSA_NA18E_RI2_G01U06B01S14_0015",
          "media_type": "HTML",
          "parent_resource_id": "",
          "se_facing": false,
          "sort_id": "",
          "relative_url": "/content/hsp/math/mx2018/na/gr1/rti_tier2_9781328787125_/u6/bi1/index.html",
          "categorization": "Interactive Content",
          "tool_type": "",
          "meaningful_description": "Tier 2 Intervention skills and concepts: sort and compare.",
          "display_title": "Tier 2 Interactive:  Represent and Compare Data",
            "component_type": "RtI",
          "standards": "",
          "bigidea": "Big Idea 1",
          "component": "RtI",
          "dashboardGroup": "Core Resources"
        },
        {
          "id": "9781328790729-00018",
          "card": 15,
          "HMH_ID": "MXSA_NA18E_RI2_G01U06B02S14_0016",
          "media_type": "HTML",
          "parent_resource_id": "",
          "se_facing": false,
          "sort_id": "",
          "relative_url": "/content/hsp/math/mx2018/na/gr1/rti_tier2_9781328787125_/u6/bi2/index.html",
          "categorization": "Interactive Content",
          "tool_type": "",
          "meaningful_description": "Tier 2 Intervention skills and concepts: solve problems about comparing groups.",
          "display_title": "Tier 2 Interactive:  Compare Problem Types",
            "component_type": "RtI",
          "standards": "",
          "bigidea": "Big Idea 2",
          "component": "RtI",
          "dashboardGroup": "Core Resources"
        },
        {
          "id": "9781328790729-00019",
          "card": 15,
          "HMH_ID": "MXSA_NA18E_RI2_G01U07B01S14_0017",
          "media_type": "HTML",
          "parent_resource_id": "",
          "se_facing": false,
          "sort_id": "",
          "relative_url": "/content/hsp/math/mx2018/na/gr1/rti_tier2_9781328787125_/u7/bi1/index.html",
          "categorization": "Interactive Content",
          "tool_type": "",
          "meaningful_description": "Tier 2 Intervention skills and concepts: learn about time and about how clocks are used to show time.",
          "display_title": "Tier 2 Interactive:  Tell and Write Time",
            "component_type": "RtI",
          "standards": "",
          "bigidea": "Big Idea 1",
          "component": "RtI",
          "dashboardGroup": "Core Resources"
        },
        {
          "id": "9781328790729-00020",
          "card": 15,
          "HMH_ID": "MXSA_NA18E_RI2_G01U07B02S14_0018",
          "media_type": "HTML",
          "parent_resource_id": "",
          "se_facing": false,
          "sort_id": "",
          "relative_url": "/content/hsp/math/mx2018/na/gr1/rti_tier2_9781328787125_/u7/bi2/index.html",
          "categorization": "Interactive Content",
          "tool_type": "",
          "meaningful_description": "Tier 2 Intervention skills and concepts: shapes.",
          "display_title": "Tier 2 Interactive:  Shapes and Equal Shares",
            "component_type": "RtI",
          "standards": "",
          "bigidea": "Big Idea 2",
          "component": "RtI",
          "dashboardGroup": "Core Resources"
        },
        {
          "id": "9781328790729-00021",
          "card": 15,
          "HMH_ID": "MXSA_NA18E_RI2_G01U07B03S14_0019",
          "media_type": "HTML",
          "parent_resource_id": "",
          "se_facing": false,
          "sort_id": "",
          "relative_url": "/content/hsp/math/mx2018/na/gr1/rti_tier2_9781328787125_/u7/bi3/index.html",
          "categorization": "Interactive Content",
          "tool_type": "",
          "meaningful_description": "Tier 2 Intervention skills and concepts: order by length.",
          "display_title": "Tier 2 Interactive:  Measure and Order by Length",
            "component_type": "RtI",
          "standards": "",
          "bigidea": "Big Idea 3",
          "component": "RtI",
          "dashboardGroup": "Core Resources"
        },
        {
          "id": "9781328790729-00022",
          "card": 15,
          "HMH_ID": "MXSA_NA18E_RI2_G01U08B01S14_0020",
          "media_type": "HTML",
          "parent_resource_id": "",
          "se_facing": false,
          "sort_id": "",
          "relative_url": "/content/hsp/math/mx2018/na/gr1/rti_tier2_9781328787125_/u8/bi1/index.html",
          "categorization": "Interactive Content",
          "tool_type": "",
          "meaningful_description": "Tier 2 Intervention skills and concepts: find the total of two two-digit numbers by grouping and adding tens and ones.",
          "display_title": "Tier 2 Interactive:  Add 2-Digit Numbers",
            "component_type": "RtI",
          "standards": "",
          "bigidea": "Big Idea 1",
          "component": "RtI",
          "dashboardGroup": "Core Resources"
        },
        
    {
          "id": "9781328467249-00001",
          "card": 15,
          "HMH_ID": "MXSA_NA18E_RI3_G01U01B01S14_0001",
          "media_type": "PDF",
          "parent_resource_id": "",
          "se_facing": false,
          "sort_id": "",
          "relative_url": "/content/hsp/math/mx2018/na_ncc/gr1/rti_interactive_tier3_9781328467249_/1_MNLEAN467249_U1B1A1.pdf#page=1",
          "categorization": "Study Aids and Workbooks",
          "tool_type": "",
          "meaningful_description": "During this activity, the student recognizes numbers 6 through 10 as a group of 5 and extra ones.",
          "display_title": "Tier 3:  Numbers Through 10 – Activity 1",
           "component_type": "RtI",
          "standards": "",
          "bigidea": "Big Idea 1",
          "component": "RtI",
          "dashboardGroup": "Core Resources"
        },
        {
          "id": "9781328467249-00002",
          "card": 15,
          "HMH_ID": "MXSA_NA18E_RI3_G01U01B01S14_0002",
          "media_type": "PDF",
          "parent_resource_id": "",
          "se_facing": false,
          "sort_id": "",
          "relative_url": "/content/hsp/math/mx2018/na_ncc/gr1/rti_interactive_tier3_9781328467249_/1_MNLEAN467249_U1B1A1.pdf#page=2",
          "categorization": "Study Aids and Workbooks",
          "tool_type": "",
          "meaningful_description": "During this activity, the student sees numbers 6 through 10 as 5 groups and extra ones; understands the 1 more and 1 less relationship of sequential numbers.",
          "display_title": "Tier 3:  Numbers Through 10 – Activity 2",
           "component_type": "RtI",
          "standards": "",
          "bigidea": "Big Idea 1",
          "component": "RtI",
          "dashboardGroup": "Core Resources"
        },
        {
          "id": "9781328467249-00003",
          "card": 15,
          "HMH_ID": "MXSA_NA18E_RI3_G01U01B02S14_0003",
          "media_type": "PDF",
          "parent_resource_id": "",
          "se_facing": false,
          "sort_id": "",
          "relative_url": "/content/hsp/math/mx2018/na_ncc/gr1/rti_interactive_tier3_9781328467249_/1_MNLEAN467249_U1B2A1.pdf#page=1",
          "categorization": "Study Aids and Workbooks",
          "tool_type": "",
          "meaningful_description": "During this activity, the student will identify partners of numbers up to 10.",
          "display_title": "Tier 3:  Patterns with Partners Through 10 – Activity 1",
           "component_type": "RtI",
          "standards": "",
          "bigidea": "Big Idea 2",
          "component": "RtI",
          "dashboardGroup": "Core Resources"
        },
        {
          "id": "9781328467249-00004",
          "card": 15,
          "HMH_ID": "MXSA_NA18E_RI3_G01U01B02S14_0004",
          "media_type": "PDF",
          "parent_resource_id": "",
          "se_facing": false,
          "sort_id": "",
          "relative_url": "/content/hsp/math/mx2018/na_ncc/gr1/rti_interactive_tier3_9781328467249_/1_MNLEAN467249_U1B2A1.pdf#page=2",
          "categorization": "Study Aids and Workbooks",
          "tool_type": "",
          "meaningful_description": "During this activity, the student will identify unknown partner of 6, 7, 8, and 9 if one partner number is known.",
          "display_title": "Tier 3:  Patterns with Partners Through 10 – Activity 2",
           "component_type": "RtI",
          "standards": "",
          "bigidea": "Big Idea 2",
          "component": "RtI",
          "dashboardGroup": "Core Resources"
        },
        {
          "id": "9781328467249-00005",
          "card": 15,
          "HMH_ID": "MXSA_NA18E_RI3_G01U01B03S14_0005",
          "media_type": "PDF",
          "parent_resource_id": "",
          "se_facing": false,
          "sort_id": "",
          "relative_url": "/content/hsp/math/mx2018/na_ncc/gr1/rti_interactive_tier3_9781328467249_/1_MNLEAN467249_U1B3A1.pdf#page=1",
          "categorization": "Study Aids and Workbooks",
          "tool_type": "",
          "meaningful_description": "During this activity, the student will identify and extend repeating patterns.",
          "display_title": "Tier 3:  Find and Create Patterns – Activity 1",
           "component_type": "RtI",
          "standards": "",
          "bigidea": "Big Idea 3",
          "component": "RtI",
          "dashboardGroup": "Core Resources"
        },
        {
          "id": "9781328467249-00006",
          "card": 15,
          "HMH_ID": "MXSA_NA18E_RI3_G01U01B03S14_0006",
          "media_type": "PDF",
          "parent_resource_id": "",
          "se_facing": false,
          "sort_id": "",
          "relative_url": "/content/hsp/math/mx2018/na_ncc/gr1/rti_interactive_tier3_9781328467249_/1_MNLEAN467249_U1B3A1.pdf#page=2",
          "categorization": "Study Aids and Workbooks",
          "tool_type": "",
          "meaningful_description": "During this activity, the student will identify and extend growing and shrinking patterns.",
          "display_title": "Tier 3:  Find and Create Patterns – Activity 2",
           "component_type": "RtI",
          "standards": "",
          "bigidea": "Big Idea 3",
          "component": "RtI",
          "dashboardGroup": "Core Resources"
        },
        {
          "id": "9781328467249-00007",
          "card": 15,
          "HMH_ID": "MXSA_NA18E_RI3_G01U02B01S14_0007",
          "media_type": "PDF",
          "parent_resource_id": "",
          "se_facing": false,
          "sort_id": "",
          "relative_url": "/content/hsp/math/mx2018/na_ncc/gr1/rti_interactive_tier3_9781328467249_/1_MNLEAN467249_U2B1A1.pdf#page=1",
          "categorization": "Study Aids and Workbooks",
          "tool_type": "",
          "meaningful_description": "During this activity, the student will use representations to show equalities with partners and totals.",
          "display_title": "Tier 3:  Represent Addition Situations – Activity 1",
           "component_type": "RtI",
          "standards": "",
          "bigidea": "Big Idea 1",
          "component": "RtI",
          "dashboardGroup": "Core Resources"
        },
        {
          "id": "9781328467249-00008",
          "card": 15,
          "HMH_ID": "MXSA_NA18E_RI3_G01U02B01S14_0008",
          "media_type": "PDF",
          "parent_resource_id": "",
          "se_facing": false,
          "sort_id": "",
          "relative_url": "/content/hsp/math/mx2018/na_ncc/gr1/rti_interactive_tier3_9781328467249_/1_MNLEAN467249_U2B1A1.pdf#page=2",
          "categorization": "Study Aids and Workbooks",
          "tool_type": "",
          "meaningful_description": "During this activity, the student will draw pictures to represent addition story problems.",
          "display_title": "Tier 3:  Represent Addition Situations – Activity 2",
           "component_type": "RtI",
          "standards": "",
          "bigidea": "Big Idea 1",
          "component": "RtI",
          "dashboardGroup": "Core Resources"
        },
        {
          "id": "9781328467249-00009",
          "card": 15,
          "HMH_ID": "MXSA_NA18E_RI3_G01U02B02S14_0009",
          "media_type": "PDF",
          "parent_resource_id": "",
          "se_facing": false,
          "sort_id": "",
          "relative_url": "/content/hsp/math/mx2018/na_ncc/gr1/rti_interactive_tier3_9781328467249_/1_MNLEAN467249_U2B2A1.pdf#page=1",
          "categorization": "Study Aids and Workbooks",
          "tool_type": "",
          "meaningful_description": "During this activity, the student will count on to find a total.",
          "display_title": "Tier 3:  Solve Addition Equations – Activity 1",
           "component_type": "RtI",
          "standards": "",
          "bigidea": "Big Idea 2",
          "component": "RtI",
          "dashboardGroup": "Core Resources"
        },
        {
          "id": "9781328467249-00010",
          "card": 15,
          "HMH_ID": "MXSA_NA18E_RI3_G01U02B02S14_0010",
          "media_type": "PDF",
          "parent_resource_id": "",
          "se_facing": false,
          "sort_id": "",
          "relative_url": "/content/hsp/math/mx2018/na_ncc/gr1/rti_interactive_tier3_9781328467249_/1_MNLEAN467249_U2B2A1.pdf#page=2",
          "categorization": "Study Aids and Workbooks",
          "tool_type": "",
          "meaningful_description": "During this activity, the student counts on starting with the greater number.",
          "display_title": "Tier 3:  Solve Addition Equations – Activity 2",
           "component_type": "RtI",
          "standards": "",
          "bigidea": "Big Idea 2",
          "component": "RtI",
          "dashboardGroup": "Core Resources"
        },
        {
          "id": "9781328467249-00011",
          "card": 15,
          "HMH_ID": "MXSA_NA18E_RI3_G01U02B03S14_0011",
          "media_type": "PDF",
          "parent_resource_id": "",
          "se_facing": false,
          "sort_id": "",
          "relative_url": "/content/hsp/math/mx2018/na_ncc/gr1/rti_interactive_tier3_9781328467249_/1_MNLEAN467249_U2B3A1.pdf#page=1",
          "categorization": "Study Aids and Workbooks",
          "tool_type": "",
          "meaningful_description": "During this activity, the student will use drawings to solve subtraction problems.",
          "display_title": "Tier 3:  Solve Subtraction Equations – Activity 1",
           "component_type": "RtI",
          "standards": "",
          "bigidea": "Big Idea 3",
          "component": "RtI",
          "dashboardGroup": "Core Resources"
        },
        {
          "id": "9781328467249-00012",
          "card": 15,
          "HMH_ID": "MXSA_NA18E_RI3_G01U02B03S14_0012",
          "media_type": "PDF",
          "parent_resource_id": "",
          "se_facing": false,
          "sort_id": "",
          "relative_url": "/content/hsp/math/mx2018/na_ncc/gr1/rti_interactive_tier3_9781328467249_/1_MNLEAN467249_U2B3A1.pdf#page=2",
          "categorization": "Study Aids and Workbooks",
          "tool_type": "",
          "meaningful_description": "During this activity, the student will solve subtraction problems.",
          "display_title": "Tier 3:  Solve Subtraction Equations – Activity 2",
           "component_type": "RtI",
          "standards": "",
          "bigidea": "Big Idea 3",
          "component": "RtI",
          "dashboardGroup": "Core Resources"
        },
        {
          "id": "9781328467249-00013",
          "card": 15,
          "HMH_ID": "MXSA_NA18E_RI3_G01U02B04S14_0013",
          "media_type": "PDF",
          "parent_resource_id": "",
          "se_facing": false,
          "sort_id": "",
          "relative_url": "/content/hsp/math/mx2018/na_ncc/gr1/rti_interactive_tier3_9781328467249_/1_MNLEAN467249_U2B4A1.pdf#page=1",
          "categorization": "Study Aids and Workbooks",
          "tool_type": "",
          "meaningful_description": "During this activity, the student will understand the relationship between addition and subtraction.",
          "display_title": "Tier 3:  Equation Exploration – Activity 1",
           "component_type": "RtI",
          "standards": "",
          "bigidea": "Big Idea 4",
          "component": "RtI",
          "dashboardGroup": "Core Resources"
        },
        {
          "id": "9781328467249-00014",
          "card": 15,
          "HMH_ID": "MXSA_NA18E_RI3_G01U02B04S14_0014",
          "media_type": "PDF",
          "parent_resource_id": "",
          "se_facing": false,
          "sort_id": "",
          "relative_url": "/content/hsp/math/mx2018/na_ncc/gr1/rti_interactive_tier3_9781328467249_/1_MNLEAN467249_U2B4A1.pdf#page=2",
          "categorization": "Study Aids and Workbooks",
          "tool_type": "",
          "meaningful_description": "During this activity, the student will write and solve subtraction equations using drawings.",
          "display_title": "Tier 3:  Equation Exploration – Activity 2",
           "component_type": "RtI",
          "standards": "",
          "bigidea": "Big Idea 4",
          "component": "RtI",
          "dashboardGroup": "Core Resources"
        },
        {
          "id": "9781328467249-00015",
          "card": 15,
          "HMH_ID": "MXSA_NA18E_RI3_G01U03B01S14_0015",
          "media_type": "PDF",
          "parent_resource_id": "",
          "se_facing": false,
          "sort_id": "",
          "relative_url": "/content/hsp/math/mx2018/na_ncc/gr1/rti_interactive_tier3_9781328467249_/1_MNLEAN467249_U3B1A1.pdf#page=1",
          "categorization": "Study Aids and Workbooks",
          "tool_type": "",
          "meaningful_description": "During this activity, the student will solve story problems with unknown partners.",
          "display_title": "Tier 3:  Counting On with Addition Situations – Activity 1",
           "component_type": "RtI",
          "standards": "",
          "bigidea": "Big Idea 1",
          "component": "RtI",
          "dashboardGroup": "Core Resources"
        },
        {
          "id": "9781328467249-00016",
          "card": 15,
          "HMH_ID": "MXSA_NA18E_RI3_G01U03B01S14_0016",
          "media_type": "PDF",
          "parent_resource_id": "",
          "se_facing": false,
          "sort_id": "",
          "relative_url": "/content/hsp/math/mx2018/na_ncc/gr1/rti_interactive_tier3_9781328467249_/1_MNLEAN467249_U3B1A1.pdf#page=2",
          "categorization": "Study Aids and Workbooks",
          "tool_type": "",
          "meaningful_description": "During this activity, the student will solve story problems with unknown partners.",
          "display_title": "Tier 3:  Counting On with Addition Situations – Activity 2",
           "component_type": "RtI",
          "standards": "",
          "bigidea": "Big Idea 1",
          "component": "RtI",
          "dashboardGroup": "Core Resources"
        },
        {
          "id": "9781328467249-00017",
          "card": 15,
          "HMH_ID": "MXSA_NA18E_RI3_G01U03B02S14_0017",
          "media_type": "PDF",
          "parent_resource_id": "",
          "se_facing": false,
          "sort_id": "",
          "relative_url": "/content/hsp/math/mx2018/na_ncc/gr1/rti_interactive_tier3_9781328467249_/1_MNLEAN467249_U3B2A1.pdf#page=1",
          "categorization": "Study Aids and Workbooks",
          "tool_type": "",
          "meaningful_description": "During this activity, the student will model a subtraction story three ways: with a Math Mountain, as a subtraction equation, and as an addition equation with an unknown partner.",
          "display_title": "Tier 3:  Counting On with Subtraction Situations – Activity 1",
           "component_type": "RtI",
          "standards": "",
          "bigidea": "Big Idea 2",
          "component": "RtI",
          "dashboardGroup": "Core Resources"
        },
        {
          "id": "9781328467249-00018",
          "card": 15,
          "HMH_ID": "MXSA_NA18E_RI3_G01U03B02S14_0018",
          "media_type": "PDF",
          "parent_resource_id": "",
          "se_facing": false,
          "sort_id": "",
          "relative_url": "/content/hsp/math/mx2018/na_ncc/gr1/rti_interactive_tier3_9781328467249_/1_MNLEAN467249_U3B2A1.pdf#page=2",
          "categorization": "Study Aids and Workbooks",
          "tool_type": "",
          "meaningful_description": "During this activity, the student uses the properties of addition and subtraction to solve problems.",
          "display_title": "Tier 3:  Counting On with Subtraction Situations – Activity 2",
           "component_type": "RtI",
          "standards": "",
          "bigidea": "Big Idea 2",
          "component": "RtI",
          "dashboardGroup": "Core Resources"
        },
        {
          "id": "9781328467249-00019",
          "card": 15,
          "HMH_ID": "MXSA_NA18E_RI3_G01U03B03S14_0019",
          "media_type": "PDF",
          "parent_resource_id": "",
          "se_facing": false,
          "sort_id": "",
          "relative_url": "/content/hsp/math/mx2018/na_ncc/gr1/rti_interactive_tier3_9781328467249_/1_MNLEAN467249_U3B3A1.pdf#page=1",
          "categorization": "Study Aids and Workbooks",
          "tool_type": "",
          "meaningful_description": "During this activity, the student will solve addition and subtraction story problems.",
          "display_title": "Tier 3:  Mixed Story Problems – Activity 1",
           "component_type": "RtI",
          "standards": "",
          "bigidea": "Big Idea 3",
          "component": "RtI",
          "dashboardGroup": "Core Resources"
        },
        {
          "id": "9781328467249-00020",
          "card": 15,
          "HMH_ID": "MXSA_NA18E_RI3_G01U03B03S14_0020",
          "media_type": "PDF",
          "parent_resource_id": "",
          "se_facing": false,
          "sort_id": "",
          "relative_url": "/content/hsp/math/mx2018/na_ncc/gr1/rti_interactive_tier3_9781328467249_/1_MNLEAN467249_U3B3A1.pdf#page=2",
          "categorization": "Study Aids and Workbooks",
          "tool_type": "",
          "meaningful_description": "During this activity, the student writes, illustrates, and solves a subtraction problem.",
          "display_title": "Tier 3:  Mixed Story Problems – Activity 2",
           "component_type": "RtI",
          "standards": "",
          "bigidea": "Big Idea 3",
          "component": "RtI",
          "dashboardGroup": "Core Resources"
        },
        {
          "id": "9781328467249-00021",
          "card": 15,
          "HMH_ID": "MXSA_NA18E_RI3_G01U04B01S14_0021",
          "media_type": "PDF",
          "parent_resource_id": "",
          "se_facing": false,
          "sort_id": "",
          "relative_url": "/content/hsp/math/mx2018/na_ncc/gr1/rti_interactive_tier3_9781328467249_/1_MNLEAN467249_U4B1A1.pdf#page=1",
          "categorization": "Study Aids and Workbooks",
          "tool_type": "",
          "meaningful_description": "During this activity, the student will recognize decade numbers represented by groups of 10 and write those decade numbers.",
          "display_title": "Tier 3:  Tens and Teens – Activity 1",
           "component_type": "RtI",
          "standards": "",
          "bigidea": "Big Idea 1",
          "component": "RtI",
          "dashboardGroup": "Core Resources"
        },
        {
          "id": "9781328467249-00022",
          "card": 15,
          "HMH_ID": "MXSA_NA18E_RI3_G01U04B01S14_0022",
          "media_type": "PDF",
          "parent_resource_id": "",
          "se_facing": false,
          "sort_id": "",
          "relative_url": "/content/hsp/math/mx2018/na_ncc/gr1/rti_interactive_tier3_9781328467249_/1_MNLEAN467249_U4B1A1.pdf#page=2",
          "categorization": "Study Aids and Workbooks",
          "tool_type": "",
          "meaningful_description": "During this activity, the student will add 10 to a decade number.",
          "display_title": "Tier 3:  Tens and Teens – Activity 2",
           "component_type": "RtI",
          "standards": "",
          "bigidea": "Big Idea 1",
          "component": "RtI",
          "dashboardGroup": "Core Resources"
        },
        {
          "id": "9781328467249-00023",
          "card": 15,
          "HMH_ID": "MXSA_NA18E_RI3_G01U04B02S14_0023",
          "media_type": "PDF",
          "parent_resource_id": "",
          "se_facing": false,
          "sort_id": "",
          "relative_url": "/content/hsp/math/mx2018/na_ncc/gr1/rti_interactive_tier3_9781328467249_/1_MNLEAN467249_U4B2A1.pdf#page=1",
          "categorization": "Study Aids and Workbooks",
          "tool_type": "",
          "meaningful_description": "During this activity, the student will represent a two-digit number using 10-Sticks and circles on a dot array as well as with Secret Code Cards.",
          "display_title": "Tier 3:  Place Value to 100 – Activity 1",
           "component_type": "RtI",
          "standards": "",
          "bigidea": "Big Idea 2",
          "component": "RtI",
          "dashboardGroup": "Core Resources"
        },
        {
          "id": "9781328467249-00024",
          "card": 15,
          "HMH_ID": "MXSA_NA18E_RI3_G01U04B02S14_0024",
          "media_type": "PDF",
          "parent_resource_id": "",
          "se_facing": false,
          "sort_id": "",
          "relative_url": "/content/hsp/math/mx2018/na_ncc/gr1/rti_interactive_tier3_9781328467249_/1_MNLEAN467249_U4B2A1.pdf#page=2",
          "categorization": "Study Aids and Workbooks",
          "tool_type": "",
          "meaningful_description": "During this activity, the student will use two models to represent the tens and ones in a two-digit number.",
          "display_title": "Tier 3:  Place Value to 100 – Activity 2",
           "component_type": "RtI",
          "standards": "",
          "bigidea": "Big Idea 2",
          "component": "RtI",
          "dashboardGroup": "Core Resources"
        },
        {
          "id": "9781328467249-00025",
          "card": 15,
          "HMH_ID": "MXSA_NA18E_RI3_G01U04B03S14_0025",
          "media_type": "PDF",
          "parent_resource_id": "",
          "se_facing": false,
          "sort_id": "",
          "relative_url": "/content/hsp/math/mx2018/na_ncc/gr1/rti_interactive_tier3_9781328467249_/1_MNLEAN467249_U4B3A1.pdf#page=1",
          "categorization": "Study Aids and Workbooks",
          "tool_type": "",
          "meaningful_description": "During this activity, the student applies knowledge of adding ones to adding tens.",
          "display_title": "Tier 3:  Addition Strategies – Activity 1",
           "component_type": "RtI",
          "standards": "",
          "bigidea": "Big Idea 3",
          "component": "RtI",
          "dashboardGroup": "Core Resources"
        },
        {
          "id": "9781328467249-00026",
          "card": 15,
          "HMH_ID": "MXSA_NA18E_RI3_G01U04B03S14_0026",
          "media_type": "PDF",
          "parent_resource_id": "",
          "se_facing": false,
          "sort_id": "",
          "relative_url": "/content/hsp/math/mx2018/na_ncc/gr1/rti_interactive_tier3_9781328467249_/1_MNLEAN467249_U4B3A1.pdf#page=2",
          "categorization": "Study Aids and Workbooks",
          "tool_type": "",
          "meaningful_description": "During this activity, the student uses a model to add numbers greater than 10.",
          "display_title": "Tier 3:  Addition Strategies – Activity 2",
           "component_type": "RtI",
          "standards": "",
          "bigidea": "Big Idea 3",
          "component": "RtI",
          "dashboardGroup": "Core Resources"
        },
        {
          "id": "9781328467249-00027",
          "card": 15,
          "HMH_ID": "MXSA_NA18E_RI3_G01U04B04S14_0027",
          "media_type": "PDF",
          "parent_resource_id": "",
          "se_facing": false,
          "sort_id": "",
          "relative_url": "/content/hsp/math/mx2018/na_ncc/gr1/rti_interactive_tier3_9781328467249_/1_MNLEAN467249_U4B4A1.pdf#page=1",
          "categorization": "Study Aids and Workbooks",
          "tool_type": "",
          "meaningful_description": "During this activity, the student will find equivalent values between coins.",
          "display_title": "Tier 3:  Understand Money – Activity 1",
           "component_type": "RtI",
          "standards": "",
          "bigidea": "Big Idea 4",
          "component": "RtI",
          "dashboardGroup": "Core Resources"
        },
        {
          "id": "9781328467249-00028",
          "card": 15,
          "HMH_ID": "MXSA_NA18E_RI3_G01U04B04S14_0028",
          "media_type": "PDF",
          "parent_resource_id": "",
          "se_facing": false,
          "sort_id": "",
          "relative_url": "/content/hsp/math/mx2018/na_ncc/gr1/rti_interactive_tier3_9781328467249_/1_MNLEAN467249_U4B4A1.pdf#page=2",
          "categorization": "Study Aids and Workbooks",
          "tool_type": "",
          "meaningful_description": "During this activity, the student will solve addition problems using coins.",
          "display_title": "Tier 3:  Understand Money – Activity 2",
           "component_type": "RtI",
          "standards": "",
          "bigidea": "Big Idea 4",
          "component": "RtI",
          "dashboardGroup": "Core Resources"
        },
        {
          "id": "9781328467249-00029",
          "card": 15,
          "HMH_ID": "MXSA_NA18E_RI3_G01U05B01S14_0029",
          "media_type": "PDF",
          "parent_resource_id": "",
          "se_facing": false,
          "sort_id": "",
          "relative_url": "/content/hsp/math/mx2018/na_ncc/gr1/rti_interactive_tier3_9781328467249_/1_MNLEAN467249_U5B1A1.pdf#page=1",
          "categorization": "Study Aids and Workbooks",
          "tool_type": "",
          "meaningful_description": "During this activity, the student uses the Make-a-Ten strategy to find teen sums and unknown partners in teen totals.",
          "display_title": "Tier 3:  Teen Solution Methods – Activity 1",
           "component_type": "RtI",
          "standards": "",
          "bigidea": "Big Idea 1",
          "component": "RtI",
          "dashboardGroup": "Core Resources"
        },
        {
          "id": "9781328467249-00030",
          "card": 15,
          "HMH_ID": "MXSA_NA18E_RI3_G01U05B01S14_0030",
          "media_type": "PDF",
          "parent_resource_id": "",
          "se_facing": false,
          "sort_id": "",
          "relative_url": "/content/hsp/math/mx2018/na_ncc/gr1/rti_interactive_tier3_9781328467249_/1_MNLEAN467249_U5B1A1.pdf#page=2",
          "categorization": "Study Aids and Workbooks",
          "tool_type": "",
          "meaningful_description": "During this activity, the student solves addition story problems within 20.",
          "display_title": "Tier 3:  Teen Solution Methods – Activity 2",
           "component_type": "RtI",
          "standards": "",
          "bigidea": "Big Idea 1",
          "component": "RtI",
          "dashboardGroup": "Core Resources"
        },
        {
          "id": "9781328467249-00031",
          "card": 15,
          "HMH_ID": "MXSA_NA18E_RI3_G01U05B02S14_0031",
          "media_type": "PDF",
          "parent_resource_id": "",
          "se_facing": false,
          "sort_id": "",
          "relative_url": "/content/hsp/math/mx2018/na_ncc/gr1/rti_interactive_tier3_9781328467249_/1_MNLEAN467249_U5B2A1.pdf#page=1",
          "categorization": "Study Aids and Workbooks",
          "tool_type": "",
          "meaningful_description": "During this activity, the student uses patterns in the 120 Grid to find 10 more and 10 less than a given number.",
          "display_title": "Tier 3:  Find Patterns and Relationships – Activity 1",
           "component_type": "RtI",
          "standards": "",
          "bigidea": "Big Idea 2",
          "component": "RtI",
          "dashboardGroup": "Core Resources"
        },
        {
          "id": "9781328467249-00032",
          "card": 15,
          "HMH_ID": "MXSA_NA18E_RI3_G01U05B02S14_0032",
          "media_type": "PDF",
          "parent_resource_id": "",
          "se_facing": false,
          "sort_id": "",
          "relative_url": "/content/hsp/math/mx2018/na_ncc/gr1/rti_interactive_tier3_9781328467249_/1_MNLEAN467249_U5B2A1.pdf#page=2",
          "categorization": "Study Aids and Workbooks",
          "tool_type": "",
          "meaningful_description": "During this activity, the student adds tens to any 2-digit number and subtracts tens from decade numbers.",
          "display_title": "Tier 3:  Find Patterns and Relationships – Activity 2",
           "component_type": "RtI",
          "standards": "",
          "bigidea": "Big Idea 2",
          "component": "RtI",
          "dashboardGroup": "Core Resources"
        },
        {
          "id": "9781328467249-00033",
          "card": 15,
          "HMH_ID": "MXSA_NA18E_RI3_G01U06B01S14_0033",
          "media_type": "PDF",
          "parent_resource_id": "",
          "se_facing": false,
          "sort_id": "",
          "relative_url": "/content/hsp/math/mx2018/na_ncc/gr1/rti_interactive_tier3_9781328467249_/1_MNLEAN467249_U6B1A1.pdf#page=1",
          "categorization": "Study Aids and Workbooks",
          "tool_type": "",
          "meaningful_description": "During this activity, the student answers questions using data.",
          "display_title": "Tier 3:  Represent and Compare Data – Activity 1",
           "component_type": "RtI",
          "standards": "",
          "bigidea": "Big Idea 1",
          "component": "RtI",
          "dashboardGroup": "Core Resources"
        },
        {
          "id": "9781328467249-00034",
          "card": 15,
          "HMH_ID": "MXSA_NA18E_RI3_G01U06B01S14_0034",
          "media_type": "PDF",
          "parent_resource_id": "",
          "se_facing": false,
          "sort_id": "",
          "relative_url": "/content/hsp/math/mx2018/na_ncc/gr1/rti_interactive_tier3_9781328467249_/1_MNLEAN467249_U6B1A1.pdf#page=2",
          "categorization": "Study Aids and Workbooks",
          "tool_type": "",
          "meaningful_description": "During this activity, the student will organize, represent, and interpret data with three categories.",
          "display_title": "Tier 3:  Represent and Compare Data – Activity 2",
           "component_type": "RtI",
          "standards": "",
          "bigidea": "Big Idea 1",
          "component": "RtI",
          "dashboardGroup": "Core Resources"
        },
        {
          "id": "9781328467249-00035",
          "card": 15,
          "HMH_ID": "MXSA_NA18E_RI3_G01U06B02S14_0035",
          "media_type": "PDF",
          "parent_resource_id": "",
          "se_facing": false,
          "sort_id": "",
          "relative_url": "/content/hsp/math/mx2018/na_ncc/gr1/rti_interactive_tier3_9781328467249_/1_MNLEAN467249_U6B2A1.pdf#page=1",
          "categorization": "Study Aids and Workbooks",
          "tool_type": "",
          "meaningful_description": "During this activity, the student uses comparison bars to solve a total unknown story problem.",
          "display_title": "Tier 3:  Compare Problem Types – Activity 1",
           "component_type": "RtI",
          "standards": "",
          "bigidea": "Big Idea 2",
          "component": "RtI",
          "dashboardGroup": "Core Resources"
        },
        {
          "id": "9781328467249-00036",
          "card": 15,
          "HMH_ID": "MXSA_NA18E_RI3_G01U06B02S14_0036",
          "media_type": "PDF",
          "parent_resource_id": "",
          "se_facing": false,
          "sort_id": "",
          "relative_url": "/content/hsp/math/mx2018/na_ncc/gr1/rti_interactive_tier3_9781328467249_/1_MNLEAN467249_U6B2A1.pdf#page=2",
          "categorization": "Study Aids and Workbooks",
          "tool_type": "",
          "meaningful_description": "During this activity, the student uses comparison bars to solve a difference unknown story problem.",
          "display_title": "Tier 3:  Compare Problem Types – Activity 2",
           "component_type": "RtI",
          "standards": "",
          "bigidea": "Big Idea 2",
          "component": "RtI",
          "dashboardGroup": "Core Resources"
        },
        {
          "id": "9781328467249-00037",
          "card": 15,
          "HMH_ID": "MXSA_NA18E_RI3_G01U07B01S14_0037",
          "media_type": "PDF",
          "parent_resource_id": "",
          "se_facing": false,
          "sort_id": "",
          "relative_url": "/content/hsp/math/mx2018/na_ncc/gr1/rti_interactive_tier3_9781328467249_/1_MNLEAN467249_U7B1A1.pdf#page=1",
          "categorization": "Study Aids and Workbooks",
          "tool_type": "",
          "meaningful_description": "During this activity, the student will move the hands of an analog clock to show time to the hour.",
          "display_title": "Tier 3:  Tell and Write Time – Activity 1",
           "component_type": "RtI",
          "standards": "",
          "bigidea": "Big Idea 1",
          "component": "RtI",
          "dashboardGroup": "Core Resources"
        },
        {
          "id": "9781328467249-00038",
          "card": 15,
          "HMH_ID": "MXSA_NA18E_RI3_G01U07B01S14_0038",
          "media_type": "PDF",
          "parent_resource_id": "",
          "se_facing": false,
          "sort_id": "",
          "relative_url": "/content/hsp/math/mx2018/na_ncc/gr1/rti_interactive_tier3_9781328467249_/1_MNLEAN467249_U7B1A1.pdf#page=2",
          "categorization": "Study Aids and Workbooks",
          "tool_type": "",
          "meaningful_description": "During this activity, the student, given a blank analog clock, will fill in the numbers and draw the hands to match a digital clock.",
          "display_title": "Tier 3:  Tell and Write Time – Activity 2",
           "component_type": "RtI",
          "standards": "",
          "bigidea": "Big Idea 1",
          "component": "RtI",
          "dashboardGroup": "Core Resources"
        },
        {
          "id": "9781328467249-00039",
          "card": 15,
          "HMH_ID": "MXSA_NA18E_RI3_G01U07B02S14_0039",
          "media_type": "PDF",
          "parent_resource_id": "",
          "se_facing": false,
          "sort_id": "",
          "relative_url": "/content/hsp/math/mx2018/na_ncc/gr1/rti_interactive_tier3_9781328467249_/1_MNLEAN467249_U7B2A1.pdf#page=1",
          "categorization": "Study Aids and Workbooks",
          "tool_type": "",
          "meaningful_description": "During this activity, the student will draw specific shapes when given their attributes.",
          "display_title": "Tier 3:  Shapes and Equal Shares – Activity 1",
           "component_type": "RtI",
          "standards": "",
          "bigidea": "Big Idea 2",
          "component": "RtI",
          "dashboardGroup": "Core Resources"
        },
        {
          "id": "9781328467249-00040",
          "card": 15,
          "HMH_ID": "MXSA_NA18E_RI3_G01U07B02S14_0040",
          "media_type": "PDF",
          "parent_resource_id": "",
          "se_facing": false,
          "sort_id": "",
          "relative_url": "/content/hsp/math/mx2018/na_ncc/gr1/rti_interactive_tier3_9781328467249_/1_MNLEAN467249_U7B2A1.pdf#page=2",
          "categorization": "Study Aids and Workbooks",
          "tool_type": "",
          "meaningful_description": "During this activity, the student will partition circles and squares into two and four equal shares.",
          "display_title": "Tier 3:  Shapes and Equal Shares – Activity 2",
           "component_type": "RtI",
          "standards": "",
          "bigidea": "Big Idea 2",
          "component": "RtI",
          "dashboardGroup": "Core Resources"
        },
        {
          "id": "9781328467249-00041",
          "card": 15,
          "HMH_ID": "MXSA_NA18E_RI3_G01U07B03S14_0041",
          "media_type": "PDF",
          "parent_resource_id": "",
          "se_facing": false,
          "sort_id": "",
          "relative_url": "/content/hsp/math/mx2018/na_ncc/gr1/rti_interactive_tier3_9781328467249_/1_MNLEAN467249_U7B3A1.pdf#page=1",
          "categorization": "Study Aids and Workbooks",
          "tool_type": "",
          "meaningful_description": "During this activity, the student will order 3 objects by length.",
          "display_title": "Tier 3:  Measure and Order by Length – Activity 1",
           "component_type": "RtI",
          "standards": "",
          "bigidea": "Big Idea 3",
          "component": "RtI",
          "dashboardGroup": "Core Resources"
        },
        {
          "id": "9781328467249-00042",
          "card": 15,
          "HMH_ID": "MXSA_NA18E_RI3_G01U07B03S14_0042",
          "media_type": "PDF",
          "parent_resource_id": "",
          "se_facing": false,
          "sort_id": "",
          "relative_url": "/content/hsp/math/mx2018/na_ncc/gr1/rti_interactive_tier3_9781328467249_/1_MNLEAN467249_U7B3A1.pdf#page=2",
          "categorization": "Study Aids and Workbooks",
          "tool_type": "",
          "meaningful_description": "During this activity, the student will measure an object's length and express length as a whole number of length units.",
          "display_title": "Tier 3:  Measure and Order by Length – Activity 2",
           "component_type": "RtI",
          "standards": "",
          "bigidea": "Big Idea 3",
          "component": "RtI",
          "dashboardGroup": "Core Resources"
        },
        {
          "id": "9781328467249-00043",
          "card": 15,
          "HMH_ID": "MXSA_NA18E_RI3_G01U08B01S14_0043",
          "media_type": "PDF",
          "parent_resource_id": "",
          "se_facing": false,
          "sort_id": "",
          "relative_url": "/content/hsp/math/mx2018/na_ncc/gr1/rti_interactive_tier3_9781328467249_/1_MNLEAN467249_U8B1A1.pdf#page=1",
          "categorization": "Study Aids and Workbooks",
          "tool_type": "",
          "meaningful_description": "During this activity, the student uses stick-and-circle drawings to show addition of 2-digit numbers.",
          "display_title": "Tier 3:  Add 2-Digit Numbers – Activity 1",
           "component_type": "RtI",
          "standards": "",
          "bigidea": "Big Idea 1",
          "component": "RtI",
          "dashboardGroup": "Core Resources"
        },
        {
          "id": "9781328467249-00044",
          "card": 15,
          "HMH_ID": "MXSA_NA18E_RI3_G01U08B01S14_0044",
          "media_type": "PDF",
          "parent_resource_id": "",
          "se_facing": false,
          "sort_id": "",
          "relative_url": "/content/hsp/math/mx2018/na_ncc/gr1/rti_interactive_tier3_9781328467249_/1_MNLEAN467249_U8B1A1.pdf#page=2",
          "categorization": "Study Aids and Workbooks",
          "tool_type": "",
          "meaningful_description": "During this activity, the student will add 2-digit numbers and use a Proof Drawing to show their math thinking.",
          "display_title": "Tier 3:  Add 2-Digit Numbers – Activity 2",
           "component_type": "RtI",
          "standards": "",
          "bigidea": "Big Idea 1",
          "component": "RtI",
          "dashboardGroup": "Core Resources"
        }
      ]
    }
  ],
  "student": []
}