{
  "isbn": "1",
  "program": "1",
  "grade": "1",
  "non_grade_title": "1",
  "programType": "ela",
  "teacher": [
    {
      "component": "Core Resources",
      "libraryItems": [
        {
          "id": "9781328926166-00001",
          "card": 15,
          "HMH_ID": "SANAME18GRA5_FLUC1",
          "media_type": "HTML",
          "parent_resource_id": "MXSA_NA18E_PMT_G05U00L00S16_9999",
          "se_facing": true,
          "sort_id": "",
          "categorization": "Assessments",
          "tool_type": 11,
          "meaningful_description": "Fluency Check 1 supports Unit 2, Big Idea 4: Percents.",
             "display_title": "Fluency Check 1",
           "component_type": "Fluency Check",
          "standards": "5.PVO.5",
          "bigidea": 4,
            "component": "Fluency",
          "dashboardGroup": "Core Resources"
        },
        {
          "id": "9781328926166-00002",
          "card": 15,
          "HMH_ID": "SANAME18GRA5_FLUC2",
          "media_type": "HTML",
          "parent_resource_id": "MXSA_NA18E_PMT_G05U00L00S16_9999",
          "se_facing": true,
          "sort_id": "",
          "categorization": "Assessments",
          "tool_type": 11,
          "meaningful_description": "Fluency Check 2 supports Unit 2, Big Idea 5: Millions to Millionths.",
          "display_title": " Fluency Check 2",
           "component_type": "Fluency Check",
          "standards": "5.PVO.5",
          "bigidea": 5,
            "component": "Fluency",
          "dashboardGroup": "Core Resources"
        },
        {
          "id": "9781328926166-00003",
          "card": 15,
          "HMH_ID": "SANAME18GRA5_FLUC3",
          "media_type": "HTML",
          "parent_resource_id": "MXSA_NA18E_PMT_G05U00L00S16_9999",
          "se_facing": true,
          "sort_id": "",
          "categorization": "Assessments",
          "tool_type": 11,
          "meaningful_description": "Fluency Check 3 supports Unit 4, Big Idea 1: Multiplication with Whole Numbers.",
         "display_title": " Fluency Check 3",
           "component_type": "Fluency Check",
          "standards": "5.PVO.5",
          "bigidea": 1,
            "component": "Fluency",
          "dashboardGroup": "Core Resources"
        },
        {
          "id": "9781328926166-00004",
          "card": 15,
          "HMH_ID": "SANAME18GRA5_FLUC4",
          "media_type": "HTML",
          "parent_resource_id": "MXSA_NA18E_PMT_G05U00L00S16_9999",
          "se_facing": true,
          "sort_id": "",
          "categorization": "Assessments",
          "tool_type": 11,
          "meaningful_description": "Fluency Check 4 supports Unit 4, Big Idea 2: Multiplication with Decimal Numbers.",
         "display_title": " Fluency Check 4",
           "component_type": "Fluency Check",
          "standards": "5.PVO.5",
          "bigidea": 2,
            "component": "Fluency",
          "dashboardGroup": "Core Resources"
        },
        {
          "id": "9781328926166-00005",
          "card": 15,
          "HMH_ID": "SANAME18GRA5_FLUC5",
          "media_type": "HTML",
          "parent_resource_id": "MXSA_NA18E_PMT_G05U00L00S16_9999",
          "se_facing": true,
          "sort_id": "",
          "categorization": "Assessments",
          "tool_type": 11,
          "meaningful_description": "Fluency Check 5 supports Unit 5, Big Idea 1: Division with Whole Numbers.",
           "display_title": " Fluency Check 5",
           "component_type": "Fluency Check",
          "standards": "5.PVO.5",
          "bigidea": 1,
            "component": "Fluency",
          "dashboardGroup": "Core Resources"
        },
        {
          "id": "9781328926166-00006",
          "card": 15,
          "HMH_ID": "SANAME18GRA5_FLUC6",
          "media_type": "HTML",
          "parent_resource_id": "MXSA_NA18E_PMT_G05U00L00S16_9999",
          "se_facing": true,
          "sort_id": "",
          "categorization": "Assessments",
          "tool_type": 11,
          "meaningful_description": "Fluency Check 6 supports Unit 5, Big Idea 2: Division with Decimal Numbers.",
           "display_title": " Fluency Check 6",
           "component_type": "Fluency Check",
          "standards": "5.PVO.5",
          "bigidea": 2,
            "component": "Fluency",
          "dashboardGroup": "Core Resources"
        },
        {
          "id": "9781328926166-00007",
          "card": 15,
          "HMH_ID": "SANAME18GRA5_FLUC7",
          "media_type": "HTML",
          "parent_resource_id": "MXSA_NA18E_PMT_G05U00L00S16_9999",
          "se_facing": true,
          "sort_id": "",
          "categorization": "Assessments",
          "tool_type": 11,
          "meaningful_description": "Fluency Check 7 supports Unit 6, Big Idea 1: Equations and Problem Solving.",
          "display_title": " Fluency Check 7",
           "component_type": "Fluency Check",
          "standards": "5.PVO.5",
          "bigidea": 1,
            "component": "Fluency",
          "dashboardGroup": "Core Resources"
        },
        {
          "id": "9781328926166-00008",
          "card": 15,
          "HMH_ID": "SANAME18GRA5_FLUC8",
          "media_type": "HTML",
          "parent_resource_id": "MXSA_NA18E_PMT_G05U00L00S16_9999",
          "se_facing": true,
          "sort_id": "",
          "categorization": "Assessments",
          "tool_type": 11,
          "meaningful_description": "Fluency Check 8 supports Unit 6, Big Idea 2: Comparison Word Problems.",
           "display_title": "Fluency Check 8",
           "component_type": "Fluency Check",
          "standards": "5.PVO.5",
          "bigidea": 2,
            "component": "Fluency",
          "dashboardGroup": "Core Resources"
        },
        {
          "id": "9781328926166-00009",
          "card": 15,
          "HMH_ID": "SANAME18GRA5_FLUC9",
          "media_type": "HTML",
          "parent_resource_id": "MXSA_NA18E_PMT_G05U00L00S16_9999",
          "se_facing": true,
          "sort_id": "",
          "categorization": "Assessments",
          "tool_type": 11,
          "meaningful_description": "Fluency Check 9 supports Unit 6, Big Idea 3: Problems with More Than One Step.",
          "display_title": " Fluency Check 9",
           "component_type": "Fluency Check",
          "standards": "5.PVO.5",
          "bigidea": 3,
            "component": "Fluency",
          "dashboardGroup": "Core Resources"
        },
        {
          "id": "9781328926166-00010",
          "card": 15,
          "HMH_ID": "SANAME18GRA5_FLUC10",
          "media_type": "HTML",
          "parent_resource_id": "MXSA_NA18E_PMT_G05U00L00S16_9999",
          "se_facing": true,
          "sort_id": "",
          "categorization": "Assessments",
          "tool_type": 11,
          "meaningful_description": "Fluency Check 10 supports Unit 7, Big Idea 1: Algebraic Reasoning and Expressions.",
         "display_title": " Fluency Check 10",
           "component_type": "Fluency Check",
          "standards": "5.PVO.5",
          "bigidea": 1,
            "component": "Fluency",
          "dashboardGroup": "Core Resources"
        },
        {
          "id": "9781328926166-00011",
          "card": 15,
          "HMH_ID": "SANAME18GRA5_FLUC11",
          "media_type": "HTML",
          "parent_resource_id": "MXSA_NA18E_PMT_G05U00L00S16_9999",
          "se_facing": true,
          "sort_id": "",
          "categorization": "Assessments",
          "tool_type": 11,
          "meaningful_description": "Fluency Check 11 supports Unit 7, Big Idea 2: Patterns and Graphs.",
           "display_title": "Fluency Check 11",
           "component_type": "Fluency Check",
          "standards": "5.PVO.5",
          "bigidea": 2,
            "component": "Fluency",
          "dashboardGroup": "Core Resources"
        },
        {
          "id": "9781328926166-00012",
          "card": 15,
          "HMH_ID": "SANAME18GRA5_FLUC12",
          "media_type": "HTML",
          "parent_resource_id": "MXSA_NA18E_PMT_G05U00L00S16_9999",
          "se_facing": true,
          "sort_id": "",
          "categorization": "Assessments",
          "tool_type": 11,
          "meaningful_description": "Fluency Check 12 supports Unit 8, Big Idea 1: Length, Area, and Volume.",
           "display_title": " Fluency Check 12",
           "component_type": "Fluency Check",
          "standards": "5.PVO.5",
          "bigidea": 1,
            "component": "Fluency",
          "dashboardGroup": "Core Resources"
        },
        {
          "id": "9781328926166-00013",
          "card": 15,
          "HMH_ID": "SANAME18GRA5_FLUC13",
          "media_type": "HTML",
          "parent_resource_id": "MXSA_NA18E_PMT_G05U00L00S16_9999",
          "se_facing": true,
          "sort_id": "",
          "categorization": "Assessments",
          "tool_type": 11,
          "meaningful_description": "Fluency Check 13 supports Unit 8, Big Idea 2: Liquid Volume, Mass, and Weight.",
           "display_title": "Fluency Check 13",
           "component_type": "Fluency Check",
          "standards": "5.PVO.5",
          "bigidea": 2,
            "component": "Fluency",
          "dashboardGroup": "Core Resources"
        },
        {
          "id": "9781328926166-00014",
          "card": 15,
          "HMH_ID": "SANAME18GRA5_FLUC14",
          "media_type": "HTML",
          "parent_resource_id": "MXSA_NA18E_PMT_G05U00L00S16_9999",
          "se_facing": true,
          "sort_id": "",
          "categorization": "Assessments",
          "tool_type": 11,
          "meaningful_description": "Fluency Check 14 supports Unit 8, Big Idea 3: Attributes of Two-Dimensional Figures.",
          "display_title": "Fluency Check 14",
           "component_type": "Fluency Check",
          "standards": "5.PVO.5",
          "bigidea": 3,
            "component": "Fluency",
          "dashboardGroup": "Core Resources"
        },
        {
          "id": "9781328926166-00015",
          "card": 15,
          "HMH_ID": "SANAME18GRA5_FLUC15",
          "media_type": "HTML",
          "parent_resource_id": "MXSA_NA18E_PMT_G05U00L00S16_9999",
          "se_facing": true,
          "sort_id": "",
          "categorization": "Assessments",
          "tool_type": 11,
          "meaningful_description": "Fluency Check 15 supports Unit 8, Big Idea 4: Perimeter and Area of Other Polygons.",
           "display_title": " Fluency Check 15",
           "component_type": "Fluency Check",
          "standards": "5.PVO.5",
          "bigidea": 4,
            "component": "Fluency",
          "dashboardGroup": "Core Resources"
        },
        {
          "id": "9781328926166-00016",
          "card": 15,
          "HMH_ID": "SANAME18GRA5_FLUC16",
          "media_type": "HTML",
          "parent_resource_id": "MXSA_NA18E_PMT_G05U00L00S16_9999",
          "se_facing": true,
          "sort_id": "",
          "categorization": "Assessments",
          "tool_type": 11,
          "meaningful_description": "Fluency Check 16 supports Unit 8, Big Idea 5: Attributes of Three-Dimensional Figures.",
          "display_title": "Fluency Check 16",
           "component_type": "Fluency Check",
          "standards": "5.PVO.5",
          "bigidea": 5,
            "component": "Fluency",
          "dashboardGroup": "Core Resources"
        },
        {
          "id": "9781328926166-00017",
          "card": 15,
          "HMH_ID": "SANAME18GRA5_FLUPM1",
          "media_type": "HTML",
          "parent_resource_id": "MXSA_NA18E_PMT_G05U00L00S16_9999",
          "se_facing": true,
          "sort_id": "",
          "categorization": "Assessments",
          "tool_type": 11,
          "meaningful_description": "This grade-level fluency builder focuses on multiplication, weighted toward easy.",
          "display_title": " Grade-Level Fluency Builder: Multiplication, Level 1",
           "component_type": "Fluency Check",
          "standards": "5.PVO.5",
          "bigidea": "",
            "component": "Fluency",
          "dashboardGroup": "Core Resources"
        },
        
        {
          "id": "9781328926166-00019",
          "card": 15,
          "HMH_ID": "SANAME18GRA5_FLUPM2",
          "media_type": "HTML",
          "parent_resource_id": "MXSA_NA18E_PMT_G05U00L00S16_9999",
          "se_facing": true,
          "sort_id": "",
          "categorization": "Assessments",
          "tool_type": 11,
          "meaningful_description": "This grade-level fluency builder focuses on multiplication, weighted toward on-level.",
          "display_title": " Grade-Level Fluency Builder: Multiplication, Level 2",
           "component_type": "Fluency Check",
          "standards": "5.PVO.5",
          "bigidea": "",
            "component": "Fluency",
          "dashboardGroup": "Core Resources"
        },
        
        {
          "id": "9781328926166-00021",
          "card": 15,
          "HMH_ID": "SANAME18GRA5_FLUPM3",
          "media_type": "HTML",
          "parent_resource_id": "MXSA_NA18E_PMT_G05U00L00S16_9999",
          "se_facing": true,
          "sort_id": "",
          "categorization": "Assessments",
          "tool_type": 11,
          "meaningful_description": "This grade-level fluency builder focuses on multiplication, weighted toward hard.",
          "display_title": " Grade-Level Fluency Builder: Multiplication, Level 3",
           "component_type": "Fluency Check",
          "standards": "5.PVO.5",
          "bigidea": "",
            "component": "Fluency",
          "dashboardGroup": "Core Resources"
        },
        
        {
          "id": "9781328926166-00023",
          "card": 15,
          "HMH_ID": "SANAME18GRA5_FLUPCD1",
          "media_type": "HTML",
          "parent_resource_id": "MXSA_NA18E_PMT_G05U00L00S16_9999",
          "se_facing": true,
          "sort_id": "",
          "categorization": "Assessments",
          "tool_type": 11,
          "meaningful_description": "This future fluency starter focuses on division, weighted toward easy.",
          "display_title": " Future Fluency Starter: Grade 6 Division, Level 1",
           "component_type": "Fluency Check",
          "standards": "6.WFI.2",
          "bigidea": "",
            "component": "Fluency",
          "dashboardGroup": "Core Resources"
        },
       
        {
          "id": "9781328926166-00025",
          "card": 15,
          "HMH_ID": "SANAME18GRA5_FLUPCD2",
          "media_type": "HTML",
          "parent_resource_id": "MXSA_NA18E_PMT_G05U00L00S16_9999",
          "se_facing": true,
          "sort_id": "",
          "categorization": "Assessments",
          "tool_type": 11,
          "meaningful_description": "This future fluency starter focuses on division, weighted toward harder.",
          "display_title": " Future Fluency Starter: Grade 6 Division, Level 2",
           "component_type": "Fluency Check",
          "standards": "6.WFI.2",
          "bigidea": "",
            "component": "Fluency",
          "dashboardGroup": "Core Resources"
        }
       
       
        
      ]
    }
  ],
  "student": [
    
    {
      "id": "9781328926166-00017",
      "card": 15,
      "HMH_ID": "SANAME18GRA5_FLUPM1",
      "media_type": "HTML",
      "parent_resource_id": "MXSA_NA18E_PMT_G05U00L00S16_9999",
      "se_facing": true,
      "sort_id": "",
      "categorization": "Assessments",
      "tool_type": 11,
      "meaningful_description": "This grade-level fluency builder focuses on multiplication, weighted toward easy.",
       "display_title": " Multiplication- Level 1",
       "component_type": "Fluency Check",
      "standards": "5.PVO.5",
      "bigidea": "",
        "component": "Fluency",
      "dashboardGroup": "Core Resources"
    },
    
    {
      "id": "9781328926166-00019",
      "card": 15,
      "HMH_ID": "SANAME18GRA5_FLUPM2",
      "media_type": "HTML",
      "parent_resource_id": "MXSA_NA18E_PMT_G05U00L00S16_9999",
      "se_facing": true,
      "sort_id": "",
      "categorization": "Assessments",
      "tool_type": 11,
      "meaningful_description": "This grade-level fluency builder focuses on multiplication, weighted toward on-level.",
     "display_title": " Multiplication- Level 2",
       "component_type": "Fluency Check",
      "standards": "5.PVO.5",
      "bigidea": "",
        "component": "Fluency",
      "dashboardGroup": "Core Resources"
    },
   
    {
      "id": "9781328926166-00021",
      "card": 15,
      "HMH_ID": "SANAME18GRA5_FLUPM3",
      "media_type": "HTML",
      "parent_resource_id": "MXSA_NA18E_PMT_G05U00L00S16_9999",
      "se_facing": true,
      "sort_id": "",
      "categorization": "Assessments",
      "tool_type": 11,
      "meaningful_description": "This grade-level fluency builder focuses on multiplication, weighted toward hard.",
      "display_title": " Multiplication- Level 3",
       "component_type": "Fluency Check",
      "standards": "5.PVO.5",
      "bigidea": "",
        "component": "Fluency",
      "dashboardGroup": "Core Resources"
    },
    
    {
      "id": "9781328926166-00023",
      "card": 15,
      "HMH_ID": "SANAME18GRA5_FLUPCD1",
      "media_type": "HTML",
      "parent_resource_id": "MXSA_NA18E_PMT_G05U00L00S16_9999",
      "se_facing": true,
      "sort_id": "",
      "categorization": "Assessments",
      "tool_type": 11,
      "meaningful_description": "This future fluency starter focuses on division, weighted toward easy.",
      "display_title": " Challenge, Division- Level 1",
       "component_type": "Fluency Check",
      "standards": "6.WFI.2",
      "bigidea": "",
        "component": "Fluency",
      "dashboardGroup": "Core Resources"
    },
   
    {
      "id": "9781328926166-00025",
      "card": 15,
      "HMH_ID": "SANAME18GRA5_FLUPCD2",
      "media_type": "HTML",
      "parent_resource_id": "MXSA_NA18E_PMT_G05U00L00S16_9999",
      "se_facing": true,
      "sort_id": "",
      "categorization": "Assessments",
      "tool_type": 11,
      "meaningful_description": "This future fluency starter focuses on division, weighted toward harder.",
        "display_title": " Challenge, Division- Level 2",
       "component_type": "Fluency Check",
      "standards": "6.WFI.2",
      "bigidea": "",
        "component": "Fluency",
      "dashboardGroup": "Core Resources"
    }
    
     
  ]
}