{
  "isbn": "123",
  "program": "1323",
  "grade": "13",
  "non_grade_title": "13",
  "programType": "ela",
  "teacher": [
    {
      "component": "Core Resources",
      "libraryItems": [
        
        {
          "id": "9781328787439-00002",
          "card": 15,
          "HMH_ID": "MXCC_NA18E_GAB_G03U01L00S14_0002",
          "media_type": "PDF",
          "parent_resource_id": "",
          "se_facing": true,
          "sort_id": "",
          "relative_url": "/content/hsp/math/mx2018/na/gr3/game_boards_9781328787439_/0001-DHA-3_MNLEGB738615_U01.pdf",
          "categorization": "Study Aids and Workbooks",
          "tool_type": "",
          "meaningful_description": "During the board game \"Guess My Numbers,\" students will practice multiplication facts between 1 and 9 and to find missing factors.",
            "display_title": "Unit 1: Guess My Numbers",
          "component_type": "Game Boards",
          "standards": "",
          "bigidea": "",
          "component": "Game Boards",
          "dashboardGroup": "Core Resources"
        },
        {
          "id": "9781328787439-00003",
          "card": 15,
          "HMH_ID": "MXCC_NA18E_GAB_G03U02L00S14_0003",
          "media_type": "PDF",
          "parent_resource_id": "",
          "se_facing": true,
          "sort_id": "",
          "relative_url": "/content/hsp/math/mx2018/na/gr3/game_boards_9781328787439_/0001-DHA-3_MNLEGB738615_U02.pdf",
          "categorization": "Study Aids and Workbooks",
          "tool_type": "",
          "meaningful_description": "During the board game \"Division Cover-Up,\" students will practice division facts.",
            "display_title": "Unit 2: Division Cover-Up",
          "component_type": "Game Boards",
          "standards": "",
          "bigidea": "",
          "component": "Game Boards",
          "dashboardGroup": "Core Resources"
        },
        {
          "id": "9781328787439-00004",
          "card": 15,
          "HMH_ID": "MXCC_NA18E_GAB_G03U02L00S14_0004",
          "media_type": "PDF",
          "parent_resource_id": "",
          "se_facing": true,
          "sort_id": "",
          "relative_url": "/content/hsp/math/mx2018/na/gr3/game_boards_9781328787439_/DHA-3_MNLEAN703866_Unit2_BGBLM.pdf",
          "categorization": "Study Aids and Workbooks",
          "tool_type": "",
          "meaningful_description": "The Division Fact Cards blackline master can be used to play the \"Division Cover-Up\" board game.",
            "display_title": "Unit 2: Division Cover-Up - Blackline Master",
          "component_type": "Game Boards",
          "standards": "",
          "bigidea": "",
          "component": "boards-blacklinemaster",
          "dashboardGroup": "Core Resources"
        },
        {
          "id": "9781328787439-00005",
          "card": 15,
          "HMH_ID": "MXCC_NA18E_GAB_G03U03L00S14_0005",
          "media_type": "PDF",
          "parent_resource_id": "",
          "se_facing": true,
          "sort_id": "",
          "relative_url": "/content/hsp/math/mx2018/na/gr3/game_boards_9781328787439_/0001-DHA-3_MNLEGB738615_U03.pdf",
          "categorization": "Study Aids and Workbooks",
          "tool_type": "",
          "meaningful_description": "During the board game \"Auto Addition,\" students will practice 2-digit or 3-digit addition.",
            "display_title": "Unit 3: Auto Addition",
          "component_type": "Game Boards",
          "standards": "",
          "bigidea": "",
          "component": "Game Boards",
          "dashboardGroup": "Core Resources"
        },
        {
          "id": "9781328787439-00006",
          "card": 15,
          "HMH_ID": "MXCC_NA18E_GAB_G03U04L00S14_0006",
          "media_type": "PDF",
          "parent_resource_id": "",
          "se_facing": true,
          "sort_id": "",
          "relative_url": "/content/hsp/math/mx2018/na/gr3/game_boards_9781328787439_/0001-DHA-3_MNLEGB738615_U04.pdf",
          "categorization": "Study Aids and Workbooks",
          "tool_type": "",
          "meaningful_description": "During the board game \"Matching Time,\" students will practice telling time to the minute.",
            "display_title": "Unit 4: Matching Time",
          "component_type": "Game Boards",
          "standards": "",
          "bigidea": "",
          "component": "Game Boards",
          "dashboardGroup": "Core Resources"
        },
        {
          "id": "9781328787439-00007",
          "card": 15,
          "HMH_ID": "MXCC_NA18E_GAB_G03U04L00S14_0007",
          "media_type": "PDF",
          "parent_resource_id": "",
          "se_facing": true,
          "sort_id": "",
          "relative_url": "/content/hsp/math/mx2018/na/gr3/game_boards_9781328787439_/DHA-3_MNLEAN703866_Unit4_BGBLM.pdf",
          "categorization": "Study Aids and Workbooks",
          "tool_type": "",
          "meaningful_description": "The Matching Time Cards blackline master can be used to play the \"Matching Time\" board game.",
            "display_title": "Unit 4: Matching Time - Blackline Master",
          "component_type": "Game Boards",
          "standards": "",
          "bigidea": "",
         "component": "boards-blacklinemaster",
          "dashboardGroup": "Core Resources"
        },
        {
          "id": "9781328787439-00008",
          "card": 15,
          "HMH_ID": "MXCC_NA18E_GAB_G03U05L00S14_0008",
          "media_type": "PDF",
          "parent_resource_id": "",
          "se_facing": true,
          "sort_id": "",
          "relative_url": "/content/hsp/math/mx2018/na/gr3/game_boards_9781328787439_/0001-DHA-3_MNLEGB738615_U05.pdf",
          "categorization": "Study Aids and Workbooks",
          "tool_type": "",
          "meaningful_description": "During the board game \"Around the Block,\" students will find the perimeter of closed figures.",
            "display_title": "Unit 5: Around the Block",
          "component_type": "Game Boards",
          "standards": "",
          "bigidea": "",
          "component": "Game Boards",
          "dashboardGroup": "Core Resources"
        },
        {
          "id": "9781328787439-00009",
          "card": 15,
          "HMH_ID": "MXCC_NA18E_GAB_G03U05L00S14_0009",
          "media_type": "PDF",
          "parent_resource_id": "",
          "se_facing": true,
          "sort_id": "",
          "relative_url": "/content/hsp/math/mx2018/na/gr3/game_boards_9781328787439_/DHA-3_MNLEAN703866_Unit5_BGBLM.pdf",
          "categorization": "Study Aids and Workbooks",
          "tool_type": "",
          "meaningful_description": "These blackline masters can be used to play the \"Around the Block\" board game.",
            "display_title": "Unit 5: Around the Block - Blackline Master",
          "component_type": "Game Boards",
          "standards": "",
          "bigidea": "",
         "component": "boards-blacklinemaster",
          "dashboardGroup": "Core Resources"
        },
        {
          "id": "9781328787439-00010",
          "card": 15,
          "HMH_ID": "MXCC_NA18E_GAB_G03U06L00S14_0010",
          "media_type": "PDF",
          "parent_resource_id": "",
          "se_facing": true,
          "sort_id": "",
          "relative_url": "/content/hsp/math/mx2018/na/gr3/game_boards_9781328787439_/0001-DHA-3_MNLEGB738615_U06.pdf",
          "categorization": "Study Aids and Workbooks",
          "tool_type": "",
          "meaningful_description": "During the board game \"Equation Connection,\" students will practice writing and solving equations.",
            "display_title": "Unit 6: Equation Connection",
          "component_type": "Game Boards",
          "standards": "",
          "bigidea": "",
          "component": "Game Boards",
          "dashboardGroup": "Core Resources"
        },
        {
          "id": "9781328787439-00011",
          "card": 15,
          "HMH_ID": "MXCC_NA18E_GAB_G03U07L00S14_0011",
          "media_type": "PDF",
          "parent_resource_id": "",
          "se_facing": true,
          "sort_id": "",
          "relative_url": "/content/hsp/math/mx2018/na/gr3/game_boards_9781328787439_/0001-DHA-3_MNLEGB738615_U07.pdf",
          "categorization": "Study Aids and Workbooks",
          "tool_type": "",
          "meaningful_description": "During the board game \"Model Makers,\" students will identify the traits of geometric plane figures and construct the figures concretely.",
            "display_title": "Unit 7: Model Makers",
          "component_type": "Game Boards",
          "standards": "",
          "bigidea": "",
          "component": "Game Boards",
          "dashboardGroup": "Core Resources"
        },
        {
          "id": "9781328787439-00012",
          "card": 15,
          "HMH_ID": "MXCC_NA18E_GAB_G03U00L00S14_0012",
          "media_type": "PDF",
          "parent_resource_id": "",
          "se_facing": true,
          "sort_id": "",
          "relative_url": "/content/hsp/math/mx2018/na/gr3/game_boards_9781328787439_/0001-DHA-36_MNLEGB738622_VGB.pdf",
          "categorization": "Study Aids and Workbooks",
          "tool_type": "",
          "meaningful_description": "During the vocabulary game \"Valuable Vocabulary,\" students will practice vocabulary words.",
            "display_title": "Valuable Vocabulary",
          "component_type": "Game Boards",
          "standards": "",
          "bigidea": "",
          "component": "Game Boards",
          "dashboardGroup": "Core Resources"
        }
      ]
    }
  ]
}