{
    
    "3.OA.A.1": {
        "desc": "Interpret products of whole numbers, e.g., interpret 5 × 7 as the total number of objects in 5 groups of 7 objects each.",
        "title": "Operations and Algebraic Thinking"
    },
    "3.OA.A.2": {
        "desc": "Interpret whole-number quotients of whole numbers, e.g., interpret 56 ÷ 8 as the number of objects in each share when 56 objects are partitioned equally into 8 shares, or as a number of shares when 56 objects are partitioned into equal shares of 8 objects each.",
        "title": "Operations and Algebraic Thinking"
    },
    "3.OA.A.3": {
        "desc": "Use multiplication and division within 100 to solve word problems in situations involving equal groups, arrays, and measurement quantities, e.g., by using drawings and equations with a symbol for the unknown number to represent the problem.",
        "title": "Operations and Algebraic Thinking"
    },
    "3.OA.A.4": {
        "desc": "Determine the unknown whole number in a multiplication or division equation relating three whole numbers.",
        "title": "Operations and Algebraic Thinking"
    },
  
    "3.OA.B.5": {
        "desc": "Apply properties of operations as strategies to multiply and divide.",
        "title": "Operations and Algebraic Thinking"
    },
    "3.OA.B.6": {
        "desc": "Understand division as an unknown-factor problem.",
        "title": "Operations and Algebraic Thinking"
    },
  
    "3.OA.C.7": {
        "desc": "Fluently multiply and divide within 100, using strategies such as the relationship between multiplication and division (e.g., knowing that 8 × 5 = 40, one knows 40 ÷ 5 = 8) or properties of operations. By the end of Grade 3, know from memory all products of two one-digit numbers.",
        "title": "Operations and Algebraic Thinking"
    },
  
    "3.OA.D.8": {
        "desc": "Solve two-step word problems using the four operations. Represent these problems using equations with a letter standing for the unknown quantity. Assess the reasonableness of answers using mental computation and estimation strategies including rounding.",
        "title": "Operations and Algebraic Thinking"
    },
    "3.OA.D.9": {
        "desc": "Identify arithmetic patterns (including patterns in the addition table or multiplication table), and explain them using properties of operations.",
        "title": "Operations and Algebraic Thinking"
    },
    
    "3.NBT.A.1": {
        "desc": "Use place value understanding to round whole numbers to the nearest 10 or 100.",
        "title": "Number and Operations in Base Ten"
    },
    "3.NBT.A.2": {
        "desc": "Fluently add and subtract within 1000 using strategies and algorithms based on place value, properties of operations, and/or the relationship between addition and subtraction.",
        "title": "Number and Operations in Base Ten"
    },
    "3.NBT.A.3": {
        "desc": "Multiply one-digit whole numbers by multiples of 10 in the range 10–90 (e.g., 9 × 80, 5 × 60) using strategies based on place value and properties of operations.",
        "title": "Number and Operations in Base Ten"
    },
  
    "3.NF.A.1": {
        "desc": "Understand a fraction 1/b as the quantity formed by 1 part when a whole is partitioned into b equal parts; understand a fraction a/b as the quantity formed by a parts of size 1/b.",
        "title": "Number and Operations—Fractions"
    },
    "3.NF.A.2": {
        "desc": "Understand a fraction as a number on the number line; represent fractions on a number line diagram.",
        "title": "Number and Operations—Fractions"
    },
    "3.NF.A.2a": {
        "desc": "Represent a fraction 1/b on a number line diagram by defining the interval from 0 to 1 as the whole and partitioning it into b equal parts. Recognize that each part has size 1/b and that the endpoint of the part based at 0 locates the number 1/b on the number line.",
        "title": "Number and Operations—Fractions"
    },
    "3.NF.A.2b": {
        "desc": "Represent a fraction a/b on a number line diagram by marking off a lengths 1/b from 0. Recognize that the resulting interval has size a/b and that its endpoint locates the number a/b on the number line.",
        "title": "Number and Operations—Fractions"
    },
    "3.NF.A.3": {
        "desc": "Explain equivalence of fractions in special cases, and compare fractions by reasoning about their size.",
        "title": "Number and Operations—Fractions"
    },
    "3.NF.A.3a": {
        "desc": "Understand two fractions as equivalent (equal) if they are the same size, or the same point on a number line.",
        "title": "Number and Operations—Fractions"
    },
    "3.NF.A.3b": {
        "desc": "Recognize and generate simple equivalent fractions, (e.g., 1/2 = 2/4, 4/6 = 2/3). Explain why the fractions are equivalent, e.g., by using a visual fraction model.",
        "title": "Number and Operations—Fractions"
    },
    "3.NF.A.3c": {
        "desc": "Express whole numbers as fractions, and recognize fractions that are equivalent to whole numbers.",
        "title": "Number and Operations—Fractions"
    },
    "3.NF.A.3d": {
        "desc": "Compare two fractions with the same numerator or the same denominator by reasoning about their size. Recognize that comparisons are valid only when the two fractions refer to the same whole. Record the results of comparisons with the symbols >, =, or <, and justify the conclusions, e.g., by using a visual fraction model.",
        "title": "Number and Operations—Fractions"
    },
   
    "3.MD.A.1": {
        "desc": "Tell and write time to the nearest minute and measure time intervals in minutes. Solve word problems involving addition and subtraction of time intervals in minutes, e.g., by representing the problem on a number line diagram.",
        "title": "Measurement and Data"
    },
    "3.MD.A.2": {
        "desc": "Measure and estimate liquid volumes and masses of objects using standard units of grams (g), kilograms (kg), and liters (l). Add, subtract, multiply, or divide to solve one-step word problems involving masses or volumes that are given in the same units, e.g., by using drawings (such as a beaker with a measurement scale) to represent the problem.",
        "title": "Measurement and Data"
    },
    
    "3.MD.B.3": {
        "desc": "Draw a scaled picture graph and a scaled bar graph to represent a data set with several categories. Solve one- and two-step “howmanymore” and “howmanyless” problems using information presented in scaled bar graphs.",
        "title": "Measurement and Data"
    },
    "3.MD.B.4": {
        "desc": "Generate measurement data by measuring lengths using rulers marked with halves and fourths of an inch. Show the data by making a line plot, where the horizontal scale is marked off in appropriate units-whole numbers, halves, or quarters.",
        "title": "Measurement and Data"
    },
    
    "3.MD.C.5": {
        "desc": "Recognize area as an attribute of plane figures and understand concepts of area measurement.",
        "title": "Measurement and Data"
    },
    "3.MD.C.5a": {
        "desc": "A square with side length 1 unit, called “aunitsquare”, is said to have “onesquareunit” of area, and can be used to measure area.",
        "title": "Measurement and Data"
    },
    "3.MD.C.5b": {
        "desc": "A plane figure which can be covered without gaps or overlaps by n unit squares is said to have an area of n square units.",
        "title": "Measurement and Data"
    },
    "3.MD.C.6": {
        "desc": "Measure areas by counting unit squares (square cm, square m, square in, square ft, and improvised units).",
        "title": "Measurement and Data"
    },
    "3.MD.C.7": {
        "desc": "Relate area to the operations of multiplication and addition.",
        "title": "Measurement and Data"
    },
    "3.MD.C.7a": {
        "desc": "Find the area of a rectangle with whole-number side lengths by tiling it, and show that the area is the same as would be found by multiplying the side lengths.",
        "title": "Measurement and Data"
    },
    "3.MD.C.7b": {
        "desc": "Multiply side lengths to find areas of rectangles with whole-number side lengths in the context of solving real world and mathematical problems, and represent whole-number products as rectangular areas in mathematical reasoning.",
        "title": "Measurement and Data"
    },
    "3.MD.C.7c": {
        "desc": "Use tiling to show in a concrete case that the area of a rectangle with whole-number side lengths a and b + c is the sum of a × b and a × c. Use area models to represent the distributive property in mathematical reasoning.",
        "title": "Measurement and Data"
    },
    "3.MD.C.7d": {
        "desc": "Recognize area as additive. Find areas of rectilinear figures by decomposing them into non-overlapping rectangles and adding the areas of the non-overlapping parts, applying this technique to solve real world problems.",
        "title": "Measurement and Data"
    },
    
    "3.MD.D.8": {
        "desc": "Solve real world and mathematical problems involving perimeters of polygons, including finding the perimeter given the side lengths, finding an unknown side length, and exhibiting rectangles with the same perimeter and different areas or with the same area and different perimeters.",
        "title": "Measurement and Data"
    },
    
    "3.G.A.1": {
        "desc": "Understand that shapes in different categories (e.g., rhombuses, rectangles, and others) may share attributes (e.g., having four sides), and that the shared attributes can define a larger category (e.g., quadrilaterals). Recognize rhombuses, rectangles, and squares as examples of quadrilaterals, and draw examples of quadrilaterals that do not belong to any of these subcategories.",
        "title": "Geometry"
    },
    "3.G.A.2": {
        "desc": "Partition shapes into parts with equal areas. Express the area of each part as a unit fraction of the whole.",
        "title": "Geometry"
    },
    "MP1": {
        "desc": "Make sense of problems and persevere in solving them.",
        "title": "Mathematical Practices"
    },
    "MP2": {
        "desc": "Reason abstractly and quantitatively.",
        "title": "Mathematical Practices"
    },
    "MP3": {
        "desc": "Construct viable arguments and critique the reasoning of others.",
        "title": "Mathematical Practices"
    },
    "MP4": {
        "desc": "Model with mathematics.",
        "title": "Mathematical Practices"
    },
    "MP5": {
        "desc": "Use appropriate tools strategically.",
        "title": "Mathematical Practices"
    },
    "MP6": {
        "desc": "Attend to precision.",
        "title": "Mathematical Practices"
    },
    "MP7": {
        "desc": "Look for and make use of structure.",
        "title": "Mathematical Practices"
    },
    "MP8": {
        "desc": "Look for and express regularity in repeated reasoning.",
        "title": "Mathematical Practices"
    }
}