{
  "isbn": "123",
  "program": "123",
  "grade": "123",
  "non_grade_title": "133",
  "programType": "ela",
  "teacher": [
    {
      "component": "Core Resources",
      "libraryItems": [
        {
          "id": "9781328926050-00001",
          "card": 15,
          "HMH_ID": "NAME18GRA1_FLUC1",
          "media_type": "HTML",
          "parent_resource_id": "MXCC_NA18E_PMT_G01U00L00S16_9999",
          "se_facing": true,
          "sort_id": "",
          "categorization": "Assessments",
          "tool_type": 11,
          "meaningful_description": "Fluency Check 1 supports Unit 2, Big Idea 1: Represent Addition Situations.",
          "display_title": "Fluency Check 1",
              "component": "Fluency",
         "component_type": "Fluency Check",
          "dashboardGroup": "Core Resources"
        },
        {
          "id": "9781328926050-00002",
          "card": 15,
          "HMH_ID": "NAME18GRA1_FLUC2",
          "media_type": "HTML",
          "parent_resource_id": "MXCC_NA18E_PMT_G01U00L00S16_9999",
          "se_facing": true,
          "sort_id": "",
          "categorization": "Assessments",
          "tool_type": 11,
          "meaningful_description": "Fluency Check 2 supports Unit 2, Big Idea 2: Solve Addition Equations.",
          "display_title": "Fluency Check 2",
              "component": "Fluency",
         "component_type": "Fluency Check",
          "dashboardGroup": "Core Resources"
        },
        {
          "id": "9781328926050-00003",
          "card": 15,
          "HMH_ID": "NAME18GRA1_FLUC3",
          "media_type": "HTML",
          "parent_resource_id": "MXCC_NA18E_PMT_G01U00L00S16_9999",
          "se_facing": true,
          "sort_id": "",
          "categorization": "Assessments",
          "tool_type": 11,
          "meaningful_description": "Fluency Check 3 supports Unit 2, Big Idea 3: Solve Subtraction Equations.",
          "display_title": "Fluency Check 3",
              "component": "Fluency",
         "component_type": "Fluency Check",
          "dashboardGroup": "Core Resources"
        },
        {
          "id": "9781328926050-00004",
          "card": 15,
          "HMH_ID": "NAME18GRA1_FLUC4",
          "media_type": "HTML",
          "parent_resource_id": "MXCC_NA18E_PMT_G01U00L00S16_9999",
          "se_facing": true,
          "sort_id": "",
          "categorization": "Assessments",
          "tool_type": 11,
          "meaningful_description": "Fluency Check 4 supports Unit 2, Big Idea 4: Equation Exploration.",
          "display_title": "Fluency Check 4",
              "component": "Fluency",
         "component_type": "Fluency Check",
          "dashboardGroup": "Core Resources"
        },
        {
          "id": "9781328926050-00005",
          "card": 15,
          "HMH_ID": "NAME18GRA1_FLUC5",
          "media_type": "HTML",
          "parent_resource_id": "MXCC_NA18E_PMT_G01U00L00S16_9999",
          "se_facing": true,
          "sort_id": "",
          "categorization": "Assessments",
          "tool_type": 11,
          "meaningful_description": "Fluency Check 5 supports Unit 3, Big Idea 1: Counting On with Addition Situations.",
          "display_title": "Fluency Check 5",
              "component": "Fluency",
         "component_type": "Fluency Check",
          "dashboardGroup": "Core Resources"
        },
        {
          "id": "9781328926050-00006",
          "card": 15,
          "HMH_ID": "NAME18GRA1_FLUC6",
          "media_type": "HTML",
          "parent_resource_id": "MXCC_NA18E_PMT_G01U00L00S16_9999",
          "se_facing": true,
          "sort_id": "",
          "categorization": "Assessments",
          "tool_type": 11,
          "meaningful_description": "Fluency Check 6 supports Unit 3, Big Idea 2: Counting On with Subtraction Situations.",
          "display_title": "Fluency Check 6",
              "component": "Fluency",
         "component_type": "Fluency Check",
          "dashboardGroup": "Core Resources"
        },
        {
          "id": "9781328926050-00007",
          "card": 15,
          "HMH_ID": "NAME18GRA1_FLUC7",
          "media_type": "HTML",
          "parent_resource_id": "MXCC_NA18E_PMT_G01U00L00S16_9999",
          "se_facing": true,
          "sort_id": "",
          "categorization": "Assessments",
          "tool_type": 11,
          "meaningful_description": "Fluency Check 7 supports Unit 3, Big Idea 3: Mixed Story Problems.",
          "display_title": "Fluency Check 7",
              "component": "Fluency",
         "component_type": "Fluency Check",
          "dashboardGroup": "Core Resources"
        },
        {
          "id": "9781328926050-00008",
          "card": 15,
          "HMH_ID": "NAME18GRA1_FLUC8",
          "media_type": "HTML",
          "parent_resource_id": "MXCC_NA18E_PMT_G01U00L00S16_9999",
          "se_facing": true,
          "sort_id": "",
          "categorization": "Assessments",
          "tool_type": 11,
          "meaningful_description": "Fluency Check 8 supports Unit 4, Big Idea 1: Tens and Teens.",
          "display_title": "Fluency Check 8",
              "component": "Fluency",
         "component_type": "Fluency Check",
          "dashboardGroup": "Core Resources"
        },
        {
          "id": "9781328926050-00009",
          "card": 15,
          "HMH_ID": "NAME18GRA1_FLUC9",
          "media_type": "HTML",
          "parent_resource_id": "MXCC_NA18E_PMT_G01U00L00S16_9999",
          "se_facing": true,
          "sort_id": "",
          "categorization": "Assessments",
          "tool_type": 11,
          "meaningful_description": "Fluency Check 9 supports Unit 4, Big Idea 2: Place Value to 100.",
          "display_title": "Fluency Check 9",
              "component": "Fluency",
         "component_type": "Fluency Check",
          "dashboardGroup": "Core Resources"
        },
        {
          "id": "9781328926050-00010",
          "card": 15,
          "HMH_ID": "NAME18GRA1_FLUC10",
          "media_type": "HTML",
          "parent_resource_id": "MXCC_NA18E_PMT_G01U00L00S16_9999",
          "se_facing": true,
          "sort_id": "",
          "categorization": "Assessments",
          "tool_type": 11,
          "meaningful_description": "Fluency Check 10 supports Unit 4, Big Idea 3: Addition Strategies.",
          "display_title": "Fluency Check 10",
              "component": "Fluency",
         "component_type": "Fluency Check",
          "dashboardGroup": "Core Resources"
        },
        {
          "id": "9781328926050-00011",
          "card": 15,
          "HMH_ID": "NAME18GRA1_FLUC11",
          "media_type": "HTML",
          "parent_resource_id": "MXCC_NA18E_PMT_G01U00L00S16_9999",
          "se_facing": true,
          "sort_id": "",
          "categorization": "Assessments",
          "tool_type": 11,
          "meaningful_description": "Fluency Check 11 supports Unit 5, Big Idea 1: Teen Solution Methods.",
          "display_title": "Fluency Check 11",
              "component": "Fluency",
         "component_type": "Fluency Check",
          "dashboardGroup": "Core Resources"
        },
        {
          "id": "9781328926050-00012",
          "card": 15,
          "HMH_ID": "NAME18GRA1_FLUC12",
          "media_type": "HTML",
          "parent_resource_id": "MXCC_NA18E_PMT_G01U00L00S16_9999",
          "se_facing": true,
          "sort_id": "",
          "categorization": "Assessments",
          "tool_type": 11,
          "meaningful_description": "Fluency Check 12 supports Unit 5, Big Idea 2: Find Patterns and Relationships.",
          "display_title": "Fluency Check 12",
              "component": "Fluency",
         "component_type": "Fluency Check",
          "dashboardGroup": "Core Resources"
        },
        {
          "id": "9781328926050-00013",
          "card": 15,
          "HMH_ID": "NAME18GRA1_FLUC13",
          "media_type": "HTML",
          "parent_resource_id": "MXCC_NA18E_PMT_G01U00L00S16_9999",
          "se_facing": true,
          "sort_id": "",
          "categorization": "Assessments",
          "tool_type": 11,
          "meaningful_description": "Fluency Check 13 supports Unit 6, Big Idea 1: Represent and Compare Data.",
          "display_title": "Fluency Check 13",
              "component": "Fluency",
         "component_type": "Fluency Check",
          "dashboardGroup": "Core Resources"
        },
        {
          "id": "9781328926050-00014",
          "card": 15,
          "HMH_ID": "NAME18GRA1_FLUC14",
          "media_type": "HTML",
          "parent_resource_id": "MXCC_NA18E_PMT_G01U00L00S16_9999",
          "se_facing": true,
          "sort_id": "",
          "categorization": "Assessments",
          "tool_type": 11,
          "meaningful_description": "Fluency Check 14 supports Unit 6, Big Idea 2: Compare Problem Types.",
          "display_title": "Fluency Check 14",
              "component": "Fluency",
         "component_type": "Fluency Check",
          "dashboardGroup": "Core Resources"
        },
        {
          "id": "9781328926050-00015",
          "card": 15,
          "HMH_ID": "NAME18GRA1_FLUC15",
          "media_type": "HTML",
          "parent_resource_id": "MXCC_NA18E_PMT_G01U00L00S16_9999",
          "se_facing": true,
          "sort_id": "",
          "categorization": "Assessments",
          "tool_type": 11,
          "meaningful_description": "Fluency Check 15 supports Unit 7, Big Idea 1: Tell and Write Time.",
          "display_title": "Fluency Check 15",
              "component": "Fluency",
         "component_type": "Fluency Check",
          "dashboardGroup": "Core Resources"
        },
        {
          "id": "9781328926050-00016",
          "card": 15,
          "HMH_ID": "NAME18GRA1_FLUC16",
          "media_type": "HTML",
          "parent_resource_id": "MXCC_NA18E_PMT_G01U00L00S16_9999",
          "se_facing": true,
          "sort_id": "",
          "categorization": "Assessments",
          "tool_type": 11,
          "meaningful_description": "Fluency Check 16 supports Unit 7, Big Idea 2: Shapes and Equal Shares.",
          "display_title": "Fluency Check 16",
              "component": "Fluency",
         "component_type": "Fluency Check",
          "dashboardGroup": "Core Resources"
        },
        {
          "id": "9781328926050-00017",
          "card": 15,
          "HMH_ID": "NAME18GRA1_FLUC17",
          "media_type": "HTML",
          "parent_resource_id": "MXCC_NA18E_PMT_G01U00L00S16_9999",
          "se_facing": true,
          "sort_id": "",
          "categorization": "Assessments",
          "tool_type": 11,
          "meaningful_description": "Fluency Check 17 supports Unit 7, Big Idea 3: Measure and Order by Length.",
          "display_title": "Fluency Check 17",
              "component": "Fluency",
         "component_type": "Fluency Check",
          "dashboardGroup": "Core Resources"
        },
        {
          "id": "9781328926050-00018",
          "card": 15,
          "HMH_ID": "NAME18GRA1_FLUC18",
          "media_type": "HTML",
          "parent_resource_id": "MXCC_NA18E_PMT_G01U00L00S16_9999",
          "se_facing": true,
          "sort_id": "",
          "categorization": "Assessments",
          "tool_type": 11,
          "meaningful_description": "Fluency Check 18 supports Unit 8, Big Idea 1: Add 2-Digit Numbers.",
          "display_title": "Fluency Check 18",
              "component": "Fluency",
         "component_type": "Fluency Check",
          "dashboardGroup": "Core Resources"
        }, {
          "id": "9781328926050-00019",
          "card": 15,
          "HMH_ID": "NAME18GRA1_FLUPA1",
          "media_type": "HTML",
          "parent_resource_id": "MXCC_NA18E_PMT_G01U00L00S16_9999",
          "se_facing": true,
          "sort_id": "",
          "categorization": "Assessments",
          "tool_type": 11,
          "meaningful_description": "This grade-level fluency builder focuses on addition within 10, weighted toward easy.",
          "display_title": "Grade-Level Fluency Builder: Addition, Level 1",
             "component": "Fluency",
        "component_type": "Fluency Practice",
          "dashboardGroup": "Core Resources"
        },
        {
          "id": "9781328926050-00021",
          "card": 15,
          "HMH_ID": "NAME18GRA1_FLUPA2",
          "media_type": "HTML",
          "parent_resource_id": "MXCC_NA18E_PMT_G01U00L00S16_9999",
          "se_facing": true,
          "sort_id": "",
          "categorization": "Assessments",
          "tool_type": 11,
          "meaningful_description": "This grade-level fluency builder focuses on addition within 10 horizontal.",
          "display_title": "Grade-Level Fluency Builder: Addition, Level 2",
             "component": "Fluency",
        "component_type": "Fluency Practice",
          "dashboardGroup": "Core Resources"
        },
        {
          "id": "9781328926050-00023",
          "card": 15,
          "HMH_ID": "NAME18GRA1_FLUPA3",
          "media_type": "HTML",
          "parent_resource_id": "MXCC_NA18E_PMT_G01U00L00S16_9999",
          "se_facing": true,
          "sort_id": "",
          "categorization": "Assessments",
          "tool_type": 11,
          "meaningful_description": "This grade-level fluency builder focuses on addition within 10 stacked.",
          "display_title": "Grade-Level Fluency Builder: Addition, Level 3",
             "component": "Fluency",
        "component_type": "Fluency Practice",
          "dashboardGroup": "Core Resources"
        },
        {
          "id": "9781328926050-00025",
          "card": 15,
          "HMH_ID": "NAME18GRA1_FLUPA4",
          "media_type": "HTML",
          "parent_resource_id": "MXCC_NA18E_PMT_G01U00L00S16_9999",
          "se_facing": true,
          "sort_id": "",
          "categorization": "Assessments",
          "tool_type": 11,
          "meaningful_description": "This grade-level fluency builder focuses on addition within 10, all unknowns.",
          "display_title": "Grade-Level Fluency Builder: Addition, Level 4",
             "component": "Fluency",
        "component_type": "Fluency Practice",
          "dashboardGroup": "Core Resources"
        },
        {
          "id": "9781328926050-00027",
          "card": 15,
          "HMH_ID": "NAME18GRA1_FLUPS1",
          "media_type": "HTML",
          "parent_resource_id": "MXCC_NA18E_PMT_G01U00L00S16_9999",
          "se_facing": true,
          "sort_id": "",
          "categorization": "Assessments",
          "tool_type": 11,
          "meaningful_description": "This grade-level fluency builder focuses on subtraction within 10, weighted toward easy.",
          "display_title": "Grade-Level Fluency Builder: Subtraction, Level 1",
             "component": "Fluency",
        "component_type": "Fluency Practice",
          "dashboardGroup": "Core Resources"
        },
        {
          "id": "9781328926050-00029",
          "card": 15,
          "HMH_ID": "NAME18GRA1_FLUPS2",
          "media_type": "HTML",
          "parent_resource_id": "MXCC_NA18E_PMT_G01U00L00S16_9999",
          "se_facing": true,
          "sort_id": "",
          "categorization": "Assessments",
          "tool_type": 11,
          "meaningful_description": "This grade-level fluency builder focuses on subtraction within 10, full standard horizontal.",
          "display_title": "Grade-Level Fluency Builder: Subtraction, Level 2",
             "component": "Fluency",
        "component_type": "Fluency Practice",
          "dashboardGroup": "Core Resources"
        },
        {
          "id": "9781328926050-00031",
          "card": 15,
          "HMH_ID": "NAME18GRA1_FLUPS3",
          "media_type": "HTML",
          "parent_resource_id": "MXCC_NA18E_PMT_G01U00L00S16_9999",
          "se_facing": true,
          "sort_id": "",
          "categorization": "Assessments",
          "tool_type": 11,
          "meaningful_description": "This grade-level fluency builder focuses on subtraction within 10, full standard stacked.",
          "display_title": "Grade-Level Fluency Builder: Subtraction, Level 3",
             "component": "Fluency",
        "component_type": "Fluency Practice",
          "dashboardGroup": "Core Resources"
        },
        {
          "id": "9781328926050-00033",
          "card": 15,
          "HMH_ID": "NAME18GRA1_FLUPS4",
          "media_type": "HTML",
          "parent_resource_id": "MXCC_NA18E_PMT_G01U00L00S16_9999",
          "se_facing": true,
          "sort_id": "",
          "categorization": "Assessments",
          "tool_type": 11,
          "meaningful_description": "This grade-level fluency builder focuses on subtraction within 10, all unknowns.",
          "display_title": "Grade-Level Fluency Builder: Subtraction, Level 4",
             "component": "Fluency",
        "component_type": "Fluency Practice",
          "dashboardGroup": "Core Resources"
        },
        {
          "id": "9781328926050-00035",
          "card": 15,
          "HMH_ID": "NAME18GRA1_FLUPAS1",
          "media_type": "HTML",
          "parent_resource_id": "MXCC_NA18E_PMT_G01U00L00S16_9999",
          "se_facing": true,
          "sort_id": "",
          "categorization": "Assessments",
          "tool_type": 11,
          "meaningful_description": "This grade-level fluency builder focuses on addition and subtraction (mixed; within 10; stacked).",
          "display_title": "Grade-Level Fluency Builder: Addition and Subtraction",
             "component": "Fluency",
        "component_type": "Fluency Practice",
          "dashboardGroup": "Core Resources"
        },
        {
          "id": "9781328926050-00037",
          "card": 15,
          "HMH_ID": "NAME18GRA1_FLUPCA1",
          "media_type": "HTML",
          "parent_resource_id": "MXCC_NA18E_PMT_G01U00L00S16_9999",
          "se_facing": true,
          "sort_id": "",
          "categorization": "Assessments",
          "tool_type": 11,
          "meaningful_description": "This future fluency starter focuses on addition within 20, weighted toward easy.",
          "display_title": "Future Fluency Starter: Grade 2 Addition",
             "component": "Fluency",
        "component_type": "Fluency Practice",
          "dashboardGroup": "Core Resources"
        },
        {
          "id": "9781328926050-00039",
          "card": 15,
          "HMH_ID": "NAME18GRA1_FLUPCS1",
          "media_type": "HTML",
          "parent_resource_id": "MXCC_NA18E_PMT_G01U00L00S16_9999",
          "se_facing": true,
          "sort_id": "",
          "categorization": "Assessments",
          "tool_type": 11,
          "meaningful_description": "This future fluency starter focuses on subtraction within 20, weighted toward easy.",
          "display_title": "Future Fluency Starter: Grade 2 Subtraction",
             "component": "Fluency",
        "component_type": "Fluency Practice",
          "dashboardGroup": "Core Resources"
        }
      ]
    }
  ],
   "student": [
     {
          "id": "9781328926050-00019",
          "card": 15,
          "HMH_ID": "NAME18GRA1_FLUPA1",
          "media_type": "HTML",
          "parent_resource_id": "MXCC_NA18E_PMT_G01U00L00S16_9999",
          "se_facing": true,
          "sort_id": "",
          "categorization": "Assessments",
          "tool_type": 11,
          "meaningful_description": "This grade-level fluency builder focuses on addition within 10, weighted toward easy.",
          "display_title": "Add- Level 1",
             "component": "Fluency",
        "component_type": "Fluency Practice",
          "dashboardGroup": "Core Resources"
        },
        {
          "id": "9781328926050-00021",
          "card": 15,
          "HMH_ID": "NAME18GRA1_FLUPA2",
          "media_type": "HTML",
          "parent_resource_id": "MXCC_NA18E_PMT_G01U00L00S16_9999",
          "se_facing": true,
          "sort_id": "",
          "categorization": "Assessments",
          "tool_type": 11,
          "meaningful_description": "This grade-level fluency builder focuses on addition within 10 horizontal.",
          "display_title": "Add- Level 2",
             "component": "Fluency",
        "component_type": "Fluency Practice",
          "dashboardGroup": "Core Resources"
        },
        {
          "id": "9781328926050-00023",
          "card": 15,
          "HMH_ID": "NAME18GRA1_FLUPA3",
          "media_type": "HTML",
          "parent_resource_id": "MXCC_NA18E_PMT_G01U00L00S16_9999",
          "se_facing": true,
          "sort_id": "",
          "categorization": "Assessments",
          "tool_type": 11,
          "meaningful_description": "This grade-level fluency builder focuses on addition within 10 stacked.",
          "display_title": "Add- Level 3",
             "component": "Fluency",
        "component_type": "Fluency Practice",
          "dashboardGroup": "Core Resources"
        },
        {
          "id": "9781328926050-00025",
          "card": 15,
          "HMH_ID": "NAME18GRA1_FLUPA4",
          "media_type": "HTML",
          "parent_resource_id": "MXCC_NA18E_PMT_G01U00L00S16_9999",
          "se_facing": true,
          "sort_id": "",
          "categorization": "Assessments",
          "tool_type": 11,
          "meaningful_description": "This grade-level fluency builder focuses on addition within 10, all unknowns.",
          "display_title": "Add- Level 4",
             "component": "Fluency",
        "component_type": "Fluency Practice",
          "dashboardGroup": "Core Resources"
        },
        {
          "id": "9781328926050-00027",
          "card": 15,
          "HMH_ID": "NAME18GRA1_FLUPS1",
          "media_type": "HTML",
          "parent_resource_id": "MXCC_NA18E_PMT_G01U00L00S16_9999",
          "se_facing": true,
          "sort_id": "",
          "categorization": "Assessments",
          "tool_type": 11,
          "meaningful_description": "This grade-level fluency builder focuses on subtraction within 10, weighted toward easy.",
          "display_title": "Subtract- Level 1",
             "component": "Fluency",
        "component_type": "Fluency Practice",
          "dashboardGroup": "Core Resources"
        },
        {
          "id": "9781328926050-00029",
          "card": 15,
          "HMH_ID": "NAME18GRA1_FLUPS2",
          "media_type": "HTML",
          "parent_resource_id": "MXCC_NA18E_PMT_G01U00L00S16_9999",
          "se_facing": true,
          "sort_id": "",
          "categorization": "Assessments",
          "tool_type": 11,
          "meaningful_description": "This grade-level fluency builder focuses on subtraction within 10, full standard horizontal.",
          "display_title": "Subtract- Level 2",
             "component": "Fluency",
        "component_type": "Fluency Practice",
          "dashboardGroup": "Core Resources"
        },
        {
          "id": "9781328926050-00031",
          "card": 15,
          "HMH_ID": "NAME18GRA1_FLUPS3",
          "media_type": "HTML",
          "parent_resource_id": "MXCC_NA18E_PMT_G01U00L00S16_9999",
          "se_facing": true,
          "sort_id": "",
          "categorization": "Assessments",
          "tool_type": 11,
          "meaningful_description": "This grade-level fluency builder focuses on subtraction within 10, full standard stacked.",
          "display_title": "Subtract- Level 3",
             "component": "Fluency",
        "component_type": "Fluency Practice",
          "dashboardGroup": "Core Resources"
        },
        {
          "id": "9781328926050-00033",
          "card": 15,
          "HMH_ID": "NAME18GRA1_FLUPS4",
          "media_type": "HTML",
          "parent_resource_id": "MXCC_NA18E_PMT_G01U00L00S16_9999",
          "se_facing": true,
          "sort_id": "",
          "categorization": "Assessments",
          "tool_type": 11,
          "meaningful_description": "This grade-level fluency builder focuses on subtraction within 10, all unknowns.",
          "display_title": "Subtract- Level 4",
             "component": "Fluency",
        "component_type": "Fluency Practice",
          "dashboardGroup": "Core Resources"
        },
        {
          "id": "9781328926050-00035",
          "card": 15,
          "HMH_ID": "NAME18GRA1_FLUPAS1",
          "media_type": "HTML",
          "parent_resource_id": "MXCC_NA18E_PMT_G01U00L00S16_9999",
          "se_facing": true,
          "sort_id": "",
          "categorization": "Assessments",
          "tool_type": 11,
          "meaningful_description": "This grade-level fluency builder focuses on addition and subtraction (mixed; within 10; stacked).",
          "display_title": "Add and Subtract",
             "component": "Fluency",
        "component_type": "Fluency Practice",
          "dashboardGroup": "Core Resources"
        },
        {
          "id": "9781328926050-00037",
          "card": 15,
          "HMH_ID": "NAME18GRA1_FLUPCA1",
          "media_type": "HTML",
          "parent_resource_id": "MXCC_NA18E_PMT_G01U00L00S16_9999",
          "se_facing": true,
          "sort_id": "",
          "categorization": "Assessments",
          "tool_type": 11,
          "meaningful_description": "This future fluency starter focuses on addition within 20, weighted toward easy.",
          "display_title": "Challenge, Add",
             "component": "Fluency",
        "component_type": "Fluency Practice",
          "dashboardGroup": "Core Resources"
        },
        {
          "id": "9781328926050-00039",
          "card": 15,
          "HMH_ID": "NAME18GRA1_FLUPCS1",
          "media_type": "HTML",
          "parent_resource_id": "MXCC_NA18E_PMT_G01U00L00S16_9999",
          "se_facing": true,
          "sort_id": "",
          "categorization": "Assessments",
          "tool_type": 11,
          "meaningful_description": "This future fluency starter focuses on subtraction within 20, weighted toward easy.",
          "display_title": "Challenge, Subtract",
             "component": "Fluency",
        "component_type": "Fluency Practice",
          "dashboardGroup": "Core Resources"
        }
  ]
}