{
  "isbn": "123",
  "program": "123",
  "grade": "3",
  "non_grade_title": "2",
  "programType": "ela",
  "teacher": [
    {
      "component": "Core Resources",
      "libraryItems": [
        {
          "id": "9781328787224-0001",
          "card": 15,
          "HMH_ID": "MXCC_NA18E_REA_G01U01L00S18_0001",
          "media_type": "HTML",
          "parent_resource_id": "",
          "se_facing": true,
          "sort_id": "",
          "relative_url": "/content/hsp/math/mx2018/na/gr1/readers_9781328787224_/book1/index.html",
          "categorization": "Readers",
          "tool_type": "",
          "meaningful_description": "The Math Reader \"Join Us\" supports the unit \"Partners and Number Patterns Through 10.\" In this Reader, two girls have a large rubber ball. In the Math Reader \"ones, twos, and threes, other children join them until they have the ten children they need to form a circle and throw each other the ball.",
          "display_title": "Unit 1: Join Us",
          "component_type": "Math Readers",
          "component": "Math Readers",
          "dashboardGroup": "Core Resources"
        },
        {
          "id": "9781328787224-0002",
          "card": 15,
          "HMH_ID": "MXCC_NA18E_REA_G01U02L00S18_0002",
          "media_type": "HTML",
          "parent_resource_id": "",
          "se_facing": true,
          "sort_id": "",
          "relative_url": "/content/hsp/math/mx2018/na/gr1/readers_9781328787224_/book2/index.html",
          "categorization": "Readers",
          "tool_type": "",
          "meaningful_description": "The Math Reader \"Ten Little Puppies\" supports the unit \"Addition and Subtraction Strategies.\" In this Reader, different numbers of puppies offer subtraction problems as readers look at photographs of puppies in different situations and are asked to tell how many puppies have left or have remained to play, eat, swim, and nap.",
          "display_title": "Unit 2: Ten Little Puppies",
          "component_type": "Math Readers",
          "component": "Math Readers",
          "dashboardGroup": "Core Resources"
        },
        {
          "id": "9781328787224-0003",
          "card": 15,
          "HMH_ID": "MXCC_NA18E_REA_G01U03L00S18_0003",
          "media_type": "HTML",
          "parent_resource_id": "",
          "se_facing": true,
          "sort_id": "",
          "relative_url": "/content/hsp/math/mx2018/na/gr1/readers_9781328787224_/book3/index.html",
          "categorization": "Readers",
          "tool_type": "",
          "meaningful_description": "The Math Reader \"Picture Puzzles\" supports the unit \"Unknown Numbers in Addition and Subtraction.\" In this Reader, a sister and brother play with geometric shapes to make picture puzzles. The girl makes a boat with a sail out of four triangles. The two siblings make other shapes and at the end use them to build a rocket ship.",
          "display_title": "Unit 3: Picture Puzzles",
          "component_type": "Math Readers",
          "component": "Math Readers",
          "dashboardGroup": "Core Resources"
        },
        {
          "id": "9781328787224-0004",
          "card": 15,
          "HMH_ID": "MXCC_NA18E_REA_G01U04L00S18_0004",
          "media_type": "HTML",
          "parent_resource_id": "",
          "se_facing": true,
          "sort_id": "",
          "relative_url": "/content/hsp/math/mx2018/na/gr1/readers_9781328787224_/book4/index.html",
          "categorization": "Readers",
          "tool_type": "",
          "meaningful_description": "The Math Reader \"Strawberries\" supports the unit \"Place Value Concepts.\" In this Reader, foxes Tina and Theo set out to pick strawberries for Grandpa. They fill nine buckets with ten berries in each bucket. Grandpa uses them to make lots of strawberry cakes, and all the foxes around come to the party.",
          "display_title": "Unit 4: Strawberries",
          "component_type": "Math Readers",
          "component": "Math Readers",
          "dashboardGroup": "Core Resources"
        },
        {
          "id": "9781328787224-0005",
          "card": 15,
          "HMH_ID": "MXCC_NA18E_REA_G01U05L00S18_0005",
          "media_type": "HTML",
          "parent_resource_id": "",
          "se_facing": true,
          "sort_id": "",
          "relative_url": "/content/hsp/math/mx2018/na/gr1/readers_9781328787224_/book5/index.html",
          "categorization": "Readers",
          "tool_type": "",
          "meaningful_description": "The Math Reader \"Funny Bunny Hats\" supports the unit \"Place Value Situations.\" In this Reader, a bunny makes funny hats. She makes them for the different animals that come to her shop. Page by page, readers add the hats Bunny makes.",
          "display_title": "Unit 5: Funny Bunny Hats",
          "component_type": "Math Readers",
          "component": "Math Readers",
          "dashboardGroup": "Core Resources"
        },
        {
          "id": "9781328787224-0006",
          "card": 15,
          "HMH_ID": "MXCC_NA18E_REA_G01U06L00S18_0006",
          "media_type": "HTML",
          "parent_resource_id": "",
          "se_facing": true,
          "sort_id": "",
          "relative_url": "/content/hsp/math/mx2018/na/gr1/readers_9781328787224_/book6/index.html",
          "categorization": "Readers",
          "tool_type": "",
          "meaningful_description": "The Math Reader \"Ducks In a Pond\" supports the unit \"Comparisons and Data.\" In this Reader, 10 ducks are on their way to swim in a pond. They pick up 1 duck, and when they arrive at the pond, 6 ducks are already swimming in the pond. Two more join, making 20 ducks. At the end, they all fly away.",
          "display_title": "Unit 6: Ducks In a Pond",
          "component_type": "Math Readers",
          "component": "Math Readers",
          "dashboardGroup": "Core Resources"
        },
        {
          "id": "9781328787224-0007",
          "card": 15,
          "HMH_ID": "MXCC_NA18E_REA_G01U07L00S18_0007",
          "media_type": "HTML",
          "parent_resource_id": "",
          "se_facing": true,
          "sort_id": "",
          "relative_url": "/content/hsp/math/mx2018/na/gr1/readers_9781328787224_/book7/index.html",
          "categorization": "Readers",
          "tool_type": "",
          "meaningful_description": "The Math Reader \"Time To Play\" supports the unit \"Geometry, Measurement, and Equal Shares.\" In this Reader, Mark and Mary are going to eat lunch at 12:00. A clock shows 11:00, and Mark and Mary feed their pets until lunch time. At 11:30, Mary reads an analog clock, and Mark reads a digital clock. Finally, it is time to eat.",
          "display_title": "Unit 7: Time To Play",
          "component_type": "Math Readers",
          "component": "Math Readers",
          "dashboardGroup": "Core Resources"
        },
        {
          "id": "9781328787224-0008",
          "card": 15,
          "HMH_ID": "MXCC_NA18E_REA_G01U08L00S18_0008",
          "media_type": "HTML",
          "parent_resource_id": "",
          "se_facing": true,
          "sort_id": "",
          "relative_url": "/content/hsp/math/mx2018/na/gr1/readers_9781328787224_/book8/index.html",
          "categorization": "Readers",
          "tool_type": "",
          "meaningful_description": "The Math Reader \"Stamps and More Stamps\" supports the unit \"Two Digit Addition.\" In this Reader, Kadeem has 21 animal stamps on a page in his picture album. Then, he adds 8 new ones to come up with a new total. On a page where Kadeem has very old stamps, he adds 5 more stamps to the 19. Daniella gives Kadeem 3 stamps to add to the 17 he already has on his flower page. His mom gives him 7 more stamps to add to the 23 stamps on his California page. Kadeem fills almost every space in his album with stamps.",
          "display_title": "Unit 8: Stamps and More Stamps",
          "component_type": "Math Readers",
          "component": "Math Readers",
          "dashboardGroup": "Core Resources"
        }
      ]
    }
  ],
  "student": [
    {
      "id": "9781328787224-0001",
      "card": 15,
      "HMH_ID": "MXCC_NA18E_REA_G01U01L00S18_0001",
      "media_type": "HTML",
      "parent_resource_id": "",
      "se_facing": true,
      "sort_id": "",
      "relative_url": "/content/hsp/math/mx2018/na/gr1/readers_9781328787224_/book1/index.html",
      "categorization": "Readers",
      "tool_type": "",
      "meaningful_description": "The Math Reader \"Join Us\" supports the unit \"Partners and Number Patterns Through 10.\" In this Reader, two girls have a large rubber ball. In the Math Reader \"ones, twos, and threes, other children join them until they have the ten children they need to form a circle and throw each other the ball.",
      "display_title": "Unit 1: Join Us",
      "component_type": "Math Readers",
      "component": "Math Readers",
      "dashboardGroup": "Core Resources"
    },
    {
      "id": "9781328787224-0002",
      "card": 15,
      "HMH_ID": "MXCC_NA18E_REA_G01U02L00S18_0002",
      "media_type": "HTML",
      "parent_resource_id": "",
      "se_facing": true,
      "sort_id": "",
      "relative_url": "/content/hsp/math/mx2018/na/gr1/readers_9781328787224_/book2/index.html",
      "categorization": "Readers",
      "tool_type": "",
      "meaningful_description": "The Math Reader \"Ten Little Puppies\" supports the unit \"Addition and Subtraction Strategies.\" In this Reader, different numbers of puppies offer subtraction problems as readers look at photographs of puppies in different situations and are asked to tell how many puppies have left or have remained to play, eat, swim, and nap.",
      "display_title": "Unit 2: Ten Little Puppies",
      "component_type": "Math Readers",
      "component": "Math Readers",
      "dashboardGroup": "Core Resources"
    },
    {
      "id": "9781328787224-0003",
      "card": 15,
      "HMH_ID": "MXCC_NA18E_REA_G01U03L00S18_0003",
      "media_type": "HTML",
      "parent_resource_id": "",
      "se_facing": true,
      "sort_id": "",
      "relative_url": "/content/hsp/math/mx2018/na/gr1/readers_9781328787224_/book3/index.html",
      "categorization": "Readers",
      "tool_type": "",
      "meaningful_description": "The Math Reader \"Picture Puzzles\" supports the unit \"Unknown Numbers in Addition and Subtraction.\" In this Reader, a sister and brother play with geometric shapes to make picture puzzles. The girl makes a boat with a sail out of four triangles. The two siblings make other shapes and at the end use them to build a rocket ship.",
      "display_title": "Unit 3: Picture Puzzles",
      "component_type": "Math Readers",
      "component": "Math Readers",
      "dashboardGroup": "Core Resources"
    },
    {
      "id": "9781328787224-0004",
      "card": 15,
      "HMH_ID": "MXCC_NA18E_REA_G01U04L00S18_0004",
      "media_type": "HTML",
      "parent_resource_id": "",
      "se_facing": true,
      "sort_id": "",
      "relative_url": "/content/hsp/math/mx2018/na/gr1/readers_9781328787224_/book4/index.html",
      "categorization": "Readers",
      "tool_type": "",
      "meaningful_description": "The Math Reader \"Strawberries\" supports the unit \"Place Value Concepts.\" In this Reader, foxes Tina and Theo set out to pick strawberries for Grandpa. They fill nine buckets with ten berries in each bucket. Grandpa uses them to make lots of strawberry cakes, and all the foxes around come to the party.",
      "display_title": "Unit 4: Strawberries",
      "component_type": "Math Readers",
      "component": "Math Readers",
      "dashboardGroup": "Core Resources"
    },
    {
      "id": "9781328787224-0005",
      "card": 15,
      "HMH_ID": "MXCC_NA18E_REA_G01U05L00S18_0005",
      "media_type": "HTML",
      "parent_resource_id": "",
      "se_facing": true,
      "sort_id": "",
      "relative_url": "/content/hsp/math/mx2018/na/gr1/readers_9781328787224_/book5/index.html",
      "categorization": "Readers",
      "tool_type": "",
      "meaningful_description": "The Math Reader \"Funny Bunny Hats\" supports the unit \"Place Value Situations.\" In this Reader, a bunny makes funny hats. She makes them for the different animals that come to her shop. Page by page, readers add the hats Bunny makes.",
      "display_title": "Unit 5: Funny Bunny Hats",
      "component_type": "Math Readers",
      "component": "Math Readers",
      "dashboardGroup": "Core Resources"
    },
    {
      "id": "9781328787224-0006",
      "card": 15,
      "HMH_ID": "MXCC_NA18E_REA_G01U06L00S18_0006",
      "media_type": "HTML",
      "parent_resource_id": "",
      "se_facing": true,
      "sort_id": "",
      "relative_url": "/content/hsp/math/mx2018/na/gr1/readers_9781328787224_/book6/index.html",
      "categorization": "Readers",
      "tool_type": "",
      "meaningful_description": "The Math Reader \"Ducks In a Pond\" supports the unit \"Comparisons and Data.\" In this Reader, 10 ducks are on their way to swim in a pond. They pick up 1 duck, and when they arrive at the pond, 6 ducks are already swimming in the pond. Two more join, making 20 ducks. At the end, they all fly away.",
      "display_title": "Unit 6: Ducks In a Pond",
      "component_type": "Math Readers",
      "component": "Math Readers",
      "dashboardGroup": "Core Resources"
    },
    {
      "id": "9781328787224-0007",
      "card": 15,
      "HMH_ID": "MXCC_NA18E_REA_G01U07L00S18_0007",
      "media_type": "HTML",
      "parent_resource_id": "",
      "se_facing": true,
      "sort_id": "",
      "relative_url": "/content/hsp/math/mx2018/na/gr1/readers_9781328787224_/book7/index.html",
      "categorization": "Readers",
      "tool_type": "",
      "meaningful_description": "The Math Reader \"Time To Play\" supports the unit \"Geometry, Measurement, and Equal Shares.\" In this Reader, Mark and Mary are going to eat lunch at 12:00. A clock shows 11:00, and Mark and Mary feed their pets until lunch time. At 11:30, Mary reads an analog clock, and Mark reads a digital clock. Finally, it is time to eat.",
      "display_title": "Unit 7: Time To Play",
      "component_type": "Math Readers",
      "component": "Math Readers",
      "dashboardGroup": "Core Resources"
    },
    {
      "id": "9781328787224-0008",
      "card": 15,
      "HMH_ID": "MXCC_NA18E_REA_G01U08L00S18_0008",
      "media_type": "HTML",
      "parent_resource_id": "",
      "se_facing": true,
      "sort_id": "",
      "relative_url": "/content/hsp/math/mx2018/na/gr1/readers_9781328787224_/book8/index.html",
      "categorization": "Readers",
      "tool_type": "",
      "meaningful_description": "The Math Reader \"Stamps and More Stamps\" supports the unit \"Two Digit Addition.\" In this Reader, Kadeem has 21 animal stamps on a page in his picture album. Then, he adds 8 new ones to come up with a new total. On a page where Kadeem has very old stamps, he adds 5 more stamps to the 19. Daniella gives Kadeem 3 stamps to add to the 17 he already has on his flower page. His mom gives him 7 more stamps to add to the 23 stamps on his California page. Kadeem fills almost every space in his album with stamps.",
      "display_title": "Unit 8: Stamps and More Stamps",
      "component_type": "Math Readers",
      "component": "Math Readers",
      "dashboardGroup": "Core Resources"
    }
  ]
}