{
  "isbn": "123",
  "program": "123",
  "grade": "4",
  "non_grade_title": "133",
  "programType": "ela",
  "teacher": [
    {
      "component": "Core Resources",
      "libraryItems": [
        {
          "id": "9781328786807-00038",
          "card": 15,
          "HMH_ID": "MXCC_NA18E_PLG_G04U01L00S22_0038",
          "media_type": "PDF",
          "parent_resource_id": "",
          "se_facing": false,
          "sort_id": "",
          "relative_url": "/content/hsp/math/mx2018/na/gr4/planning_guide_9781328786807_/DMA-4_MNLEPG703873_Strung.pdf#page=54",
          "categorization": "Teaching Aids",
          "tool_type": "",
          "meaningful_description": "The Math Reader \"The First Space Vacation\" is a short biography of Dennis Tito, an engineer and businessman who became the world's first tourist to see space.",
          "display_title": "Planning Guide: Math Reader: The First Space Vacation",
          "component_type": "Ancillary",
          "component": "Planning Guide",
          "dashboardGroup": "Core Resources"
        },
        {
          "id": "9781328786807-00039",
          "card": 15,
          "HMH_ID": "MXCC_NA18E_PLG_G04U02L00S22_0039",
          "media_type": "PDF",
          "parent_resource_id": "",
          "se_facing": false,
          "sort_id": "",
          "relative_url": "/content/hsp/math/mx2018/na/gr4/planning_guide_9781328786807_/DMA-4_MNLEPG703873_Strung.pdf#page=54",
          "categorization": "Teaching Aids",
          "tool_type": "",
          "meaningful_description": "In the Math Reader \"Multiplying a Good Deed,\" Ramon leads a food drive at school to stock a local food pantry. He figures the amount of cans that could be donated if students in different classes brought two, three, or more cans of food.",
          "display_title": "Planning Guide: Math Reader: Multiplying a Good Deed",
          "component_type": "Ancillary",
          "component": "Planning Guide",
          "dashboardGroup": "Core Resources"
        },
        {
          "id": "9781328786807-00040",
          "card": 15,
          "HMH_ID": "MXCC_NA18E_PLG_G04U03L00S22_0040",
          "media_type": "PDF",
          "parent_resource_id": "",
          "se_facing": false,
          "sort_id": "",
          "relative_url": "/content/hsp/math/mx2018/na/gr4/planning_guide_9781328786807_/DMA-4_MNLEPG703873_Strung.pdf#page=55",
          "categorization": "Teaching Aids",
          "tool_type": "",
          "meaningful_description": "In the Math Reader \"The Division Champs,\" the Midway Lions are practicing for the School Quiz and decide to practice division with remainders. When the day of the competition arrives, they are prepared for all the questions, even the game-winning division question.",
          "display_title": "Planning Guide: Math Reader: The Division Champs",
          "component_type": "Ancillary",
          "component": "Planning Guide",
          "dashboardGroup": "Core Resources"
        },
        {
          "id": "9781328786807-00041",
          "card": 15,
          "HMH_ID": "MXCC_NA18E_PLG_G04U04L00S22_0041",
          "media_type": "PDF",
          "parent_resource_id": "",
          "se_facing": false,
          "sort_id": "",
          "relative_url": "/content/hsp/math/mx2018/na/gr4/planning_guide_9781328786807_/DMA-4_MNLEPG703873_Strung.pdf#page=55",
          "categorization": "Teaching Aids",
          "tool_type": "",
          "meaningful_description": "The Math Reader \"Eratosthenes and His Sieve\" is a short biography of Eratosthenes and his amazing contributions to math, including his sieve for identifying prime numbers.",
          "display_title": "Planning Guide: Math Reader: Eratosthenes and His Sieve",
          "component_type": "Ancillary",
          "component": "Planning Guide",
          "dashboardGroup": "Core Resources"
        },
        {
          "id": "9781328786807-00042",
          "card": 15,
          "HMH_ID": "MXCC_NA18E_PLG_G04U05L00S22_0042",
          "media_type": "PDF",
          "parent_resource_id": "",
          "se_facing": false,
          "sort_id": "",
          "relative_url": "/content/hsp/math/mx2018/na/gr4/planning_guide_9781328786807_/DMA-4_MNLEPG703873_Strung.pdf#page=56",
          "categorization": "Teaching Aids",
          "tool_type": "",
          "meaningful_description": "\"Measuring the Mississippi\" is written as a travel brochure for a paddleboat trip down the Mississippi River. Different lengths of measurement are used to discuss various aspects of the trip.",
          "display_title": "Planning Guide: Math Reader: Measuring the Mississippi",
          "component_type": "Ancillary",
          "component": "Planning Guide",
          "dashboardGroup": "Core Resources"
        },
        {
          "id": "9781328786807-00043",
          "card": 15,
          "HMH_ID": "MXCC_NA18E_PLG_G04U06L00S22_0043",
          "media_type": "PDF",
          "parent_resource_id": "",
          "se_facing": false,
          "sort_id": "",
          "relative_url": "/content/hsp/math/mx2018/na/gr4/planning_guide_9781328786807_/DMA-4_MNLEPG703873_Strung.pdf#page=56",
          "categorization": "Teaching Aids",
          "tool_type": "",
          "meaningful_description": "In the Math Reader \"A Melody in Fractions,\" Sachiko is learning to read music and play the piano. Her teacher uses fractions to help her understand whole notes, half notes, quarter notes, eighth notes, and sixteenth notes.",
          "display_title": "Planning Guide: Math Reader: A Melody in Fractions",
          "component_type": "Ancillary",
          "component": "Planning Guide",
          "dashboardGroup": "Core Resources"
        },
        {
          "id": "9781328786807-00044",
          "card": 15,
          "HMH_ID": "MXCC_NA18E_PLG_G04U07L00S22_0044",
          "media_type": "PDF",
          "parent_resource_id": "",
          "se_facing": false,
          "sort_id": "",
          "relative_url": "/content/hsp/math/mx2018/na/gr4/planning_guide_9781328786807_/DMA-4_MNLEPG703873_Strung.pdf#page=57",
          "categorization": "Teaching Aids",
          "tool_type": "",
          "meaningful_description": "Some animals sleep only a few hours per day while others sleep more than half the day. In \"Sleeping Half the Day Away,\" students learn what fraction of the day different kinds of animals sleep.",
          "display_title": "Planning Guide: Math Reader: Sleeping Half the Day Away",
          "component_type": "Ancillary",
          "component": "Planning Guide",
          "dashboardGroup": "Core Resources"
        },
        {
          "id": "9781328786807-00045",
          "card": 15,
          "HMH_ID": "MXCC_NA18E_PLG_G04U08L00S22_0045",
          "media_type": "PDF",
          "parent_resource_id": "",
          "se_facing": false,
          "sort_id": "",
          "relative_url": "/content/hsp/math/mx2018/na/gr4/planning_guide_9781328786807_/DMA-4_MNLEPG703873_Strung.pdf#page=57",
          "categorization": "Teaching Aids",
          "tool_type": "",
          "meaningful_description": "The Math Reader \"Skateboarding Takes Shape\" discusses the shapes often used in a skatepark and the angles of some skateboarding tricks and jumps.",
          "display_title": "Planning Guide: Math Reader: Skateboarding Takes Shape",
          "component_type": "Ancillary",
          "component": "Planning Guide",
          "dashboardGroup": "Core Resources"
        }
      ]
    }
  ],
  "student": []
}