{
  "isbn": "123",
  "program": "123",
  "grade": "1",
  "non_grade_title": "123",
  "programType": "ela",
  "teacher": [
    {
      "component": "Core Resources",
      "libraryItems": [
           {
          "id": "9781328786807-00038",
          "card": 15,
          "HMH_ID": "MXCC_NA18E_PLG_G04U01L00S22_0038",
          "media_type": "PDF",
          "parent_resource_id": "",
          "se_facing": false,
          "sort_id": "",
          "relative_url": "/content/hsp/math/mx2018/na/gr4/planning_guide_9781328786807_/DMA-4_MNLEPG703873_Strung.pdf",
          "categorization": "Teaching Aids",
          "tool_type": "",
          "meaningful_description": "The Math Reader \"The First Space Vacation\" is a short biography of Dennis Tito, an engineer and businessman who became the world's first tourist to see space.",
          "display_title": "Math Reader: The First Space Vacation",
          "component_type": "Planning",
          "component": "Math Activity Center Planning Guide",
          "dashboardGroup": "Core Resources"
        }
      ]
    }
  ],
  "student": []
}