{
      "hmh_title":"HMH",
    "landing_title":"Math Expressions",
    "show_resources_for_content":"Show resources for",
    "student_header_logo":"octopus-4-m-x-n-l-18-s-e-k.png",
    "teacher_header_logo":"m-a-c-logo.png",
         "unitArray": ["Unit 1","Unit 2","Unit 3","Unit 4","Unit 5"],
    "unitLesson": {
        "Unit1": ["Lesson 1","Lesson 2","Lesson 3","Lesson 4","Lesson 5","Lesson 6","Lesson 7","Lesson 8","Lesson 9","Lesson 10","Lesson 11","Lesson 12","Lesson 13","Lesson 14","Lesson 15","Lesson 16","Lesson 17","Lesson 18"],
        "Unit2": ["Lesson 1","Lesson 2","Lesson 3","Lesson 4","Lesson 5","Lesson 6","Lesson 7","Lesson 8","Lesson 9","Lesson 10","Lesson 11","Lesson 12","Lesson 13","Lesson 14","Lesson 15","Lesson 16","Lesson 17","Lesson 18","Lesson 19","Lesson 20"],
        "Unit3": ["Lesson 1","Lesson 2","Lesson 3","Lesson 4","Lesson 5","Lesson 6","Lesson 7","Lesson 8","Lesson 9","Lesson 10","Lesson 11","Lesson 12","Lesson 13","Lesson 14","Lesson 15","Lesson 16","Lesson 17","Lesson 18","Lesson 19","Lesson 20","Lesson 21"],
        "Unit4": ["Lesson 1","Lesson 2","Lesson 3","Lesson 4","Lesson 5","Lesson 6","Lesson 7","Lesson 8","Lesson 9","Lesson 10","Lesson 11","Lesson 12","Lesson 13","Lesson 14","Lesson 15","Lesson 16","Lesson 17","Lesson 18","Lesson 19","Lesson 20","Lesson 21","Lesson 22"],
        "Unit5": ["Lesson 1","Lesson 2","Lesson 3","Lesson 4","Lesson 5","Lesson 6","Lesson 7","Lesson 8","Lesson 9","Lesson 10","Lesson 11","Lesson 12","Lesson 13","Lesson 14","Lesson 15","Lesson 16","Lesson 17","Lesson 18","Lesson 19","Lesson 20","Lesson 21","Lesson 22","Lesson 23"]
     },
    
     "filter":{
         "search_text":"show resources for",
         "filter_box_title":"Filters",
         "reset_text":"reset",
         "filter_header":"Filter by",
         "left_tab":"Content",
         "right_tab":"Standards"
    },

  "teacher": [
    {
      "title": "Practice",
      "enable": true,
      "routeKey": "practice",
      "color": "#ef75a7",
      "results_title": "Practice",
      "remove": "no",
      "moreInfo": "Reproducible activity sheets for differentiated instruction; one page of each type per lesson."
    },
    {
      "title": "Reteach",
      "enable": true,
      "routeKey": "reteach",
      "color": "#f2a900",
      "results_title": "Reteach",
      "remove": "no",
      "moreInfo": "Reproducible activity sheets for differentiated instruction; one page of each type per lesson."
    },
    {
      "title": "Challenge",
      "enable": true,
      "routeKey": "challenge",
      "color": "#fb6400",
      "results_title": "Challenge",
      "remove": "no",
      "moreInfo": "Reproducible activity sheets for differentiated instruction; one page of each type per lesson."
    },
    {
      "title": "RtI",
      "enable": true,
      "routeKey": "rti",
      "color": "#45debe",
      "results_title": "RtI",
      "remove": "no",
      "moreInfo": "Summative and diagnostic assessment and appropriate intervention activities for each Big Idea; Tier 1 and Tier are interactive digital activities and Tier 3 consists of one-on-one teacher interviews and discussion."
    },
    {
      "title": "Online Fluency Builders",
      "enable": true,
      "routeKey": "fluencybuilders",
      "color": "#a6ce39",
      "results_title": "Online Fluency Builders",
      "remove": "no",
      "moreInfo": "Digital exercises to support computational fluency provide practice opportunities at grade level, from previous grades, and to prepare for the next grade."
    },
    {
      "title": "Games",
      "enable": true,
      "routeKey": "games",
      "color": "#ed1b2f",
      "results_title": "Games",
      "black_line_color":"#760512",
      "remove": "no",
       "moreInfo": "Game-based, small-group student practice; one per unit.<gameboards>Immersive educational video games to practice math concepts; correlated to individual lessons."
    
    },
    {
      "title": "PMT Lesson Checks",
      "enable": true,
      "routeKey": "lessonchecks",
      "color": "#8757c1",
      "results_title": "PMT Lesson Checks",
      "remove": "no",
      "moreInfo": "Digital assignments aligned to Math Expressions lessons to differentiate instruction."
    },
    {
      "title": "Activity Cards",
      "enable": true,
      "routeKey": "activitycards",
      "color": "#5c9426",
      "results_title": "Math Activity Center Cards",
      "remove": "no",
      "moreInfo": "Reinforcement and extension of mathematical concepts and skills with activities and writing prompts at intervention, on-level, and challenge levels; one each per lesson."
    },
    {
      "title": "Math Readers",
      "enable": true,
      "routeKey": "mathreader",
      "color": "#0094ae",
      "results_title": "Math Readers",
      "remove": "no",
      "moreInfo": "Fiction and non-fiction stories for math connection; one per unit."
    },
    {
      "title": "Center Planning Guide",
      "enable": true,
      "routeKey": "planningguide",
      "color": "#b67c24",
      "results_title": "",
      "remove": "no",
      "moreInfo": "Information and lesson plan assistance for the teacher."
    },
    {
      "title": "In-Depth Inquiry Based Tasks",
      "enable": true,
      "routeKey": "inquirybasedtasks",
       "black_line_color":"#204d90",
      "color": "#7ec3f8",
      "results_title": "Inquiry Based Tasks",
      "remove": "no",
      "moreInfo": "Individual and group cumulative tasks; one per unit."
    },
    {
      "title": "TBD",
      "enable": true,
      "routeKey": "TBD",
      "color": "#982156",
      "results_title": "TBD",
      "remove": "yes"
    }
  ],
  "student": [
    {
      "title": "Lesson Practice",
      "enable": true,
      "color": "#ee4e93",
      "routeKey": "practice",
      "landing_tile_border_color": "#ac3f6c",
            "header_background_color":"#ED4E92",
            "tile_color":"#f27caf",
            "tile_border_color":"#ED4E92" ,       
       "remove": "no"
    },
    {
      "title": "Lesson Challenge",
      "enable": true,
      "color": "#fb6400",
      "routeKey": "challenge",
      "border_color": "#c04c00",
 "landing_tile_border_color": "#c04c00",
            "header_background_color":"#fb6400",
            "tile_color":"#ff8f44",
            "tile_border_color":"#f15a22" ,
       "remove": "no"
    },
    {
      "title": "Lesson Checks",
      "enable": true,
      "color": "#7D63CE",
         "routeKey": "lessonchecks",
      "border_color": "#4b2875",
  "landing_tile_border_color": "#4b2875",
            "header_background_color":"#8757c1",
            "tile_color":"#b087e1",
            "tile_border_color":"#8757c1" ,
       "remove": "no"
    },
    {
      "title": "Math Readers",
      "enable": true,
      "color": "#0094ae",
      "routeKey": "mathreader",
      "border_color": "#005260",
 "landing_tile_border_color": "#005260",
            "header_background_color":"#0094ae",
            "tile_color":"#00accd",
            "tile_border_color":"#0094ae" ,
       "remove": "no"
    },
    {
      "title": "Games",
      "enable": true,
      "color": "#ed1b2f",
      "routeKey": "games",
      "border_color": "#b41222",
  "landing_tile_border_color": "#b41222",
            "header_background_color":"#ff0000",
            "tile_color":"#ff7f7f",
            "tile_border_color":"#ff0000" ,
       "remove": "no"
    },
    {
      "title": "Fluency Practice",
      "enable": true,
      "color": "#6ba300",
     "routeKey": "fluencybuilders",
      "border_color": "#426500",
    "landing_tile_border_color": "#426500",
            "header_background_color":"#6ba300",
            "tile_color":"#a6ce39",
            "tile_border_color":"#6ba300" ,
       "remove": "no"
    }
  ]
}