{
  "isbn": "123",
  "program": "123",
  "grade": "123",
  "non_grade_title": "123",
  "programType": "ela",
  "teacher": [
    {
      "component": "Core Resources",
      "libraryItems": [
        {
          "id": "9781328787040-00001",
          "card": 15,
          "HMH_ID": "MXCC_NA18E_RI1_G0KU01B01S14_0001",
          "media_type": "HTML",
          "parent_resource_id": "",
          "se_facing": false,
          "sort_id": "",
          "relative_url": "/content/hsp/math/mx2018/na/grk/rti_tier1_9781328787040_/u1/bi1/index.html",
          "categorization": "Interactive Content",
          "tool_type": "",
          "meaningful_description": "Tier 1 Intervention skills and concepts: counting numbers 1 through 5; matching sounds with numbers; matching objects with numbers.",
          "display_title": "Tier 1 Interactive: Counting and Cardinality 1-5",
          "component_type": "RtI",
          "standards": "",
        "bigidea": "Big Idea 1",
          "component": "RtI",
          "dashboardGroup": "Core Resources"
        },
        {
          "id": "9781328787040-00002",
          "card": 15,
          "HMH_ID": "MXCC_NA18E_RI1_G0KU01B02S14_0002",
          "media_type": "HTML",
          "parent_resource_id": "",
          "se_facing": false,
          "sort_id": "",
          "relative_url": "/content/hsp/math/mx2018/na/grk/rti_tier1_9781328787040_/u1/bi2/index.html",
          "categorization": "Interactive Content",
          "tool_type": "",
          "meaningful_description": "Tier 1 Intervention skills and concepts: add and subtract with counters; compare numbers.",
          "display_title": "Tier 1 Interactive: Adding, Subtracting, and Comparing Through 5",
          "component_type": "RtI",
          "standards": "",
        "bigidea": "Big Idea 2",
          "component": "RtI",
          "dashboardGroup": "Core Resources"
        },
        {
          "id": "9781328787040-00003",
          "card": 15,
          "HMH_ID": "MXCC_NA18E_RI1_G0KU01B03S14_0003",
          "media_type": "HTML",
          "parent_resource_id": "",
          "se_facing": false,
          "sort_id": "",
          "relative_url": "/content/hsp/math/mx2018/na/grk/rti_tier1_9781328787040_/u1/bi3/index.html",
          "categorization": "Interactive Content",
          "tool_type": "",
          "meaningful_description": "Tier 1 Intervention skills and concepts: comparing numbers.",
          "display_title": "Tier 1 Interactive: Show Numbers 1 Through 10",
          "component_type": "RtI",
          "standards": "",
        "bigidea": "Big Idea 3",
          "component": "RtI",
          "dashboardGroup": "Core Resources"
        },
        {
          "id": "9781328787040-00004",
          "card": 15,
          "HMH_ID": "MXCC_NA18E_RI1_G0KU01B04S14_0004",
          "media_type": "HTML",
          "parent_resource_id": "",
          "se_facing": false,
          "sort_id": "",
          "relative_url": "/content/hsp/math/mx2018/na/grk/rti_tier1_9781328787040_/u1/bi4/index.html",
          "categorization": "Interactive Content",
          "tool_type": "",
          "meaningful_description": "Tier 1 Intervention skills and concepts: comparing numbers.",
          "display_title": "Tier 1 Interactive: Practice Numbers 1 Through 10",
          "component_type": "RtI",
          "standards": "",
        "bigidea": "Big Idea 4",
          "component": "RtI",
          "dashboardGroup": "Core Resources"
        },
        {
          "id": "9781328787040-00005",
          "card": 15,
          "HMH_ID": "MXCC_NA18E_RI1_G0KU02B01S14_0005",
          "media_type": "HTML",
          "parent_resource_id": "",
          "se_facing": false,
          "sort_id": "",
          "relative_url": "/content/hsp/math/mx2018/na/grk/rti_tier1_9781328787040_/u2/bi1/index.html",
          "categorization": "Interactive Content",
          "tool_type": "",
          "meaningful_description": "Tier 1 Intervention skills and concepts: look for 5 groups in numbers.",
          "display_title": "Tier 1 Interactive: Using 5-Groups",
          "component_type": "RtI",
          "standards": "",
        "bigidea": "Big Idea 1",
          "component": "RtI",
          "dashboardGroup": "Core Resources"
        },
        {
          "id": "9781328787040-00006",
          "card": 15,
          "HMH_ID": "MXCC_NA18E_RI1_G0KU02B02S14_0006",
          "media_type": "HTML",
          "parent_resource_id": "",
          "se_facing": false,
          "sort_id": "",
          "relative_url": "/content/hsp/math/mx2018/na/grk/rti_tier1_9781328787040_/u2/bi2/index.html",
          "categorization": "Interactive Content",
          "tool_type": "",
          "meaningful_description": "Tier 1 Intervention skills and concepts: learn about groups of numbers that are equal and unequal; use the equal sign in some story problems.",
          "display_title": "Tier 1 Interactive: Addition and Subtraction Stories",
          "component_type": "RtI",
          "standards": "",
        "bigidea": "Big Idea 2",
          "component": "RtI",
          "dashboardGroup": "Core Resources"
        },
        {
          "id": "9781328787040-00007",
          "card": 15,
          "HMH_ID": "MXCC_NA18E_RI1_G0KU02B03S14_0007",
          "media_type": "HTML",
          "parent_resource_id": "",
          "se_facing": false,
          "sort_id": "",
          "relative_url": "/content/hsp/math/mx2018/na/grk/rti_tier1_9781328787040_/u2/bi3/index.html",
          "categorization": "Interactive Content",
          "tool_type": "",
          "meaningful_description": "Tier 1 Intervention skills and concepts: practice with numbers 1 through 10 and explore the +1 operation; use a rhyme to show adding 1.",
          "display_title": "Tier 1 Interactive: Practice Numbers 1 Through 10, The + Pattern",
          "component_type": "RtI",
          "standards": "",
        "bigidea": "Big Idea 3",
          "component": "RtI",
          "dashboardGroup": "Core Resources"
        },
        {
          "id": "9781328787040-00008",
          "card": 15,
          "HMH_ID": "MXCC_NA18E_RI1_G0KU02B04S14_0008",
          "media_type": "HTML",
          "parent_resource_id": "",
          "se_facing": false,
          "sort_id": "",
          "relative_url": "/content/hsp/math/mx2018/na/grk/rti_tier1_9781328787040_/u2/bi4/index.html",
          "categorization": "Interactive Content",
          "tool_type": "",
          "meaningful_description": "Tier 1 Intervention skills and concepts: practice with numbers 1 through 10 and explore the -1 pattern between numbers; use story problems to practice the minus 1 pattern.",
          "display_title": "Tier 1 Interactive: Numbers 1 Through 10, The - Pattern",
          "component_type": "RtI",
          "standards": "",
        "bigidea": "Big Idea 4",
          "component": "RtI",
          "dashboardGroup": "Core Resources"
        },
        {
          "id": "9781328787040-00009",
          "card": 15,
          "HMH_ID": "MXCC_NA18E_RI1_G0KU03B01S14_0009",
          "media_type": "HTML",
          "parent_resource_id": "",
          "se_facing": false,
          "sort_id": "",
          "relative_url": "/content/hsp/math/mx2018/na/grk/rti_tier1_9781328787040__/u3/bi1/index.html",
          "categorization": "Interactive Content",
          "tool_type": "",
          "meaningful_description": "Tier 1 Intervention skills and concepts: finding group of 10 in teen numbers.",
          "display_title": "Tier 1 Interactive: Partners of 5 and 6",
          "component_type": "RtI",
          "standards": "",
        "bigidea": "Big Idea 1",
          "component": "RtI",
          "dashboardGroup": "Core Resources"
        },
        {
          "id": "9781328787040-00010",
          "card": 15,
          "HMH_ID": "MXCC_NA18E_RI1_G0KU03B02S14_0010",
          "media_type": "HTML",
          "parent_resource_id": "",
          "se_facing": false,
          "sort_id": "",
          "relative_url": "/content/hsp/math/mx2018/na/grk/rti_tier1_9781328787040__/u3/bi2/index.html",
          "categorization": "Interactive Content",
          "tool_type": "",
          "meaningful_description": "Tier 1 Intervention skills and concepts: classifying.",
          "display_title": "Tier 1 Interactive: Classifying",
          "component_type": "RtI",
          "standards": "",
        "bigidea": "Big Idea 2",
          "component": "RtI",
          "dashboardGroup": "Core Resources"
        },
        {
          "id": "9781328787040-00011",
          "card": 15,
          "HMH_ID": "MXCC_NA18E_RI1_G0KU03B03S14_0011",
          "media_type": "HTML",
          "parent_resource_id": "",
          "se_facing": false,
          "sort_id": "",
          "relative_url": "/content/hsp/math/mx2018/na/grk/rti_tier1_9781328787040__/u3/bi3/index.html",
          "categorization": "Interactive Content",
          "tool_type": "",
          "meaningful_description": "Tier 1 Intervention skills and concepts: teen numbers.",
          "display_title": "Tier 1 Interactive: Tens in Teen Numbers",
          "component_type": "RtI",
          "standards": "",
        "bigidea": "Big Idea 3",
          "component": "RtI",
          "dashboardGroup": "Core Resources"
        },
        {
          "id": "9781328787040-00012",
          "card": 15,
          "HMH_ID": "MXCC_NA18E_RI1_G0KU03B04S14_0012",
          "media_type": "HTML",
          "parent_resource_id": "",
          "se_facing": false,
          "sort_id": "",
          "relative_url": "/content/hsp/math/mx2018/na/grk/rti_tier1_9781328787040__/u3/bi4/index.html",
          "categorization": "Interactive Content",
          "tool_type": "",
          "meaningful_description": "Tier 1 Intervention skills and concepts: partners of teen numbers; add and subtract.",
          "display_title": "Tier 1 Interactive: Build Teen Numbers",
          "component_type": "RtI",
          "standards": "",
        "bigidea": "Big Idea 4",
          "component": "RtI",
          "dashboardGroup": "Core Resources"
        },
        {
          "id": "9781328787040-00013",
          "card": 15,
          "HMH_ID": "MXCC_NA18E_RI1_G0KU04B01S14_0013",
          "media_type": "HTML",
          "parent_resource_id": "",
          "se_facing": false,
          "sort_id": "",
          "relative_url": "/content/hsp/math/mx2018/na/grk/rti_tier1_9781328787040_/u4/bi1/index.html",
          "categorization": "Interactive Content",
          "tool_type": "",
          "meaningful_description": "Tier 1 Intervention skills and concepts: addition and subtraction story problems.",
          "display_title": "Tier 1 Interactive: Story Problems and Equations",
          "component_type": "RtI",
          "standards": "",
        "bigidea": "Big Idea 1",
          "component": "RtI",
          "dashboardGroup": "Core Resources"
        },
        {
          "id": "9781328787040-00014",
          "card": 15,
          "HMH_ID": "MXCC_NA18E_RI1_G0KU04B02S14_0014",
          "media_type": "HTML",
          "parent_resource_id": "",
          "se_facing": false,
          "sort_id": "",
          "relative_url": "/content/hsp/math/mx2018/na/grk/rti_tier1_9781328787040_/u4/bi2/index.html",
          "categorization": "Interactive Content",
          "tool_type": "",
          "meaningful_description": "Tier 1 Intervention skills and concepts: compare numbers that are greater and numbers that are less.",
          "display_title": "Tier 1 Interactive: Practice with Comparing",
          "component_type": "RtI",
          "standards": "",
        "bigidea": "Big Idea 2",
          "component": "RtI",
          "dashboardGroup": "Core Resources"
        },
        {
          "id": "9781328787040-00015",
          "card": 15,
          "HMH_ID": "MXCC_NA18E_RI1_G0KU04B03S14_0015",
          "media_type": "HTML",
          "parent_resource_id": "",
          "se_facing": false,
          "sort_id": "",
          "relative_url": "/content/hsp/math/mx2018/na/grk/rti_tier1_9781328787040_/u4/bi3/index.html",
          "categorization": "Interactive Content",
          "tool_type": "",
          "meaningful_description": "Tier 1 Intervention skills and concepts: show teen numbers; show a teen number using counters.",
          "display_title": "Tier 1 Interactive: Equations and Teen Numbers",
          "component_type": "RtI",
          "standards": "",
        "bigidea": "Big Idea 3",
          "component": "RtI",
          "dashboardGroup": "Core Resources"
        },
        {
          "id": "9781328787040-00016",
          "card": 15,
          "HMH_ID": "MXCC_NA18E_RI1_G0KU04B04S14_0016",
          "media_type": "HTML",
          "parent_resource_id": "",
          "se_facing": false,
          "sort_id": "",
          "relative_url": "/content/hsp/math/mx2018/na/grk/rti_tier1_9781328787040_/u4/bi4/index.html",
          "categorization": "Interactive Content",
          "tool_type": "",
          "meaningful_description": "Tier 1 Intervention skills and concepts: find and write partners for numbers through ten; look at a set of partners for six.",
          "display_title": "Tier 1 Interactive: Equations for Partners",
          "component_type": "RtI",
          "standards": "",
        "bigidea": "Big Idea 4",
          "component": "RtI",
          "dashboardGroup": "Core Resources"
        },
        {
          "id": "9781328787040-00017",
          "card": 15,
          "HMH_ID": "MXCC_NA18E_RI1_G0KU05B01S14_0017",
          "media_type": "HTML",
          "parent_resource_id": "",
          "se_facing": false,
          "sort_id": "",
          "relative_url": "/content/hsp/math/mx2018/na/grk/rti_tier1_9781328787040_/u5/bi1/index.html",
          "categorization": "Interactive Content",
          "tool_type": "",
          "meaningful_description": "Tier 1 Intervention skills and concepts: group objects and count by tens to one hundred.",
          "display_title": "Tier 1 Interactive: More Partners of 10",
          "component_type": "RtI",
          "standards": "",
        "bigidea": "Big Idea 1",
          "component": "RtI",
          "dashboardGroup": "Core Resources"
        },
        {
          "id": "9781328787040-00018",
          "card": 15,
          "HMH_ID": "MXCC_NA18E_RI1_G0KU05B02S14_0018",
          "media_type": "HTML",
          "parent_resource_id": "",
          "se_facing": false,
          "sort_id": "",
          "relative_url": "/content/hsp/math/mx2018/na/grk/rti_tier1_9781328787040_/u5/bi2/index.html",
          "categorization": "Interactive Content",
          "tool_type": "",
          "meaningful_description": "Tier 1 Intervention skills and concepts: numbers one through twenty.",
          "display_title": "Tier 1 Interactive: Numbers 1 Through 20",
          "component_type": "RtI",
          "standards": "",
        "bigidea": "Big Idea 2",
          "component": "RtI",
          "dashboardGroup": "Core Resources"
        },
        {
          "id": "9781328787040-00019",
          "card": 15,
          "HMH_ID": "MXCC_NA18E_RI1_G0KU05B03S14_0019",
          "media_type": "HTML",
          "parent_resource_id": "",
          "se_facing": false,
          "sort_id": "",
          "relative_url": "/content/hsp/math/mx2018/na/grk/rti_tier1_9781328787040_/u5/bi3/index.html",
          "categorization": "Interactive Content",
          "tool_type": "",
          "meaningful_description": "Tier 1 Intervention skills and concepts: partners of ten.",
          "display_title": "Tier 1 Interactive: More Teen Numbers and Partners",
          "component_type": "RtI",
          "standards": "",
        "bigidea": "Big Idea 3",
          "component": "RtI",
          "dashboardGroup": "Core Resources"
        },
        {
          "id": "9781328787040-00020",
          "card": 15,
          "HMH_ID": "MXCC_NA18E_RI1_G0KU05B04S14_0020",
          "media_type": "HTML",
          "parent_resource_id": "",
          "se_facing": false,
          "sort_id": "",
          "relative_url": "/content/hsp/math/mx2018/na/grk/rti_tier1_9781328787040_/u5/bi4/index.html",
          "categorization": "Interactive Content",
          "tool_type": "",
          "meaningful_description": "Tier 1 Intervention skills and concepts: solve addition and subtraction story problems.",
          "display_title": "Tier 1 Interactive: More Story Problems and Equations",
          "component_type": "RtI",
          "standards": "",
        "bigidea": "Big Idea 4",
          "component": "RtI",
          "dashboardGroup": "Core Resources"
        },
		{
          "id": "9781328787118-00001",
          "card": 15,
          "HMH_ID": "MXCC_NA18E_RI2_G0KU01B01S14_0001",
          "media_type": "HTML",
          "parent_resource_id": "",
          "se_facing": false,
          "sort_id": "",
          "relative_url": "/content/hsp/math/mx2018/na/grk/rti_tier2_9781328787118_/u1/bi1/index.html",
          "categorization": "Interactive Content",
          "tool_type": "",
          "meaningful_description": "Tier 2 Intervention skills and concepts: numbers 1 through 5.",
          "display_title": "Tier 2 Interactive: Counting and Cardinality 1-5",
          "component_type": "RtI",
          "standards": "",
        "bigidea": "Big Idea 1",
          "component": "RtI",
          "dashboardGroup": "Core Resources"
        },
        {
          "id": "9781328787118-00002",
          "card": 15,
          "HMH_ID": "MXCC_NA18E_RI2_G0KU01B02S14_0002",
          "media_type": "HTML",
          "parent_resource_id": "",
          "se_facing": false,
          "sort_id": "",
          "relative_url": "/content/hsp/math/mx2018/na/grk/rti_tier2_9781328787118_/u1/bi2/index.html",
          "categorization": "Interactive Content",
          "tool_type": "",
          "meaningful_description": "Tier 2 Intervention skills and concepts: learn about different ways to show a number; order numbers 1 through 5; explore shapes.",
          "display_title": "Tier 2 Interactive: Adding, Subtracting, and Comparing Through 5",
          "component_type": "RtI",
          "standards": "",
        "bigidea": "Big Idea 2",
          "component": "RtI",
          "dashboardGroup": "Core Resources"
        },
        {
          "id": "9781328787118-00003",
          "card": 15,
          "HMH_ID": "MXCC_NA18E_RI2_G0KU01B03S14_0003",
          "media_type": "HTML",
          "parent_resource_id": "",
          "se_facing": false,
          "sort_id": "",
          "relative_url": "/content/hsp/math/mx2018/na/grk/rti_tier2_9781328787118_/u1/bi3/index.html",
          "categorization": "Interactive Content",
          "tool_type": "",
          "meaningful_description": "Tier 2 Intervention skills and concepts: counting from 1 to 10 and counting groups of 3 and 4.",
          "display_title": "Tier 2 Interactive: Show Numbers 1 Through 10",
          "component_type": "RtI",
          "standards": "",
        "bigidea": "Big Idea 3",
          "component": "RtI",
          "dashboardGroup": "Core Resources"
        },
        {
          "id": "9781328787118-00004",
          "card": 15,
          "HMH_ID": "MXCC_NA18E_RI2_G0KU01B04S14_0004",
          "media_type": "HTML",
          "parent_resource_id": "",
          "se_facing": false,
          "sort_id": "",
          "relative_url": "/content/hsp/math/mx2018/na/grk/rti_tier2_9781328787118_/u1/bi4/index.html",
          "categorization": "Interactive Content",
          "tool_type": "",
          "meaningful_description": "Tier 2 Intervention skills and concepts: counting groups of items and counting in order.",
          "display_title": "Tier 2 Interactive: Practice Numbers 1 Through 10",
          "component_type": "RtI",
          "standards": "",
        "bigidea": "Big Idea 4",
          "component": "RtI",
          "dashboardGroup": "Core Resources"
        },
        {
          "id": "9781328787118-00005",
          "card": 15,
          "HMH_ID": "MXCC_NA18E_RI2_G0KU02B01S14_0005",
          "media_type": "HTML",
          "parent_resource_id": "",
          "se_facing": false,
          "sort_id": "",
          "relative_url": "/content/hsp/math/mx2018/na/grk/rti_tier2_9781328787118_/u2/bi1/index.html",
          "categorization": "Interactive Content",
          "tool_type": "",
          "meaningful_description": "Tier 2 Intervention skills and concepts: 5 groups.",
          "display_title": "Tier 2 Interactive: Using 5-Groups",
          "component_type": "RtI",
          "standards": "",
        "bigidea": "Big Idea 1",
          "component": "RtI",
          "dashboardGroup": "Core Resources"
        },
        {
          "id": "9781328787118-00006",
          "card": 15,
          "HMH_ID": "MXCC_NA18E_RI2_G0KU02B02S14_0006",
          "media_type": "HTML",
          "parent_resource_id": "",
          "se_facing": false,
          "sort_id": "",
          "relative_url": "/content/hsp/math/mx2018/na/grk/rti_tier2_9781328787118_/u2/bi2/index.html",
          "categorization": "Interactive Content",
          "tool_type": "",
          "meaningful_description": "Tier 2 Intervention skills and concepts: counting to 10 in order and making groups of 6, 7 and 8.",
          "display_title": "Tier 2 Interactive: Addition and Subtraction Stories",
          "component_type": "RtI",
          "standards": "",
        "bigidea": "Big Idea 2",
          "component": "RtI",
          "dashboardGroup": "Core Resources"
        },
        {
          "id": "9781328787118-00007",
          "card": 15,
          "HMH_ID": "MXCC_NA18E_RI2_G0KU02B03S14_0007",
          "media_type": "HTML",
          "parent_resource_id": "",
          "se_facing": false,
          "sort_id": "",
          "relative_url": "/content/hsp/math/mx2018/na/grk/rti_tier2_9781328787118_/u2/bi3/index.html",
          "categorization": "Interactive Content",
          "tool_type": "",
          "meaningful_description": "Tier 2 Intervention skills and concepts: counting groups of 9 and 10; exploring shapes.",
          "display_title": "Tier 2 Interactive: Practice Numbers 1 Through 10, The + Pattern",
          "component_type": "RtI",
          "standards": "",
        "bigidea": "Big Idea 3",
          "component": "RtI",
          "dashboardGroup": "Core Resources"
        },
        {
          "id": "9781328787118-00008",
          "card": 15,
          "HMH_ID": "MXCC_NA18E_RI2_G0KU02B04S14_0008",
          "media_type": "HTML",
          "parent_resource_id": "",
          "se_facing": false,
          "sort_id": "",
          "relative_url": "/content/hsp/math/mx2018/na/grk/rti_tier2_9781328787118_/u2/bi4/index.html",
          "categorization": "Interactive Content",
          "tool_type": "",
          "meaningful_description": "Tier 2 Intervention skills and concepts: hexagons.",
          "display_title": "Tier 2 Interactive: Numbers 1 Through 10, The - Pattern",
          "component_type": "RtI",
          "standards": "",
        "bigidea": "Big Idea 4",
          "component": "RtI",
          "dashboardGroup": "Core Resources"
        },
        {
          "id": "9781328787118-00009",
          "card": 15,
          "HMH_ID": "MXCC_NA18E_RI2_G0KU03B01S14_0009",
          "media_type": "HTML",
          "parent_resource_id": "",
          "se_facing": false,
          "sort_id": "",
          "relative_url": "/content/hsp/math/mx2018/na/grk/rti_tier2_9781328787118__/u3/bi1/index.html",
          "categorization": "Interactive Content",
          "tool_type": "",
          "meaningful_description": "Tier 2 Intervention skills and concepts: showing partners of numbers and showing numbers using 5-groups.",
          "display_title": "Tier 2 Interactive: Partners of 5 and 6",
          "component_type": "RtI",
          "standards": "",
        "bigidea": "Big Idea 1",
          "component": "RtI",
          "dashboardGroup": "Core Resources"
        },
        {
          "id": "9781328787118-00010",
          "card": 15,
          "HMH_ID": "MXCC_NA18E_RI2_G0KU03B02S14_0010",
          "media_type": "HTML",
          "parent_resource_id": "",
          "se_facing": false,
          "sort_id": "",
          "relative_url": "/content/hsp/math/mx2018/na/grk/rti_tier2_9781328787118__/u3/bi2/index.html",
          "categorization": "Interactive Content",
          "tool_type": "",
          "meaningful_description": "Tier 2 Intervention skills and concepts: classifying by color and shape; using words like \"beside\" and \"below\" to describe the position of objects.",
          "display_title": "Tier 2 Interactive: Classifying",
          "component_type": "RtI",
          "standards": "",
        "bigidea": "Big Idea 2",
          "component": "RtI",
          "dashboardGroup": "Core Resources"
        },
        {
          "id": "9781328787118-00011",
          "card": 15,
          "HMH_ID": "MXCC_NA18E_RI2_G0KU03B03S14_0011",
          "media_type": "HTML",
          "parent_resource_id": "",
          "se_facing": false,
          "sort_id": "",
          "relative_url": "/content/hsp/math/mx2018/na/grk/rti_tier2_9781328787118__/u3/bi3/index.html",
          "categorization": "Interactive Content",
          "tool_type": "",
          "meaningful_description": "Tier 2 Intervention skills and concepts: show partners of numbers.",
          "display_title": "Tier 2 Interactive: Tens in Teen Numbers",
          "component_type": "RtI",
          "standards": "",
        "bigidea": "Big Idea 3",
          "component": "RtI",
          "dashboardGroup": "Core Resources"
        },
        {
          "id": "9781328787118-00012",
          "card": 15,
          "HMH_ID": "MXCC_NA18E_RI2_G0KU03B04S14_0012",
          "media_type": "HTML",
          "parent_resource_id": "",
          "se_facing": false,
          "sort_id": "",
          "relative_url": "/content/hsp/math/mx2018/na/grk/rti_tier2_9781328787118__/u3/bi4/index.html",
          "categorization": "Interactive Content",
          "tool_type": "",
          "meaningful_description": "Tier 2 Intervention skills and concepts: build teen numbers.",
          "display_title": "Tier 2 Interactive: Build Teen Numbers",
          "component_type": "RtI",
          "standards": "",
        "bigidea": "Big Idea 4",
          "component": "RtI",
          "dashboardGroup": "Core Resources"
        },
        {
          "id": "9781328787118-00013",
          "card": 15,
          "HMH_ID": "MXCC_NA18E_RI2_G0KU04B01S14_0013",
          "media_type": "HTML",
          "parent_resource_id": "",
          "se_facing": false,
          "sort_id": "",
          "relative_url": "/content/hsp/math/mx2018/na/grk/rti_tier2_9781328787118_/u4/bi1/index.html",
          "categorization": "Interactive Content",
          "tool_type": "",
          "meaningful_description": "Tier 2 Intervention skills and concepts: sorting and comparing numbers; sort different objects into two groups.",
          "display_title": "Tier 2 Interactive: Story Problems and Equations",
          "component_type": "RtI",
          "standards": "",
        "bigidea": "Big Idea 1",
          "component": "RtI",
          "dashboardGroup": "Core Resources"
        },
        {
          "id": "9781328787118-00014",
          "card": 15,
          "HMH_ID": "MXCC_NA18E_RI2_G0KU04B02S14_0014",
          "media_type": "HTML",
          "parent_resource_id": "",
          "se_facing": false,
          "sort_id": "",
          "relative_url": "/content/hsp/math/mx2018/na/grk/rti_tier2_9781328787118_/u4/bi2/index.html",
          "categorization": "Interactive Content",
          "tool_type": "",
          "meaningful_description": "Tier 2 Intervention skills and concepts: make ten-sticks.",
          "display_title": "Tier 2 Interactive: Practice with Comparing",
          "component_type": "RtI",
          "standards": "",
        "bigidea": "Big Idea 2",
          "component": "RtI",
          "dashboardGroup": "Core Resources"
        },
        {
          "id": "9781328787118-00015",
          "card": 15,
          "HMH_ID": "MXCC_NA18E_RI2_G0KU04B03S14_0015",
          "media_type": "HTML",
          "parent_resource_id": "",
          "se_facing": false,
          "sort_id": "",
          "relative_url": "/content/hsp/math/mx2018/na/grk/rti_tier2_9781328787118_/u4/bi3/index.html",
          "categorization": "Interactive Content",
          "tool_type": "",
          "meaningful_description": "Tier 2 Intervention skills and concepts: add and subtract with numbers through five.",
          "display_title": "Tier 2 Interactive: Equations and Teen Numbers",
          "component_type": "RtI",
          "standards": "",
        "bigidea": "Big Idea 3",
          "component": "RtI",
          "dashboardGroup": "Core Resources"
        },
        {
          "id": "9781328787118-00016",
          "card": 15,
          "HMH_ID": "MXCC_NA18E_RI2_G0KU04B04S14_0016",
          "media_type": "HTML",
          "parent_resource_id": "",
          "se_facing": false,
          "sort_id": "",
          "relative_url": "/content/hsp/math/mx2018/na/grk/rti_tier2_9781328787118_/u4/bi4/index.html",
          "categorization": "Interactive Content",
          "tool_type": "",
          "meaningful_description": "Tier 2 Intervention skills and concepts: put numbers one through ten in counting order.",
          "display_title": "Tier 2 Interactive: Equations for Partners",
          "component_type": "RtI",
          "standards": "",
        "bigidea": "Big Idea 4",
          "component": "RtI",
          "dashboardGroup": "Core Resources"
        },
        {
          "id": "9781328787118-00017",
          "card": 15,
          "HMH_ID": "MXCC_NA18E_RI2_G0KU05B01S14_0017",
          "media_type": "HTML",
          "parent_resource_id": "",
          "se_facing": false,
          "sort_id": "",
          "relative_url": "/content/hsp/math/mx2018/na/grk/rti_tier2_9781328787118_/u5/bi1/index.html",
          "categorization": "Interactive Content",
          "tool_type": "",
          "meaningful_description": "Tier 2 Intervention skills and concepts: numbers through ten with a five-group and extra ones.",
          "display_title": "Tier 2 Interactive: More Partners of 10",
          "component_type": "RtI",
          "standards": "",
        "bigidea": "Big Idea 1",
          "component": "RtI",
          "dashboardGroup": "Core Resources"
        },
        {
          "id": "9781328787118-00018",
          "card": 15,
          "HMH_ID": "MXCC_NA18E_RI2_G0KU05B02S14_0018",
          "media_type": "HTML",
          "parent_resource_id": "",
          "se_facing": false,
          "sort_id": "",
          "relative_url": "/content/hsp/math/mx2018/na/grk/rti_tier2_9781328787118_/u5/bi2/index.html",
          "categorization": "Interactive Content",
          "tool_type": "",
          "meaningful_description": "Tier 2 Intervention skills and concepts: count and order numbers one through twenty.",
          "display_title": "Tier 2 Interactive: Numbers 1 Through 20",
          "component_type": "RtI",
          "standards": "",
        "bigidea": "Big Idea 2",
          "component": "RtI",
          "dashboardGroup": "Core Resources"
        },
        {
          "id": "9781328787118-00019",
          "card": 15,
          "HMH_ID": "MXCC_NA18E_RI2_G0KU05B03S14_0019",
          "media_type": "HTML",
          "parent_resource_id": "",
          "se_facing": false,
          "sort_id": "",
          "relative_url": "/content/hsp/math/mx2018/na/grk/rti_tier2_9781328787118_/u5/bi3/index.html",
          "categorization": "Interactive Content",
          "tool_type": "",
          "meaningful_description": "Tier 2 Intervention skills and concepts: name and create teen numbers with ten ones and extra ones.",
          "display_title": "Tier 2 Interactive: More Teen Numbers and Partners",
          "component_type": "RtI",
          "standards": "",
        "bigidea": "Big Idea 3",
          "component": "RtI",
          "dashboardGroup": "Core Resources"
        },
        {
          "id": "9781328787118-00020",
          "card": 15,
          "HMH_ID": "MXCC_NA18E_RI2_G0KU05B04S14_0020",
          "media_type": "HTML",
          "parent_resource_id": "",
          "se_facing": false,
          "sort_id": "",
          "relative_url": "/content/hsp/math/mx2018/na/grk/rti_tier2_9781328787118_/u5/bi4/index.html",
          "categorization": "Interactive Content",
          "tool_type": "",
          "meaningful_description": "Tier 2 Intervention skills and concepts: compare numbers.",
          "display_title": "Tier 2 Interactive: More Story Problems and Equations",
          "component_type": "RtI",
          "standards": "",
        "bigidea": "Big Idea 4",
          "component": "RtI",
          "dashboardGroup": "Core Resources"
        },
        {
          "id": "9781328467232-00001",
          "card": 15,
          "HMH_ID": "MXSA_NA18E_RI3_G0KU01B01S14_0001",
          "media_type": "PDF",
          "parent_resource_id": "",
          "se_facing": false,
          "sort_id": "",
          "relative_url": "/content/hsp/math/mx2018/na_ncc/grk/rti_interactive_tier3_9781328467232_/K_MNLEAN467232_U1B1A1.pdf#page=1",
          "categorization": "Interactive Content",
          "tool_type": "",
          "meaningful_description": "During this activity, the student, upon hearing a number name, draws objects to match the number's value, showing one-to-one correspondence as he or she counts.",
          "display_title": "Tier 3 Interactive :  Counting and Cardinality 1-5 – Activity 1",
          "component_type": "RtI",
          "standards": "",
          "bigidea": "Big Idea 1",
         "component": "RtI",
          "dashboardGroup": "Core Resources"
        },
        {
          "id": "9781328467232-00002",
          "card": 15,
          "HMH_ID": "MXSA_NA18E_RI3_G0KU01B01S14_0002",
          "media_type": "PDF",
          "parent_resource_id": "",
          "se_facing": false,
          "sort_id": "",
          "relative_url": "/content/hsp/math/mx2018/na_ncc/grk/rti_interactive_tier3_9781328467232_/K_MNLEAN467232_U1B1A1.pdf#page=2",
          "categorization": "Interactive Content",
          "tool_type": "",
          "meaningful_description": "During this activity, the student says number names in correct order when counting objects.",
          "display_title": "Tier 3 Interactive :  Counting and Cardinality 1-5 – Activity 2",
          "component_type": "RtI",
          "standards": "",
          "bigidea": "Big Idea 1",
         "component": "RtI",
          "dashboardGroup": "Core Resources"
        },
        {
          "id": "9781328467232-00003",
          "card": 15,
          "HMH_ID": "MXSA_NA18E_RI3_G0KU01B02S14_0003",
          "media_type": "PDF",
          "parent_resource_id": "",
          "se_facing": false,
          "sort_id": "",
          "relative_url": "/content/hsp/math/mx2018/na_ncc/grk/rti_interactive_tier3_9781328467232_/K_MNLEAN467232_U1B2A1.pdf#page=1",
          "categorization": "Interactive Content",
          "tool_type": "",
          "meaningful_description": "During this activity, the student will say whether the number of items in one group is greater than, less than, or equal to the number of items in another group.",
          "display_title": "Tier 3 Interactive :  Adding, Subtracting, and Comparing Through 5 – Activity 1",
          "component_type": "RtI",
          "standards": "",
          "bigidea": "Big Idea 2",
         "component": "RtI",
          "dashboardGroup": "Core Resources"
        },
        {
          "id": "9781328467232-00004",
          "card": 15,
          "HMH_ID": "MXSA_NA18E_RI3_G0KU01B02S14_0004",
          "media_type": "PDF",
          "parent_resource_id": "",
          "se_facing": false,
          "sort_id": "",
          "relative_url": "/content/hsp/math/mx2018/na_ncc/grk/rti_interactive_tier3_9781328467232_/K_MNLEAN467232_U1B2A1.pdf#page=2",
          "categorization": "Interactive Content",
          "tool_type": "",
          "meaningful_description": "During this activity, the student adds to find sums to 5.",
          "display_title": "Tier 3 Interactive :  Adding, Subtracting, and Comparing Through 5 – Activity 2",
          "component_type": "RtI",
          "standards": "",
          "bigidea": "Big Idea 2",
         "component": "RtI",
          "dashboardGroup": "Core Resources"
        },
        {
          "id": "9781328467232-00005",
          "card": 15,
          "HMH_ID": "MXSA_NA18E_RI3_G0KU01B03S14_0005",
          "media_type": "PDF",
          "parent_resource_id": "",
          "se_facing": false,
          "sort_id": "",
          "relative_url": "/content/hsp/math/mx2018/na_ncc/grk/rti_interactive_tier3_9781328467232_/K_MNLEAN467232_U1B3A1.pdf#page=1",
          "categorization": "Interactive Content",
          "tool_type": "",
          "meaningful_description": "During this activity, the student will identify numbers 1 through 10 and write numbers 1, 2, 3, and 4.",
          "display_title": "Tier 3 Interactive : Show Numbers 1 Through 10 – Activity 1",
          "component_type": "RtI",
          "standards": "",
          "bigidea": "Big Idea 3",
         "component": "RtI",
          "dashboardGroup": "Core Resources"
        },
        {
          "id": "9781328467232-00006",
          "card": 15,
          "HMH_ID": "MXSA_NA18E_RI3_G0KU01B03S14_0006",
          "media_type": "PDF",
          "parent_resource_id": "",
          "se_facing": false,
          "sort_id": "",
          "relative_url": "/content/hsp/math/mx2018/na_ncc/grk/rti_interactive_tier3_9781328467232_/K_MNLEAN467232_U1B3A1.pdf#page=2",
          "categorization": "Interactive Content",
          "tool_type": "",
          "meaningful_description": "During this activity, the student will compare two numbers, 1–10, and identify the greater/ lesser number.",
          "display_title": "Tier 3 Interactive : Show Numbers 1 Through 10 – Activity 2",
          "component_type": "RtI",
          "standards": "",
          "bigidea": "Big Idea 3",
         "component": "RtI",
          "dashboardGroup": "Core Resources"
        },
        {
          "id": "9781328467232-00007",
          "card": 15,
          "HMH_ID": "MXSA_NA18E_RI3_G0KU01B04S14_0007",
          "media_type": "PDF",
          "parent_resource_id": "",
          "se_facing": false,
          "sort_id": "",
          "relative_url": "/content/hsp/math/mx2018/na_ncc/grk/rti_interactive_tier3_9781328467232_/K_MNLEAN467232_U1B4A1.pdf#page=1",
          "categorization": "Interactive Content",
          "tool_type": "",
          "meaningful_description": "During this activity, the student will order numbers by connecting dots.",
          "display_title": "Tier 3 Interactive :  Practice Numbers 1 Through 10 – Activity 1",
          "component_type": "RtI",
          "standards": "",
          "bigidea": "Big Idea 4",
         "component": "RtI",
          "dashboardGroup": "Core Resources"
        },
        {
          "id": "9781328467232-00008",
          "card": 15,
          "HMH_ID": "MXSA_NA18E_RI3_G0KU01B04S14_0008",
          "media_type": "PDF",
          "parent_resource_id": "",
          "se_facing": false,
          "sort_id": "",
          "relative_url": "/content/hsp/math/mx2018/na_ncc/grk/rti_interactive_tier3_9781328467232_/K_MNLEAN467232_U1B4A1.pdf#page=2",
          "categorization": "Interactive Content",
          "tool_type": "",
          "meaningful_description": "During this activity, the student will represent and compare numbers with a drawing.",
          "display_title": "Tier 3 Interactive :  Practice Numbers 1 Through 10 – Activity 2",
          "component_type": "RtI",
          "standards": "",
          "bigidea": "Big Idea 4",
         "component": "RtI",
          "dashboardGroup": "Core Resources"
        },
        {
          "id": "9781328467232-00009",
          "card": 15,
          "HMH_ID": "MXSA_NA18E_RI3_G0KU02B01S14_0009",
          "media_type": "PDF",
          "parent_resource_id": "",
          "se_facing": false,
          "sort_id": "",
          "relative_url": "/content/hsp/math/mx2018/na_ncc/grk/rti_interactive_tier3_9781328467232_/K_MNLEAN467232_U2B1A1.pdf#page=1",
          "categorization": "Interactive Content",
          "tool_type": "",
          "meaningful_description": "During this activity, the student identifies numbers 6 through 10 as a 5-group and more.",
          "display_title": "Tier 3 Interactive : Using 5-Groups – Activity 1",
          "component_type": "RtI",
          "standards": "",
          "bigidea": "Big Idea 1",
         "component": "RtI",
          "dashboardGroup": "Core Resources"
        },
        {
          "id": "9781328467232-00010",
          "card": 15,
          "HMH_ID": "MXSA_NA18E_RI3_G0KU02B01S14_0010",
          "media_type": "PDF",
          "parent_resource_id": "",
          "se_facing": false,
          "sort_id": "",
          "relative_url": "/content/hsp/math/mx2018/na_ncc/grk/rti_interactive_tier3_9781328467232_/K_MNLEAN467232_U2B1A1.pdf#page=2",
          "categorization": "Interactive Content",
          "tool_type": "",
          "meaningful_description": "During this activity, the student will make the numbers 6 through 10 with 5-groups.",
          "display_title": "Tier 3 Interactive : Using 5-Groups – Activity 2",
          "component_type": "RtI",
          "standards": "",
          "bigidea": "Big Idea 1",
         "component": "RtI",
          "dashboardGroup": "Core Resources"
        },
        {
          "id": "9781328467232-00011",
          "card": 15,
          "HMH_ID": "MXSA_NA18E_RI3_G0KU02B02S14_0011",
          "media_type": "PDF",
          "parent_resource_id": "",
          "se_facing": false,
          "sort_id": "",
          "relative_url": "/content/hsp/math/mx2018/na_ncc/grk/rti_interactive_tier3_9781328467232_/K_MNLEAN467232_U2B2A1.pdf#page=1",
          "categorization": "Interactive Content",
          "tool_type": "",
          "meaningful_description": "During this activity, the student solves addition and subtraction stories.",
          "display_title": "Tier 3 Interactive :  Addition and Subtraction Stories – Activity 1",
          "component_type": "RtI",
          "standards": "",
          "bigidea": "Big Idea 2",
         "component": "RtI",
          "dashboardGroup": "Core Resources"
        },
        {
          "id": "9781328467232-00012",
          "card": 15,
          "HMH_ID": "MXSA_NA18E_RI3_G0KU02B02S14_0012",
          "media_type": "PDF",
          "parent_resource_id": "",
          "se_facing": false,
          "sort_id": "",
          "relative_url": "/content/hsp/math/mx2018/na_ncc/grk/rti_interactive_tier3_9781328467232_/K_MNLEAN467232_U2B2A1.pdf#page=2",
          "categorization": "Interactive Content",
          "tool_type": "",
          "meaningful_description": "During this activity, the student will identify numbers 1 through 10 and write numbers up to 8.",
          "display_title": "Tier 3 Interactive :  Addition and Subtraction Stories – Activity 2",
          "component_type": "RtI",
          "standards": "",
          "bigidea": "Big Idea 2",
         "component": "RtI",
          "dashboardGroup": "Core Resources"
        },
        {
          "id": "9781328467232-00013",
          "card": 15,
          "HMH_ID": "MXSA_NA18E_RI3_G0KU02B03S14_0013",
          "media_type": "PDF",
          "parent_resource_id": "",
          "se_facing": false,
          "sort_id": "",
          "relative_url": "/content/hsp/math/mx2018/na_ncc/grk/rti_interactive_tier3_9781328467232_/K_MNLEAN467232_U2B3A1.pdf#page=1",
          "categorization": "Interactive Content",
          "tool_type": "",
          "meaningful_description": "During this activity, the student will understand that each number, when said in successive order, is one more than the number said before it.",
          "display_title": "Tier 3 Interactive :  Practice Numbers 1 Through 10, The + Pattern – Activity 1",
          "component_type": "RtI",
          "standards": "",
          "bigidea": "Big Idea 3",
         "component": "RtI",
          "dashboardGroup": "Core Resources"
        },
        {
          "id": "9781328467232-00014",
          "card": 15,
          "HMH_ID": "MXSA_NA18E_RI3_G0KU02B03S14_0014",
          "media_type": "PDF",
          "parent_resource_id": "",
          "se_facing": false,
          "sort_id": "",
          "relative_url": "/content/hsp/math/mx2018/na_ncc/grk/rti_interactive_tier3_9781328467232_/K_MNLEAN467232_U2B3A1.pdf#page=2",
          "categorization": "Interactive Content",
          "tool_type": "",
          "meaningful_description": "During this activity, the student identifies shapes with three sides and three corners as triangles.",
          "display_title": "Tier 3 Interactive :  Practice Numbers 1 Through 10, The + Pattern – Activity 2",
          "component_type": "RtI",
          "standards": "",
          "bigidea": "Big Idea 3",
         "component": "RtI",
          "dashboardGroup": "Core Resources"
        },
        {
          "id": "9781328467232-00015",
          "card": 15,
          "HMH_ID": "MXSA_NA18E_RI3_G0KU02B04S14_0015",
          "media_type": "PDF",
          "parent_resource_id": "",
          "se_facing": false,
          "sort_id": "",
          "relative_url": "/content/hsp/math/mx2018/na_ncc/grk/rti_interactive_tier3_9781328467232_/K_MNLEAN467232_U2B4A1.pdf#page=1",
          "categorization": "Interactive Content",
          "tool_type": "",
          "meaningful_description": "During this activity, the student will understand the - 1 relationship of numbers.",
          "display_title": "Tier 3 Interactive :  Numbers 1 Through 10, The - Pattern – Activity 1",
          "component_type": "RtI",
          "standards": "",
          "bigidea": "Big Idea 4",
         "component": "RtI",
          "dashboardGroup": "Core Resources"
        },
        {
          "id": "9781328467232-00016",
          "card": 15,
          "HMH_ID": "MXSA_NA18E_RI3_G0KU02B04S14_0016",
          "media_type": "PDF",
          "parent_resource_id": "",
          "se_facing": false,
          "sort_id": "",
          "relative_url": "/content/hsp/math/mx2018/na_ncc/grk/rti_interactive_tier3_9781328467232_/K_MNLEAN467232_U2B4A1.pdf#page=2",
          "categorization": "Interactive Content",
          "tool_type": "",
          "meaningful_description": "During this activity, the student will draw 1 less than a given number between 2 and 10.",
          "display_title": "Tier 3 Interactive :  Numbers 1 Through 10, The - Pattern – Activity 2",
          "component_type": "RtI",
          "standards": "",
          "bigidea": "Big Idea 4",
         "component": "RtI",
          "dashboardGroup": "Core Resources"
        },
        {
          "id": "9781328467232-00017",
          "card": 15,
          "HMH_ID": "MXSA_NA18E_RI3_G0KU03B01S14_0017",
          "media_type": "PDF",
          "parent_resource_id": "",
          "se_facing": false,
          "sort_id": "",
          "relative_url": "/content/hsp/math/mx2018/na_ncc/grk/rti_interactive_tier3_9781328467232_/K_MNLEAN467232_U3B1A1.pdf#page=1",
          "categorization": "Interactive Content",
          "tool_type": "",
          "meaningful_description": "During this activity, the student will find partners of numbers 2 through 6.",
          "display_title": "Tier 3 Interactive :  Partners of 5 and 6 – Activity 1",
          "component_type": "RtI",
          "standards": "",
          "bigidea": "Big Idea 1",
         "component": "RtI",
          "dashboardGroup": "Core Resources"
        },
        {
          "id": "9781328467232-00018",
          "card": 15,
          "HMH_ID": "MXSA_NA18E_RI3_G0KU03B01S14_0018",
          "media_type": "PDF",
          "parent_resource_id": "",
          "se_facing": false,
          "sort_id": "",
          "relative_url": "/content/hsp/math/mx2018/na_ncc/grk/rti_interactive_tier3_9781328467232_/K_MNLEAN467232_U3B1A1.pdf#page=2",
          "categorization": "Interactive Content",
          "tool_type": "",
          "meaningful_description": "During this activity, the student uses fives, tens, and more to represent teen numbers.",
          "display_title": "Tier 3 Interactive :  Partners of 5 and 6 – Activity 2",
          "component_type": "RtI",
          "standards": "",
          "bigidea": "Big Idea 1",
         "component": "RtI",
          "dashboardGroup": "Core Resources"
        },
        {
          "id": "9781328467232-00019",
          "card": 15,
          "HMH_ID": "MXSA_NA18E_RI3_G0KU03B02S14_0019",
          "media_type": "PDF",
          "parent_resource_id": "",
          "se_facing": false,
          "sort_id": "",
          "relative_url": "/content/hsp/math/mx2018/na_ncc/grk/rti_interactive_tier3_9781328467232_/K_MNLEAN467232_U3B2A1.pdf#page=1",
          "categorization": "Interactive Content",
          "tool_type": "",
          "meaningful_description": "During this activity, the student will sort objects by shape, color, and size.",
          "display_title": "Tier 3 Interactive :  Classifying – Activity 1",
          "component_type": "RtI",
          "standards": "",
          "bigidea": "Big Idea 2",
         "component": "RtI",
          "dashboardGroup": "Core Resources"
        },
        {
          "id": "9781328467232-00020",
          "card": 15,
          "HMH_ID": "MXSA_NA18E_RI3_G0KU03B02S14_0020",
          "media_type": "PDF",
          "parent_resource_id": "",
          "se_facing": false,
          "sort_id": "",
          "relative_url": "/content/hsp/math/mx2018/na_ncc/grk/rti_interactive_tier3_9781328467232_/K_MNLEAN467232_U3B2A1.pdf#page=2",
          "categorization": "Interactive Content",
          "tool_type": "",
          "meaningful_description": "During this activity, the student will use the equal and not-equal signs when comparing two sets of objects.",
          "display_title": "Tier 3 Interactive :  Classifying – Activity 2",
          "component_type": "RtI",
          "standards": "",
          "bigidea": "Big Idea 2",
         "component": "RtI",
          "dashboardGroup": "Core Resources"
        },
        {
          "id": "9781328467232-00021",
          "card": 15,
          "HMH_ID": "MXSA_NA18E_RI3_G0KU03B03S14_0021",
          "media_type": "PDF",
          "parent_resource_id": "",
          "se_facing": false,
          "sort_id": "",
          "relative_url": "/content/hsp/math/mx2018/na_ncc/grk/rti_interactive_tier3_9781328467232_/K_MNLEAN467232_U3B3A1.pdf#page=1",
          "categorization": "Interactive Content",
          "tool_type": "",
          "meaningful_description": "During this activity, the student will show teen numbers as ten ones and further ones.",
          "display_title": "Tier 3 Interactive :  Tens in Teen Numbers – Activity 1",
          "component_type": "RtI",
          "standards": "",
          "bigidea": "Big Idea 3",
         "component": "RtI",
          "dashboardGroup": "Core Resources"
        },
        {
          "id": "9781328467232-00022",
          "card": 15,
          "HMH_ID": "MXSA_NA18E_RI3_G0KU03B03S14_0022",
          "media_type": "PDF",
          "parent_resource_id": "",
          "se_facing": false,
          "sort_id": "",
          "relative_url": "/content/hsp/math/mx2018/na_ncc/grk/rti_interactive_tier3_9781328467232_/K_MNLEAN467232_U3B3A1.pdf#page=2",
          "categorization": "Interactive Content",
          "tool_type": "",
          "meaningful_description": "During this activity, the student recognizes teen numbers as being composed of ten ones and further ones.",
          "display_title": "Tier 3 Interactive :  Tens in Teen Numbers – Activity 2",
          "component_type": "RtI",
          "standards": "",
          "bigidea": "Big Idea 3",
         "component": "RtI",
          "dashboardGroup": "Core Resources"
        },
        {
          "id": "9781328467232-00023",
          "card": 15,
          "HMH_ID": "MXSA_NA18E_RI3_G0KU03B04S14_0023",
          "media_type": "PDF",
          "parent_resource_id": "",
          "se_facing": false,
          "sort_id": "",
          "relative_url": "/content/hsp/math/mx2018/na_ncc/grk/rti_interactive_tier3_9781328467232_/K_MNLEAN467232_U3B4A1.pdf#page=1",
          "categorization": "Interactive Content",
          "tool_type": "",
          "meaningful_description": "During this activity, the student matches teen equations with teen totals or numbers.",
          "display_title": "Tier 3 Interactive :  Build Teen Numbers – Activity 1",
          "component_type": "RtI",
          "standards": "",
          "bigidea": "Big Idea 4",
         "component": "RtI",
          "dashboardGroup": "Core Resources"
        },
        {
          "id": "9781328467232-00024",
          "card": 15,
          "HMH_ID": "MXSA_NA18E_RI3_G0KU03B04S14_0024",
          "media_type": "PDF",
          "parent_resource_id": "",
          "se_facing": false,
          "sort_id": "",
          "relative_url": "/content/hsp/math/mx2018/na_ncc/grk/rti_interactive_tier3_9781328467232_/K_MNLEAN467232_U3B4A1.pdf#page=2",
          "categorization": "Interactive Content",
          "tool_type": "",
          "meaningful_description": "During this activity, the student identifies teen numbers as 10 ones and further ones.",
          "display_title": "Tier 3 Interactive :  Build Teen Numbers – Activity 2",
          "component_type": "RtI",
          "standards": "",
          "bigidea": "Big Idea 4",
         "component": "RtI",
          "dashboardGroup": "Core Resources"
        },
        {
          "id": "9781328467232-00025",
          "card": 15,
          "HMH_ID": "MXSA_NA18E_RI3_G0KU04B01S14_0025",
          "media_type": "PDF",
          "parent_resource_id": "",
          "se_facing": false,
          "sort_id": "",
          "relative_url": "/content/hsp/math/mx2018/na_ncc/grk/rti_interactive_tier3_9781328467232_/K_MNLEAN467232_U4B1A1.pdf#page=1",
          "categorization": "Interactive Content",
          "tool_type": "",
          "meaningful_description": "During this activity, the student will show all partners of 10.",
          "display_title": "Tier 3 Interactive : Story Problems and Equations – Activity 1",
          "component_type": "RtI",
          "standards": "",
          "bigidea": "Big Idea 1",
         "component": "RtI",
          "dashboardGroup": "Core Resources"
        },
        {
          "id": "9781328467232-00026",
          "card": 15,
          "HMH_ID": "MXSA_NA18E_RI3_G0KU04B01S14_0026",
          "media_type": "PDF",
          "parent_resource_id": "",
          "se_facing": false,
          "sort_id": "",
          "relative_url": "/content/hsp/math/mx2018/na_ncc/grk/rti_interactive_tier3_9781328467232_/K_MNLEAN467232_U4B1A1.pdf#page=2",
          "categorization": "Interactive Content",
          "tool_type": "",
          "meaningful_description": "During this activity, the student solves subtraction story problems with totals between 6 and 10.",
          "display_title": "Tier 3 Interactive : Story Problems and Equations – Activity 2",
          "component_type": "RtI",
          "standards": "",
          "bigidea": "Big Idea 1",
         "component": "RtI",
          "dashboardGroup": "Core Resources"
        },
        {
          "id": "9781328467232-00027",
          "card": 15,
          "HMH_ID": "MXSA_NA18E_RI3_G0KU04B02S14_0027",
          "media_type": "PDF",
          "parent_resource_id": "",
          "se_facing": false,
          "sort_id": "",
          "relative_url": "/content/hsp/math/mx2018/na_ncc/grk/rti_interactive_tier3_9781328467232_/K_MNLEAN467232_U4B2A1.pdf#page=1",
          "categorization": "Interactive Content",
          "tool_type": "",
          "meaningful_description": "During this activity, the student uses matching and counting as strategies for comparing the number of objects in a group.",
          "display_title": "Tier 3 Interactive :  Practice with Comparing – Activity 1",
          "component_type": "RtI",
          "standards": "",
          "bigidea": "Big Idea 2",
         "component": "RtI",
          "dashboardGroup": "Core Resources"
        },
        {
          "id": "9781328467232-00028",
          "card": 15,
          "HMH_ID": "MXSA_NA18E_RI3_G0KU04B02S14_0028",
          "media_type": "PDF",
          "parent_resource_id": "",
          "se_facing": false,
          "sort_id": "",
          "relative_url": "/content/hsp/math/mx2018/na_ncc/grk/rti_interactive_tier3_9781328467232_/K_MNLEAN467232_U4B2A1.pdf#page=2",
          "categorization": "Interactive Content",
          "tool_type": "",
          "meaningful_description": "During this activity, the student will identify the unknown partner if the total number and one partner are known.",
          "display_title": "Tier 3 Interactive :  Practice with Comparing – Activity 2",
          "component_type": "RtI",
          "standards": "",
          "bigidea": "Big Idea 2",
         "component": "RtI",
          "dashboardGroup": "Core Resources"
        },
        {
          "id": "9781328467232-00029",
          "card": 15,
          "HMH_ID": "MXSA_NA18E_RI3_G0KU04B03S14_0029",
          "media_type": "PDF",
          "parent_resource_id": "",
          "se_facing": false,
          "sort_id": "",
          "relative_url": "/content/hsp/math/mx2018/na_ncc/grk/rti_interactive_tier3_9781328467232_/K_MNLEAN467232_U4B3A1.pdf#page=1",
          "categorization": "Interactive Content",
          "tool_type": "",
          "meaningful_description": "During this activity, the student adds within 6 through 10.",
          "display_title": "Tier 3 Interactive :  Equations and Teen Numbers – Activity 1",
          "component_type": "RtI",
          "standards": "",
          "bigidea": "Big Idea 3",
         "component": "RtI",
          "dashboardGroup": "Core Resources"
        },
        {
          "id": "9781328467232-00030",
          "card": 15,
          "HMH_ID": "MXSA_NA18E_RI3_G0KU04B03S14_0030",
          "media_type": "PDF",
          "parent_resource_id": "",
          "se_facing": false,
          "sort_id": "",
          "relative_url": "/content/hsp/math/mx2018/na_ncc/grk/rti_interactive_tier3_9781328467232_/K_MNLEAN467232_U4B3A1.pdf#page=2",
          "categorization": "Interactive Content",
          "tool_type": "",
          "meaningful_description": "During this activity, the student subtracts within 5.",
          "display_title": "Tier 3 Interactive :  Equations and Teen Numbers – Activity 2",
          "component_type": "RtI",
          "standards": "",
          "bigidea": "Big Idea 3",
         "component": "RtI",
          "dashboardGroup": "Core Resources"
        },
        {
          "id": "9781328467232-00031",
          "card": 15,
          "HMH_ID": "MXSA_NA18E_RI3_G0KU04B04S14_0031",
          "media_type": "PDF",
          "parent_resource_id": "",
          "se_facing": false,
          "sort_id": "",
          "relative_url": "/content/hsp/math/mx2018/na_ncc/grk/rti_interactive_tier3_9781328467232_/K_MNLEAN467232_U4B4A1.pdf#page=1",
          "categorization": "Interactive Content",
          "tool_type": "",
          "meaningful_description": "During this activity, the student will order numbers 1 through 10.",
          "display_title": "Tier 3 Interactive :  Equations for Partners – Activity 1",
          "component_type": "RtI",
          "standards": "",
          "bigidea": "Big Idea 4",
         "component": "RtI",
          "dashboardGroup": "Core Resources"
        },
        {
          "id": "9781328467232-00032",
          "card": 15,
          "HMH_ID": "MXSA_NA18E_RI3_G0KU04B04S14_0032",
          "media_type": "PDF",
          "parent_resource_id": "",
          "se_facing": false,
          "sort_id": "",
          "relative_url": "/content/hsp/math/mx2018/na_ncc/grk/rti_interactive_tier3_9781328467232_/K_MNLEAN467232_U4B4A1.pdf#page=2",
          "categorization": "Interactive Content",
          "tool_type": "",
          "meaningful_description": "During this activity, the student will recognize and represent teen numbers.",
          "display_title": "Tier 3 Interactive :  Equations for Partners – Activity 2",
          "component_type": "RtI",
          "standards": "",
          "bigidea": "Big Idea 4",
         "component": "RtI",
          "dashboardGroup": "Core Resources"
        },
        {
          "id": "9781328467232-00033",
          "card": 15,
          "HMH_ID": "MXSA_NA18E_RI3_G0KU05B01S14_0033",
          "media_type": "PDF",
          "parent_resource_id": "",
          "se_facing": false,
          "sort_id": "",
          "relative_url": "/content/hsp/math/mx2018/na_ncc/grk/rti_interactive_tier3_9781328467232_/K_MNLEAN467232_U5B1A1.pdf#page=1",
          "categorization": "Interactive Content",
          "tool_type": "",
          "meaningful_description": "During this activity, the student will show teen numbers as a group of 10 ones and extra ones.",
          "display_title": "Tier 3 Interactive :  More Partners of 10 – Activity 1",
          "component_type": "RtI",
          "standards": "",
          "bigidea": "Big Idea 1",
         "component": "RtI",
          "dashboardGroup": "Core Resources"
        },
        {
          "id": "9781328467232-00034",
          "card": 15,
          "HMH_ID": "MXSA_NA18E_RI3_G0KU05B01S14_0034",
          "media_type": "PDF",
          "parent_resource_id": "",
          "se_facing": false,
          "sort_id": "",
          "relative_url": "/content/hsp/math/mx2018/na_ncc/grk/rti_interactive_tier3_9781328467232_/K_MNLEAN467232_U5B1A1.pdf#page=2",
          "categorization": "Interactive Content",
          "tool_type": "",
          "meaningful_description": "During this activity, the student will identify unknown partner of 10 if one partner number is known.",
          "display_title": "Tier 3 Interactive :  More Partners of 10 – Activity 2",
          "component_type": "RtI",
          "standards": "",
          "bigidea": "Big Idea 1",
         "component": "RtI",
          "dashboardGroup": "Core Resources"
        },
        {
          "id": "9781328467232-00035",
          "card": 15,
          "HMH_ID": "MXSA_NA18E_RI3_G0KU05B02S14_0035",
          "media_type": "PDF",
          "parent_resource_id": "",
          "se_facing": false,
          "sort_id": "",
          "relative_url": "/content/hsp/math/mx2018/na_ncc/grk/rti_interactive_tier3_9781328467232_/K_MNLEAN467232_U5B2A1.pdf#page=1",
          "categorization": "Interactive Content",
          "tool_type": "",
          "meaningful_description": "During this activity, the student will order numbers 1 through 20.",
          "display_title": "Tier 3 Interactive :  Numbers 1 Through 20 – Activity 1",
          "component_type": "RtI",
          "standards": "",
          "bigidea": "Big Idea 2",
         "component": "RtI",
          "dashboardGroup": "Core Resources"
        },
        {
          "id": "9781328467232-00036",
          "card": 15,
          "HMH_ID": "MXSA_NA18E_RI3_G0KU05B02S14_0036",
          "media_type": "PDF",
          "parent_resource_id": "",
          "se_facing": false,
          "sort_id": "",
          "relative_url": "/content/hsp/math/mx2018/na_ncc/grk/rti_interactive_tier3_9781328467232_/K_MNLEAN467232_U5B2A1.pdf#page=2",
          "categorization": "Interactive Content",
          "tool_type": "",
          "meaningful_description": "During this activity, the student will find number partners of 7, 8, and 9.",
          "display_title": "Tier 3 Interactive :  Numbers 1 Through 20 – Activity 2",
          "component_type": "RtI",
          "standards": "",
          "bigidea": "Big Idea 2",
         "component": "RtI",
          "dashboardGroup": "Core Resources"
        },
        {
          "id": "9781328467232-00037",
          "card": 15,
          "HMH_ID": "MXSA_NA18E_RI3_G0KU05B03S14_0037",
          "media_type": "PDF",
          "parent_resource_id": "",
          "se_facing": false,
          "sort_id": "",
          "relative_url": "/content/hsp/math/mx2018/na_ncc/grk/rti_interactive_tier3_9781328467232_/K_MNLEAN467232_U5B3A1.pdf#page=1",
          "categorization": "Interactive Content",
          "tool_type": "",
          "meaningful_description": "During this activity, the student will identify how many ones are added to 10 to make a teen number.",
          "display_title": "Tier 3 Interactive :  More Teen Numbers and Partners – Activity 1",
          "component_type": "RtI",
          "standards": "",
          "bigidea": "Big Idea 3",
         "component": "RtI",
          "dashboardGroup": "Core Resources"
        },
        {
          "id": "9781328467232-00038",
          "card": 15,
          "HMH_ID": "MXSA_NA18E_RI3_G0KU05B03S14_0038",
          "media_type": "PDF",
          "parent_resource_id": "",
          "se_facing": false,
          "sort_id": "",
          "relative_url": "/content/hsp/math/mx2018/na_ncc/grk/rti_interactive_tier3_9781328467232_/K_MNLEAN467232_U5B3A1.pdf#page=2",
          "categorization": "Interactive Content",
          "tool_type": "",
          "meaningful_description": "During this activity, the student will understand that each number name ties to a quantity that is one more than the last number.",
          "display_title": "Tier 3 Interactive :  More Teen Numbers and Partners – Activity 2",
          "component_type": "RtI",
          "standards": "",
          "bigidea": "Big Idea 3",
         "component": "RtI",
          "dashboardGroup": "Core Resources"
        },
        {
          "id": "9781328467232-00039",
          "card": 15,
          "HMH_ID": "MXSA_NA18E_RI3_G0KU05B04S14_0039",
          "media_type": "PDF",
          "parent_resource_id": "",
          "se_facing": false,
          "sort_id": "",
          "relative_url": "/content/hsp/math/mx2018/na_ncc/grk/rti_interactive_tier3_9781328467232_/K_MNLEAN467232_U5B4A1.pdf#page=1",
          "categorization": "Interactive Content",
          "tool_type": "",
          "meaningful_description": "During this activity, the student will compare groups of numbers and take away numbers to make the groups equal.",
          "display_title": "Tier 3 Interactive :  More Story Problems and Equations – Activity 1",
          "component_type": "RtI",
          "standards": "",
          "bigidea": "Big Idea 4",
         "component": "RtI",
          "dashboardGroup": "Core Resources"
        },
        {
          "id": "9781328467232-00040",
          "card": 15,
          "HMH_ID": "MXSA_NA18E_RI3_G0KU05B04S14_0040",
          "media_type": "PDF",
          "parent_resource_id": "",
          "se_facing": false,
          "sort_id": "",
          "relative_url": "/content/hsp/math/mx2018/na_ncc/grk/rti_interactive_tier3_9781328467232_/K_MNLEAN467232_U5B4A1.pdf#page=2",
          "categorization": "Interactive Content",
          "tool_type": "",
          "meaningful_description": "During this activity, the student will compare groups of objects with numbers and say whether they are equal or not equal.",
          "display_title": "Tier 3 Interactive :  More Story Problems and Equations – Activity 2",
          "component_type": "RtI",
          "standards": "",
          "bigidea": "Big Idea 4",
         "component": "RtI",
          "dashboardGroup": "Core Resources"
        }
      ]
    }
  ],
  "student": []
}